STATION_ID,STATION,STATE,COUNTRY,LATITUDE,LONGITUDE,ELEVATION
USC00190120,AMHERST,MA,US,42.3861,-72.5375,44.2
USC00190190,ASHBURNHAM,MA,US,42.6178,-71.9158,337.7
USC00190192,ASHBURNHAM N,MA,US,42.6617,-71.9358,349.3
USC00190213,ASHFIELD,MA,US,42.5133,-72.8508,408.4
USC00190408,BARRE FALLS DAM,MA,US,42.4281,-72.0275,251.5
USC00190535,BEDFORD,MA,US,42.4833,-71.2833,48.8
USW00014702,BEDFORD HANSCOM FLD,MA,US,42.47,-71.2894,40.5
USC00190562,BELCHERTOWN,MA,US,42.2797,-72.3483,167.6
USC00190593,BEVERLY,MA,US,42.5881,-70.8372,19.8
USW00054733,BEVERLY MUNI AP,MA,US,42.5842,-70.9175,32.9
USC00190666,BIRCH HILL DAM,MA,US,42.6325,-72.1228,260.6
USW00014753,BLUE HILL,MA,US,42.2122,-71.1136,190.5
USC00190736,BLUE HILL COOP,MA,US,42.2122,-71.1136,190.5
USW00014739,BOSTON LOGAN INTL AP,MA,US,42.3606,-71.0106,3.7
USC00190840,BRIDGEWATER,MA,US,41.9539,-70.9572,12.2
USC00190860,BROCKTON,MA,US,42.0475,-71.0081,22.9
USC00190998,BUFFUMVILLE LAKE,MA,US,42.1164,-71.9075,158.5
USW00094624,CHATHAM MUNI AP,MA,US,41.6875,-69.9933,20.7
USC00191436,CHESTERFIELD,MA,US,42.3833,-72.85,410
US1MABR0008,DIGHTON 1.1 WSW,MA,US,41.812,-71.1365,42.1
USC00192107,E BRIMFIELD LAKE,MA,US,42.1103,-72.1269,213.4
USC00192175,E HAWLEY,MA,US,42.5742,-72.8681,502
USC00192372,E SANDWICH,MA,US,41.7144,-70.4717,45.7
USC00192451,E WAREHAM,MA,US,41.7653,-70.6697,9.1
USC00192501,EDGARTOWN,MA,US,41.3853,-70.5181,9.1
USC00192807,FITCHBURG COOP,MA,US,42.6167,-71.8017,202.7
USW00004780,FITCHBURG MUNI AP,MA,US,42.5519,-71.7558,106.1
USC00192997,FRANKLIN,MA,US,42.0792,-71.4094,76.2
USC00193229,GREENFIELD #3,MA,US,42.5719,-72.5975,39.6
USC00193276,GROVELAND,MA,US,42.7467,-71.0425,9.1
USC00193401,HARDWICK,MA,US,42.35,-72.2,295.7
USC00193405,HARDWICK 3 WSW,MA,US,42.3333,-72.25,226.5
USC00193505,HAVERHILL,MA,US,42.7594,-71.0603,6.1
USC00193624,HINGHAM,MA,US,42.2269,-70.9125,10.7
USC00193821,HYANNIS,MA,US,41.665,-70.3039,18.3
USW00094720,HYANNIS BARNSTABLE MUNI AP,MA,US,41.6686,-70.28,16.8
USC00193890,JAMAICA PLAIN,MA,US,42.3031,-71.1242,29
USC00194105,LAWRENCE,MA,US,42.6992,-71.1658,15.2
USW00094723,LAWRENCE MUNI AP,MA,US,42.7172,-71.1239,45.4
USC00194131,LENOX DALE,MA,US,42.3356,-73.2506,306
USC00194154,LEVERETT #2,MA,US,42.4467,-72.53,96
USC00194313,LOWELL,MA,US,42.6408,-71.3636,33.5
USC00194502,MARBLEHEAD,MA,US,42.5008,-70.8644,25.6
USC00194580,MAYNARD 2,MA,US,42.4292,-71.4425,62.5
USC00194711,MIDDLEBORO,MA,US,41.8819,-70.9086,13.7
USC00194744,MIDDLETON,MA,US,42.5933,-71.0186,33.5
USC00194760,MILFORD,MA,US,42.1633,-71.5119,85.3
USW00014756,NANTUCKET MEM AP,MA,US,41.2531,-70.0608,13.7
USC00195175,NATICK,MA,US,42.2825,-71.3439,54.9
USW00094726,NEW BEDFORD MUNI AP,MA,US,41.6764,-70.9583,24.4
USC00195285,NEWBURYPORT,MA,US,42.8319,-70.9153,16.8
USW00054768,NORTH ADAMS HARRIMAN AP,MA,US,42.6958,-73.1708,199.3
USC00195524,NORTHBRIDGE 2,MA,US,42.115,-71.6761,96
USC00195984,NORTON W,MA,US,41.9928,-71.1667,29
US1MANF0001,NORWOOD 1.3 NW,MA,US,42.1974,-71.2153,65.5
USW00054704,NORWOOD MEM AP,MA,US,42.1908,-71.1736,15.2
USC00198368,NWS BOSTON/NORTON,MA,US,41.9561,-71.1394,25.9
USW00054756,ORANGE MUNI AP,MA,US,42.57,-72.2911,169.2
USW00014763,PITTSFIELD MUNI AP,MA,US,42.4272,-73.2892,363.9
USC00196435,PLAINFIELD 2,MA,US,42.5167,-72.9167,542.5
USW00054769,PLYMOUTH MUNI AP,MA,US,41.9097,-70.7294,45.4
USC00196486,PLYMOUTH-KINGSTON,MA,US,41.9819,-70.6961,13.7
USC00196783,READING,MA,US,42.5239,-71.125,33.5
USC00196938,ROCHESTER,MA,US,41.785,-70.9175,19.8
USC00196989,ROWE 3NE,MA,US,42.735,-72.8692,528.8
USC00197627,SOUTHBRIDGE 3 SW,MA,US,42.0583,-72.0722,208.8
USC00198278,SUNDERLAND,MA,US,42.4447,-72.5528,70.1
USC00198367,TAUNTON,MA,US,41.9003,-71.0658,6.1
USW00054777,TAUNTON MUNI AP,MA,US,41.8756,-71.0211,13.1
USC00198573,TULLY LAKE,MA,US,42.6394,-72.2244,207.3
USW00094724,VINEYARD HAVEN AP,MA,US,41.3931,-70.615,20.7
USC00199227,W HARWICH,MA,US,41.6633,-70.1161,4.6
USC00198757,WALPOLE 2,MA,US,42.1608,-71.2461,51.8
USC00198793,WARE,MA,US,42.2622,-72.2483,121.9
USC00199316,WEST MEDWAY,MA,US,42.1333,-71.4333,64
USC00199193,WESTFIELD 3 SW,MA,US,42.0931,-72.8036,131.1
USW00014775,WESTFIELD BARNES MUNI AP,MA,US,42.1578,-72.7161,82.6
USW00094746,WORCESTER RGNL AP,MA,US,42.2706,-71.8731,304.8
USC00199972,WORTHINGTON,MA,US,42.3869,-72.9211,391.7
