,2014,2015,2016,2017,2018
normal_level,0.004,0.05,0.03,0.058,0.058
wd_level,-0.334,-0.352,-0.253,-0.34,-0.34
T_startdrawdown,276.0,274.0,322.0,285.0,285.0
T_stopdrawdown,320.0,322.0,340.0,339.0,339.0
T_startrefill,457.0,435.0,436.0,423.0,423.0
T_stoprefill,484.0,478.0,455.0,437.0,437.0
Qmin_recession,0.01685428761936681,0.0025546619363747986,0.018936353487864453,0.008587931999973066,0.008240474
Qmin_refill,0.008672555882924433,0.006786535068866402,0.0040888365392993025,0.007838690419159421,0.008240474
Qmin_drawdown,0.01432523001382887,0.006995990391218999,0.01384738662877811,0.01749492835540522,0.008240474
Qmin_summer,0.009659975914735164,0.008015455248533119,0.0016739212672996964,0.0008243777259373669,0.008240474
Qmax_recession,0.37225976871747557,0.37225976871747557,0.37225976871747557,0.37225976871747557,0.372259769
Qmax_refill,0.18706947641490387,0.2575131436124991,0.220055329076547,0.2085498152491795,0.372259769
Qmax_drawdown,0.2636293329024921,0.13773100769082716,0.17034208822477706,0.2097982383328429,0.372259769
Qmax_summer,0.37225976871747557,0.37225976871747557,0.37225976871747557,0.37225976871747557,0.372259769
alpha,0.3965847828516983,0.36561381404511634,0.22070272404725047,0.22099040882939827,0.5
beta,0.014333320551138229,0.39392487853627367,0.19258570480102125,0.4953629668618109,0.5
gamma,0.45536969140714073,0.3671619502895534,0.39741471716042176,0.008463846895544663,0.5
theta,0.39049220374314453,0.0018883670829550614,0.44067634421972535,0.30132196312262266,0.5
