,2014,2015,2016,2017
normal_level,-0.013,-0.013,0.058,0.058
wd_level,-0.103,-0.103,-0.053,-0.033
T_startdrawdown,298.0,298.0,326.0,304.0
T_stopdrawdown,310.0,310.0,351.0,355.0
T_startrefill,486.0,486.0,444.0,388.0
T_stoprefill,503.0,503.0,452.0,430.0
Qmin_recession,0.03228387239040737,0.03909785908828891,0.006358164647569362,0.012821055715677994
Qmin_refill,0.035515143325405445,0.009130268365368354,0.0593927535229761,0.013887948013897589
Qmin_drawdown,0.05803159522246465,0.023872663498631458,0.05637840380194372,0.025513515352171518
Qmin_summer,0.0077557335551467245,0.03841527643185616,0.030968814102760655,0.020863636475983327
Qmax_recession,1.641036313883122,1.641036313883122,1.641036313883122,1.1460050607810675
Qmax_refill,0.6333735978554849,0.7093121481446438,0.9949051679229627,0.6666161690238269
Qmax_drawdown,0.223457071865639,0.3599503247126967,1.1269995164588793,0.5187762830052374
Qmax_summer,0.2301905487046747,1.641036313883122,0.39787859029876393,1.6118180926825738
alpha,0.1471455663754377,0.12038822152702486,0.20616193377054598,0.4498642677163762
beta,0.4696551429284599,0.3651325785070042,0.39417357901895733,0.32438432780197834
gamma,0.22554479230359376,0.3900230948050496,0.18220972859554524,0.2979472356640617
theta,0.061879627539001975,0.44808675767534223,0.01337195918885925,0.42623745105427746
