5.252896515808581912e-02
1.472049231996033249e-02
4.733833768316998009e-02
3.757484613859875255e-02
2.283491438314446537e-02
3.391058106849250547e-02
2.134622911449445687e-02
2.992404231200033668e-02
3.501001488559202235e-02
8.124026097301497926e-03
7.989497702174006358e-03
1.635443354724630538e-02
3.505403032486463510e-02
0.000000000000000000e+00
0.000000000000000000e+00
1.346974590517244739e-02
2.190234108545500644e-02
1.840609548643069122e-03
0.000000000000000000e+00
1.714814617997765037e-02
6.100677619987224937e-02
5.549062211077895185e-02
4.976232077192824232e-02
5.728728110203754054e-02
2.662462416900197026e-01
7.608650332868818755e-02
1.283313869343874758e-01
1.233797366810399920e-01
4.520862282060646165e-02
3.483488749809853825e-03
0.000000000000000000e+00
0.000000000000000000e+00
0.000000000000000000e+00
1.183548630382317071e-02
0.000000000000000000e+00
1.255939883980296823e-01
6.209249421245288669e-02
0.000000000000000000e+00
9.716018899106392080e-04
1.631845827792254358e-02
0.000000000000000000e+00
1.944397650242739306e-02
4.502523976559792002e-02
0.000000000000000000e+00
0.000000000000000000e+00
0.000000000000000000e+00
0.000000000000000000e+00
0.000000000000000000e+00
2.044231623442757106e-01
3.371953009090440379e-01
2.926580100777220195e-01
0.000000000000000000e+00
0.000000000000000000e+00
0.000000000000000000e+00
0.000000000000000000e+00
0.000000000000000000e+00
6.278145919681883680e-02
0.000000000000000000e+00
2.479125987621224464e-02
0.000000000000000000e+00
0.000000000000000000e+00
1.379965518305537216e-02
3.244897834716321816e-02
1.792200988229925851e-01
1.843939390393318778e-01
1.564992577642040361e-01
0.000000000000000000e+00
9.555883939305168107e-02
7.134296207742645002e-02
8.074039218737559531e-02
9.906160763555035831e-02
8.442150269985010391e-02
1.262876335895432856e-01
1.031477166298612885e-01
1.707061242800943790e-01
1.612882232596531129e-01
2.075684050286224214e-01
2.136313230352049897e-01
