9.650649952944727328e-02
1.194744031046607591e-01
1.268210218247545762e-01
1.446698508895025437e-01
1.639558500381818329e-01
1.798570392964825848e-01
2.380827275448894331e-01
2.993374217089117550e-01
3.711276734767989249e-01
8.249597163665056687e-01
9.346309435829572299e-02
1.227292931429872919e-01
1.349593043385745039e-01
1.520575890055669843e-01
1.515633959993315238e-01
1.847503946865224622e-01
2.227994259568596425e-01
2.267829163979872276e-01
0.000000000000000000e+00
0.000000000000000000e+00
4.159091317837030483e-02
1.586262527453102811e-02
7.994384726022521481e-02
1.106910146938164807e-01
1.590398342038786550e-01
2.023176235037007775e-01
2.127355370053673478e-01
1.320582927292931474e-01
1.037822244738999117e-01
7.606202514754179661e-03
5.275474835695168063e-02
1.364118425792993083e-01
1.399975181579520278e-01
2.333964030033444936e-01
3.009570501615215221e-01
