0.000000000000000000e+00
0.000000000000000000e+00
0.000000000000000000e+00
0.000000000000000000e+00
0.000000000000000000e+00
4.661906915353401792e-02
0.000000000000000000e+00
0.000000000000000000e+00
2.804626132675031580e-01
2.348218375621259624e-01
9.339497829656596972e-02
2.963963689062744100e-01
1.149992031166273548e-01
2.031655462303368631e-01
2.600578868087859985e-01
0.000000000000000000e+00
0.000000000000000000e+00
0.000000000000000000e+00
1.465089857199609047e-01
1.339362828195167221e-01
1.903171848053529236e-01
2.497146398293844105e-01
1.422214217996803018e-02
0.000000000000000000e+00
8.715073365033031150e-02
2.296716959570714936e-02
8.328803341655754977e-02
1.305844298473816945e-01
1.876569236102302585e-01
3.751676730774395896e-01
0.000000000000000000e+00
0.000000000000000000e+00
3.567594183391691320e-01
8.715156972492486831e-02
0.000000000000000000e+00
4.881682620061070788e-01
0.000000000000000000e+00
0.000000000000000000e+00
0.000000000000000000e+00
4.001064748660688730e-01
0.000000000000000000e+00
1.716400129342272596e-01
0.000000000000000000e+00
0.000000000000000000e+00
6.275795438675745019e-02
0.000000000000000000e+00
0.000000000000000000e+00
3.751765569089095531e-01
3.417125323346793808e-02
1.071380111667517565e-01
5.990236367899748338e-02
3.699839223144148204e-02
2.002040018942871213e-03
4.544875594254025319e-01
1.479275109069430882e-01
8.009071601942134577e-02
0.000000000000000000e+00
8.883921091038903331e-03
2.676892155205309268e-03
6.124751445114384046e-02
1.545516068501579521e-01
5.830004059038144948e-02
8.264788120089856804e-03
1.538498228714689775e-01
0.000000000000000000e+00
1.888028207095487632e-01
1.028513246757793882e-02
2.135702458110945445e-02
1.242988603529327808e-02
0.000000000000000000e+00
1.759750821704549745e-02
2.141605905407436422e-02
6.945710023225205865e-02
3.851775474122759446e-02
1.840253961210885636e-01
1.907072856002239025e-01
0.000000000000000000e+00
3.973824145478974806e-02
0.000000000000000000e+00
0.000000000000000000e+00
0.000000000000000000e+00
0.000000000000000000e+00
1.244274245591423106e-01
0.000000000000000000e+00
0.000000000000000000e+00
0.000000000000000000e+00
0.000000000000000000e+00
0.000000000000000000e+00
2.568562469986924168e-01
0.000000000000000000e+00
1.700789709510256917e-02
2.435489737927612752e-01
0.000000000000000000e+00
0.000000000000000000e+00
0.000000000000000000e+00
0.000000000000000000e+00
0.000000000000000000e+00
0.000000000000000000e+00
0.000000000000000000e+00
0.000000000000000000e+00
4.096768537442944669e-01
0.000000000000000000e+00
0.000000000000000000e+00
0.000000000000000000e+00
0.000000000000000000e+00
4.578018237911870014e-01
0.000000000000000000e+00
0.000000000000000000e+00
3.603824982619832640e-02
5.515053206969695171e-02
0.000000000000000000e+00
0.000000000000000000e+00
3.709465702965079048e-01
2.632388054342647832e-03
0.000000000000000000e+00
0.000000000000000000e+00
0.000000000000000000e+00
2.122434651863342597e-02
2.795266283886701023e-02
0.000000000000000000e+00
0.000000000000000000e+00
0.000000000000000000e+00
0.000000000000000000e+00
0.000000000000000000e+00
0.000000000000000000e+00
3.959019951265556336e-02
5.616242816519919495e-02
0.000000000000000000e+00
1.432099320233363136e-02
0.000000000000000000e+00
0.000000000000000000e+00
0.000000000000000000e+00
0.000000000000000000e+00
0.000000000000000000e+00
0.000000000000000000e+00
0.000000000000000000e+00
0.000000000000000000e+00
0.000000000000000000e+00
3.901801158777925584e-04
0.000000000000000000e+00
0.000000000000000000e+00
0.000000000000000000e+00
0.000000000000000000e+00
0.000000000000000000e+00
0.000000000000000000e+00
4.017590827008079776e-03
0.000000000000000000e+00
1.543761161947565172e-02
0.000000000000000000e+00
0.000000000000000000e+00
0.000000000000000000e+00
1.081874762458981919e-02
0.000000000000000000e+00
0.000000000000000000e+00
0.000000000000000000e+00
0.000000000000000000e+00
0.000000000000000000e+00
0.000000000000000000e+00
0.000000000000000000e+00
0.000000000000000000e+00
1.019696447718135453e-02
1.177368202574746074e-03
0.000000000000000000e+00
0.000000000000000000e+00
0.000000000000000000e+00
0.000000000000000000e+00
2.021869445105230895e-02
0.000000000000000000e+00
1.514808946741042980e-02
0.000000000000000000e+00
2.104853861716938362e-02
1.289082138357040830e-02
0.000000000000000000e+00
0.000000000000000000e+00
1.768958253710258555e-01
1.621636355354492964e-01
2.377527101420014444e-01
0.000000000000000000e+00
0.000000000000000000e+00
0.000000000000000000e+00
0.000000000000000000e+00
4.938711444790549465e-01
0.000000000000000000e+00
0.000000000000000000e+00
0.000000000000000000e+00
0.000000000000000000e+00
3.145929139947546498e-04
1.125459233234140516e-01
0.000000000000000000e+00
0.000000000000000000e+00
0.000000000000000000e+00
0.000000000000000000e+00
0.000000000000000000e+00
0.000000000000000000e+00
5.069575010819500627e-02
0.000000000000000000e+00
0.000000000000000000e+00
1.254764291823020905e-01
1.514994910087288579e-02
0.000000000000000000e+00
0.000000000000000000e+00
3.273309476778971661e-01
0.000000000000000000e+00
0.000000000000000000e+00
0.000000000000000000e+00
0.000000000000000000e+00
8.790960073496323357e-02
3.452824661125855621e-01
5.138565640630707657e-03
1.179227037000226130e-01
0.000000000000000000e+00
5.372346505273061651e-02
0.000000000000000000e+00
7.735992502077487787e-02
7.392431276081273817e-03
0.000000000000000000e+00
0.000000000000000000e+00
0.000000000000000000e+00
1.732835418855200038e-01
5.391897697817730345e-02
9.185786108636465053e-02
1.238013977526185305e-01
0.000000000000000000e+00
0.000000000000000000e+00
0.000000000000000000e+00
0.000000000000000000e+00
0.000000000000000000e+00
0.000000000000000000e+00
0.000000000000000000e+00
8.918324059624446742e-02
0.000000000000000000e+00
0.000000000000000000e+00
0.000000000000000000e+00
0.000000000000000000e+00
5.696589815235080234e-01
5.100086078920904598e-01
1.201101014187867279e-02
0.000000000000000000e+00
0.000000000000000000e+00
0.000000000000000000e+00
0.000000000000000000e+00
2.831010440781173490e-02
1.473095313880307400e-01
1.762482888913554091e-01
8.800726890275462067e-02
0.000000000000000000e+00
2.854443264012178072e-01
2.742866037603329532e-02
0.000000000000000000e+00
0.000000000000000000e+00
0.000000000000000000e+00
0.000000000000000000e+00
0.000000000000000000e+00
0.000000000000000000e+00
0.000000000000000000e+00
0.000000000000000000e+00
0.000000000000000000e+00
0.000000000000000000e+00
0.000000000000000000e+00
0.000000000000000000e+00
0.000000000000000000e+00
0.000000000000000000e+00
2.964935681766872611e-02
0.000000000000000000e+00
4.805269509643980697e-01
2.149040953878442739e-01
0.000000000000000000e+00
0.000000000000000000e+00
0.000000000000000000e+00
0.000000000000000000e+00
0.000000000000000000e+00
0.000000000000000000e+00
0.000000000000000000e+00
0.000000000000000000e+00
7.733427165434162420e-01
3.533158575863742934e-01
0.000000000000000000e+00
1.033346075209244652e-02
7.112946731726062233e-02
0.000000000000000000e+00
0.000000000000000000e+00
0.000000000000000000e+00
1.609221961243989252e-01
1.213120146764002233e-01
1.866815981611314457e-01
1.322212750791166014e-01
0.000000000000000000e+00
0.000000000000000000e+00
3.071052046525442059e-01
0.000000000000000000e+00
6.085410795221817271e-01
0.000000000000000000e+00
0.000000000000000000e+00
6.941776039326296166e-01
4.892680824826892150e-01
3.583525423100159535e-01
7.679247619876465591e-02
6.328861225884360175e-01
4.278662357686016660e-01
5.609682264827119402e-01
3.266333311717610211e-01
2.510304474681729903e-01
1.603991944203453091e-01
0.000000000000000000e+00
1.015761763597664707e-02
1.399974105054188622e-02
0.000000000000000000e+00
0.000000000000000000e+00
0.000000000000000000e+00
0.000000000000000000e+00
5.854933986560706925e-03
7.238444168549003008e-03
0.000000000000000000e+00
1.463860127357561117e-02
1.106965649645543781e-01
0.000000000000000000e+00
0.000000000000000000e+00
2.241005290458604991e-03
0.000000000000000000e+00
0.000000000000000000e+00
0.000000000000000000e+00
2.047736323010580176e-03
0.000000000000000000e+00
0.000000000000000000e+00
3.473677421180474539e-02
0.000000000000000000e+00
0.000000000000000000e+00
0.000000000000000000e+00
0.000000000000000000e+00
0.000000000000000000e+00
0.000000000000000000e+00
4.822300033116290702e-04
0.000000000000000000e+00
0.000000000000000000e+00
0.000000000000000000e+00
0.000000000000000000e+00
0.000000000000000000e+00
0.000000000000000000e+00
0.000000000000000000e+00
0.000000000000000000e+00
0.000000000000000000e+00
0.000000000000000000e+00
0.000000000000000000e+00
0.000000000000000000e+00
0.000000000000000000e+00
0.000000000000000000e+00
0.000000000000000000e+00
0.000000000000000000e+00
0.000000000000000000e+00
0.000000000000000000e+00
0.000000000000000000e+00
1.162699561650719880e-02
9.894603634715382762e-03
0.000000000000000000e+00
1.646126313549464357e-02
0.000000000000000000e+00
0.000000000000000000e+00
0.000000000000000000e+00
0.000000000000000000e+00
0.000000000000000000e+00
0.000000000000000000e+00
0.000000000000000000e+00
0.000000000000000000e+00
7.514647493978829362e-03
0.000000000000000000e+00
0.000000000000000000e+00
7.874770430579299332e-03
2.121097669001826419e-02
0.000000000000000000e+00
3.380500725620294578e-01
5.692550808688361386e-01
0.000000000000000000e+00
6.580951441266072455e-02
8.335236769417148084e-02
1.405200776920477457e-01
9.127625199227434871e-02
7.480489453532222777e-02
0.000000000000000000e+00
2.177216181808971640e-01
1.979743743639463815e-01
1.176463256840051125e-01
2.137048473172956445e-02
6.206038024888481386e-02
3.165530220931790373e-01
2.051558661149192608e-01
0.000000000000000000e+00
0.000000000000000000e+00
1.536115172458902556e-01
0.000000000000000000e+00
0.000000000000000000e+00
5.413482493953996055e-01
0.000000000000000000e+00
0.000000000000000000e+00
0.000000000000000000e+00
0.000000000000000000e+00
7.343470577757079676e-01
0.000000000000000000e+00
4.831320102500110888e-03
0.000000000000000000e+00
2.259088819384820479e-01
0.000000000000000000e+00
1.074640034438442138e-01
1.169335480362642954e-01
1.160917360222279843e-01
9.288933202290493296e-02
6.297255424652425937e-02
0.000000000000000000e+00
4.723757077720952546e-01
0.000000000000000000e+00
9.141938615415837188e-02
0.000000000000000000e+00
0.000000000000000000e+00
5.523248022761073628e-02
2.066562414166785155e-02
8.969799757037411059e-02
1.750658564281542817e-01
1.988835507580633821e-01
1.720491820432448055e-02
0.000000000000000000e+00
3.792650626089550392e-01
3.650956780658742296e-01
0.000000000000000000e+00
0.000000000000000000e+00
2.155976766563869884e-01
1.049163141928752541e-01
5.004191478969590573e-02
5.136474325194836585e-04
9.239710480353895139e-02
5.215259262510141269e-02
1.733931953379209967e-01
5.966604713451489905e-01
3.844558896013314242e-01
0.000000000000000000e+00
0.000000000000000000e+00
0.000000000000000000e+00
4.943743296383610805e-03
0.000000000000000000e+00
0.000000000000000000e+00
0.000000000000000000e+00
0.000000000000000000e+00
0.000000000000000000e+00
0.000000000000000000e+00
0.000000000000000000e+00
0.000000000000000000e+00
1.561178960042176322e-01
4.159227390599177232e-01
4.447306388100200625e-01
4.638994468803518956e-01
3.762331646115538164e-01
5.166885884854457434e-01
0.000000000000000000e+00
2.388681979573845371e-01
2.639658063716278646e-01
1.969996257408888618e-01
1.942833985310970374e-02
1.786860594888916298e-01
0.000000000000000000e+00
3.002642766872951063e-01
7.676091045437458127e-02
0.000000000000000000e+00
9.308284706436367739e-02
1.855577825402183190e-01
2.302049331597287307e-01
0.000000000000000000e+00
2.681783437878472176e-01
2.532483259351108185e-01
2.176236436653121442e-01
1.972931599328643093e-01
9.112312883829674914e-02
1.611459548018720211e-01
0.000000000000000000e+00
0.000000000000000000e+00
1.878528402764068628e-01
0.000000000000000000e+00
6.428486523589188595e-02
6.023311450019578489e-02
7.691313391979930081e-02
9.294431292299128178e-02
2.042675673972697559e-01
0.000000000000000000e+00
1.411413591203381501e-01
0.000000000000000000e+00
3.778008128774752034e-02
3.830969427719533877e-03
0.000000000000000000e+00
7.959839393669215779e-02
4.576977126955569103e-02
1.200941489324345718e-01
0.000000000000000000e+00
2.830701248575603346e-01
0.000000000000000000e+00
2.726349863648567795e-01
1.331989837857144561e-03
0.000000000000000000e+00
6.374436741532592265e-02
1.240571354053582043e-01
3.839394052878420949e-01
9.211767504605633539e-02
0.000000000000000000e+00
5.314032366383777267e-02
1.088233705280553937e-01
2.213522109259177528e-01
1.922754608812931310e-01
4.288207798938506454e-01
0.000000000000000000e+00
0.000000000000000000e+00
0.000000000000000000e+00
0.000000000000000000e+00
0.000000000000000000e+00
3.253593775808566457e-01
5.815638889445207127e-01
0.000000000000000000e+00
7.135363642686944063e-02
1.589195089916228265e-01
8.250453506395782899e-02
1.812519199940972048e-01
4.257302156722657382e-02
1.723588949040600615e-01
1.824482487487333049e-01
9.873654620602427545e-02
6.147078063361349765e-02
1.437478521340119775e-01
7.210850418905545567e-02
4.502382320018313844e-02
1.008246259472880824e-01
9.732415891482509851e-02
1.416154044790386701e-01
1.315725321877178056e-01
8.784924932795699914e-02
1.548670027317997945e-02
0.000000000000000000e+00
0.000000000000000000e+00
0.000000000000000000e+00
3.425676316869868260e-02
2.442670666191083112e-02
5.885477122275679929e-02
1.231782956397120959e-01
1.163746946922981501e-01
1.195695187278997540e-01
0.000000000000000000e+00
0.000000000000000000e+00
0.000000000000000000e+00
0.000000000000000000e+00
0.000000000000000000e+00
0.000000000000000000e+00
6.533799454589971079e-02
0.000000000000000000e+00
