0.000000000000000000e+00
0.000000000000000000e+00
0.000000000000000000e+00
0.000000000000000000e+00
8.406415986611787475e-03
1.830952553467299349e-02
7.492778055612682063e-04
0.000000000000000000e+00
0.000000000000000000e+00
3.364629851192807442e-02
4.140080038806929347e-02
4.900551051902883593e-02
2.642819048645967187e-02
3.372423030368707636e-02
3.617709928542310605e-02
3.144563680317224996e-02
2.999291838474583624e-02
9.128866907628058885e-03
3.505176617145284307e-02
0.000000000000000000e+00
3.092751405130649348e-02
0.000000000000000000e+00
9.477976960043363319e-03
1.947638489379646676e-02
1.915506837291802711e-02
3.059546160696527753e-02
2.319366043654323001e-02
2.204647001656068542e-02
2.820204479025373301e-02
2.051272350044048426e-02
1.092530584230819689e-02
2.784035400351456829e-02
3.199284594099832679e-02
1.259434853270667218e-02
2.401958660068003251e-02
3.212831694180404759e-03
0.000000000000000000e+00
4.825467168557548946e-03
1.089762983810420305e-02
0.000000000000000000e+00
1.154221169206209353e-02
2.259924164982348577e-02
1.506006024381679152e-02
1.299796533768964382e-02
1.816849190839146810e-02
2.276399144229405286e-02
6.561528556463794813e-03
4.923350868645150896e-02
7.062509030363706142e-03
0.000000000000000000e+00
1.716655126645998466e-02
9.562267853407174084e-03
1.636469820114477836e-02
0.000000000000000000e+00
1.213566174194090526e-02
8.078488419807421453e-03
3.080077708419649840e-02
0.000000000000000000e+00
3.852631349845933584e-02
5.632625219136910832e-02
0.000000000000000000e+00
2.829840565973231262e-02
1.065936795234615625e-02
0.000000000000000000e+00
1.391629154887790223e-02
1.651735918928231434e-02
4.280293920916156819e-03
1.114675756290586447e-02
0.000000000000000000e+00
0.000000000000000000e+00
2.196781154713319494e-03
9.038830364153887034e-03
1.278373158120900584e-02
2.470738840306664977e-02
4.411996086441078747e-03
7.203835319392211910e-03
7.736465427717786197e-03
2.744912139142664798e-03
6.053574766485337807e-03
1.023944274481683009e-04
6.641596285602309642e-03
0.000000000000000000e+00
0.000000000000000000e+00
0.000000000000000000e+00
1.687575342406065146e-02
2.502623389382375302e-02
1.677095631889343255e-02
4.386826871646862941e-02
8.846058515026525293e-03
2.508910210007362154e-02
6.337105402114685815e-02
0.000000000000000000e+00
2.723787330568095116e-03
1.361252827572229790e-03
9.758771986998971554e-03
3.218881805371097329e-03
4.635072801881150867e-02
1.871054163894123393e-02
0.000000000000000000e+00
0.000000000000000000e+00
0.000000000000000000e+00
2.211868392961113816e-02
2.297060677816037053e-02
2.184648809518058288e-02
3.004890213431431201e-02
0.000000000000000000e+00
1.657583044695945182e-02
4.229832960334278802e-02
1.682008627962322186e-02
7.067594620012388612e-03
1.738134273622688603e-02
2.672349334721455666e-02
0.000000000000000000e+00
0.000000000000000000e+00
1.879870416571641570e-02
1.370159360028970486e-02
9.005228736481633162e-03
2.504092654013189822e-03
1.042034959208965397e-02
3.037945125536272578e-02
1.776904366739421454e-02
2.521270087467835860e-02
1.418100336953613191e-02
4.071302095014691508e-02
4.143501624817158557e-02
2.660666007749368754e-03
0.000000000000000000e+00
3.242147018582751394e-02
2.786465452085322078e-02
4.661188991727092945e-02
0.000000000000000000e+00
1.106887891289931591e-03
2.319972858529404519e-02
1.815759574034955456e-02
1.491287279403495127e-02
0.000000000000000000e+00
2.094684268633157796e-04
0.000000000000000000e+00
0.000000000000000000e+00
0.000000000000000000e+00
0.000000000000000000e+00
0.000000000000000000e+00
0.000000000000000000e+00
0.000000000000000000e+00
0.000000000000000000e+00
2.874615269920232155e-02
0.000000000000000000e+00
0.000000000000000000e+00
0.000000000000000000e+00
1.897512037816873748e-02
0.000000000000000000e+00
0.000000000000000000e+00
0.000000000000000000e+00
3.903755325611937138e-02
1.208145091162593082e-01
1.894862834294798459e-01
1.528664625998813198e-01
0.000000000000000000e+00
2.675618799196342601e-01
0.000000000000000000e+00
0.000000000000000000e+00
2.870102296401874642e-01
0.000000000000000000e+00
1.761258977314714147e-01
1.971751103496824364e-01
2.362677236048414398e-01
4.470313901526994094e-02
0.000000000000000000e+00
0.000000000000000000e+00
7.645835784909470190e-02
0.000000000000000000e+00
1.030810886762631579e-01
0.000000000000000000e+00
0.000000000000000000e+00
0.000000000000000000e+00
0.000000000000000000e+00
3.523092694498441285e-02
0.000000000000000000e+00
0.000000000000000000e+00
1.189535843730036430e-02
0.000000000000000000e+00
1.767332445849527714e-02
7.184101381829945121e-02
0.000000000000000000e+00
0.000000000000000000e+00
0.000000000000000000e+00
5.466158326715496452e-02
0.000000000000000000e+00
0.000000000000000000e+00
0.000000000000000000e+00
0.000000000000000000e+00
0.000000000000000000e+00
1.793657797315389643e-02
0.000000000000000000e+00
0.000000000000000000e+00
0.000000000000000000e+00
1.745413006303595319e-02
0.000000000000000000e+00
0.000000000000000000e+00
1.918188247543095928e-02
2.162596429040825052e-02
3.501327242508465304e-02
4.595501783573569844e-03
0.000000000000000000e+00
0.000000000000000000e+00
0.000000000000000000e+00
3.127557700743192892e-02
8.810668072542628126e-02
1.032298043549804006e-01
1.843709641017120954e-02
0.000000000000000000e+00
1.153318062189973405e-03
0.000000000000000000e+00
0.000000000000000000e+00
7.644344518721670617e-03
0.000000000000000000e+00
0.000000000000000000e+00
3.892228693396117181e-03
4.423143741317517308e-02
5.046683734060225524e-02
3.423984144821290432e-02
3.613226870732420826e-02
0.000000000000000000e+00
0.000000000000000000e+00
8.252618984328548984e-03
2.401712445091236034e-02
0.000000000000000000e+00
2.574087303097614965e-02
7.038233054457548876e-02
3.029501625335016823e-02
9.095312963720468546e-02
0.000000000000000000e+00
5.002132882234781863e-02
5.868625265335032648e-02
9.915975232223532554e-02
1.066496566426218817e-01
1.535856452426277718e-01
2.368738393416894294e-01
2.148735674309462107e-01
2.450643611125878363e-01
1.853200369799786196e-01
2.926896619776936381e-01
0.000000000000000000e+00
0.000000000000000000e+00
0.000000000000000000e+00
0.000000000000000000e+00
0.000000000000000000e+00
0.000000000000000000e+00
0.000000000000000000e+00
1.636537861019057849e-02
0.000000000000000000e+00
0.000000000000000000e+00
0.000000000000000000e+00
0.000000000000000000e+00
0.000000000000000000e+00
0.000000000000000000e+00
6.751033601641204251e-02
4.440593988319508495e-02
3.411536123870556603e-02
3.968681392882963954e-02
3.920711980683379977e-02
3.029246154922494647e-02
2.650845691781954575e-02
7.029948494411022986e-02
5.360498521170217745e-02
3.619224579035079659e-02
4.138688763215921801e-02
7.593375131347668283e-02
3.495414644672265730e-02
1.466181437395990168e-02
1.368773148103881801e-02
2.531417997688423932e-02
2.332793906655454899e-02
1.979074582208412147e-02
0.000000000000000000e+00
3.051884783831103343e-02
1.037723660068405086e-02
1.038119572299686481e-02
1.015692548392376909e-01
7.763032371929085018e-02
6.814373663512980628e-02
1.734222499182118959e-01
0.000000000000000000e+00
7.274713062266269237e-02
0.000000000000000000e+00
0.000000000000000000e+00
9.563598123821022423e-03
1.224831277949330402e-02
3.099236664206911698e-02
2.022419039253466749e-02
4.396751114174942549e-02
4.015276098627369727e-02
4.507362297432210979e-02
7.091333448841737226e-03
3.790690767733996373e-03
0.000000000000000000e+00
0.000000000000000000e+00
9.976556097259191291e-04
0.000000000000000000e+00
3.041080880069744682e-02
3.223466970400953868e-02
1.374567537218566310e-02
2.593573032517945340e-02
0.000000000000000000e+00
0.000000000000000000e+00
3.627457599454269373e-03
0.000000000000000000e+00
0.000000000000000000e+00
4.979917499188273554e-03
4.962421260624675333e-03
1.537415557713377005e-02
2.319496911124845420e-02
1.761932509277206252e-02
7.566352869387088509e-02
1.181230892046022662e-01
7.536022707767869866e-02
5.404329721312115670e-02
1.819534943033996113e-02
0.000000000000000000e+00
0.000000000000000000e+00
6.213376997347391795e-03
2.761591646707110478e-02
0.000000000000000000e+00
0.000000000000000000e+00
0.000000000000000000e+00
0.000000000000000000e+00
5.356623214303778309e-03
2.991287014457187643e-02
4.788925075134663548e-03
1.280758085355611017e-02
0.000000000000000000e+00
0.000000000000000000e+00
0.000000000000000000e+00
0.000000000000000000e+00
1.741486901325327297e-01
0.000000000000000000e+00
2.829216002104291139e-01
0.000000000000000000e+00
