6.829357989482545133e-01
2.716277607501706437e-01
0.000000000000000000e+00
2.800548280020332959e-01
9.828571777630472628e-01
0.000000000000000000e+00
0.000000000000000000e+00
0.000000000000000000e+00
0.000000000000000000e+00
0.000000000000000000e+00
0.000000000000000000e+00
4.462285099502746877e-01
0.000000000000000000e+00
0.000000000000000000e+00
6.689254900043412055e-02
0.000000000000000000e+00
0.000000000000000000e+00
0.000000000000000000e+00
0.000000000000000000e+00
1.151387281692940190e-01
0.000000000000000000e+00
0.000000000000000000e+00
0.000000000000000000e+00
0.000000000000000000e+00
0.000000000000000000e+00
0.000000000000000000e+00
0.000000000000000000e+00
0.000000000000000000e+00
0.000000000000000000e+00
0.000000000000000000e+00
3.110645980434503105e-02
0.000000000000000000e+00
2.695862306126750596e-01
2.810206486144165572e-01
0.000000000000000000e+00
0.000000000000000000e+00
2.128464264787017501e-01
0.000000000000000000e+00
0.000000000000000000e+00
1.139601313223547741e-01
2.957637991108176267e-01
1.007294562336159272e-01
5.976126809129901352e-01
6.196595918593477137e-01
2.667327172370534960e-01
4.189496311082517577e-02
1.055170726079093235e-01
2.415295825843944977e-01
6.372381299839547930e-01
0.000000000000000000e+00
0.000000000000000000e+00
0.000000000000000000e+00
0.000000000000000000e+00
9.733298230221604230e-01
0.000000000000000000e+00
4.128685323010342634e-01
2.002529703951591022e-01
8.481749945238389876e-02
1.701275584241538130e+00
6.051504960387296128e-01
5.486282058705066467e-01
3.419545057609608696e-01
4.786740356907493998e-01
7.494009483232555446e-01
0.000000000000000000e+00
0.000000000000000000e+00
1.732569519397125224e-01
0.000000000000000000e+00
8.238111138460688879e-04
4.903206753347773977e-02
0.000000000000000000e+00
0.000000000000000000e+00
2.364455374474601704e-02
7.413017618806022613e-02
7.670458983946385478e-01
0.000000000000000000e+00
5.693099380069726045e-01
7.892492280846383768e-01
1.546510552615901479e-01
6.129128313469182909e-02
8.521124516515014014e-01
8.393892018191125015e-02
3.388764741817608672e-01
5.081182729715035817e-01
9.500684327963887510e-01
4.112581598667901517e-01
1.011331703039192398e+00
0.000000000000000000e+00
9.732445604150229135e-02
5.156944220803988399e-02
0.000000000000000000e+00
1.267836860706119360e-02
7.353317203550395476e-02
1.471574384855963702e-01
0.000000000000000000e+00
0.000000000000000000e+00
1.278613136766691416e-01
1.128692866077975754e-01
1.152615076429305135e-01
1.266631330107637343e-01
1.323607716252380162e-01
1.058318642542534493e-01
1.424500411724542448e-01
1.336577651060446847e-01
1.250652311492788105e-01
8.444730053022556082e-02
9.255768710718725867e-02
0.000000000000000000e+00
0.000000000000000000e+00
0.000000000000000000e+00
6.943596982519661953e-02
2.148795828555986193e-02
4.587385505445777389e-01
1.583156958255073909e-01
0.000000000000000000e+00
7.723811867051202928e-02
8.200628570024699748e-02
1.345366741953483991e-01
4.120435175715712051e-01
2.004627388775138130e-01
5.644540384209448085e-03
1.351055437773777089e-02
1.421278264888849174e-01
8.383235670570185483e-02
0.000000000000000000e+00
2.419576256572491743e-02
6.872332950946201668e-01
0.000000000000000000e+00
0.000000000000000000e+00
1.462598617703643189e-01
0.000000000000000000e+00
8.936022057392768725e-02
6.752745277194311946e-01
8.109539473904819884e-02
0.000000000000000000e+00
9.835555387913964553e-01
0.000000000000000000e+00
7.035589326107562214e-02
3.502253638757822640e-02
0.000000000000000000e+00
3.676711061774095429e-02
4.467260994372446864e-02
8.688281347309723124e-02
1.086618014243944247e-01
6.143557920175912734e-02
1.254667579486460662e-02
7.343172379495609137e-02
1.424052029161465005e-01
4.818078335680432180e-03
0.000000000000000000e+00
4.151365588097188364e-01
3.195255917347584740e-01
2.194409858700602928e-02
6.929424742837507756e-01
7.288022379041921885e-03
0.000000000000000000e+00
0.000000000000000000e+00
1.235612899622022115e-01
4.091695094035428526e-01
6.120925370889762629e-03
3.186812524658272361e-01
8.955235328117598648e-02
1.013688752982772334e-01
1.511417773973956769e-01
3.814530958328753857e-02
1.187107589352304204e+00
2.259707403153338734e-01
4.568221442915263580e-02
0.000000000000000000e+00
0.000000000000000000e+00
3.444481429648394988e-01
1.852188794869855659e-01
4.851264133714581761e-01
1.085782598391942688e+00
0.000000000000000000e+00
1.557091216626220187e-01
2.406906250989117313e-01
9.311135180368909081e-01
1.166650133476446305e+00
0.000000000000000000e+00
0.000000000000000000e+00
2.147435032715320699e-02
9.569156680545225224e-02
5.044530767578808694e-02
4.570321539046282022e-01
1.220859167394059974e-01
3.229386629347396481e-02
4.703714719797616461e-02
0.000000000000000000e+00
3.455627377855036153e-02
1.082894668779800229e+00
1.357710522825949506e-01
7.184403683161870446e-02
1.084537255293466507e-01
5.935567995368494498e-02
1.274540378848842970e-01
1.404708510804653643e-01
2.493719943068339329e-01
3.667830877449806959e-01
1.695615255248678621e-01
1.565351325970286978e-01
3.853982772923005840e-01
3.421665632292785197e-01
1.332831140154586425e-01
0.000000000000000000e+00
2.795684322885093054e-01
0.000000000000000000e+00
1.294051223215965551e+00
2.330608906304368622e-01
1.666054851810598869e-01
4.871577630689691296e-01
2.836496767087064441e-01
1.294263230765095030e-01
0.000000000000000000e+00
0.000000000000000000e+00
0.000000000000000000e+00
0.000000000000000000e+00
0.000000000000000000e+00
0.000000000000000000e+00
0.000000000000000000e+00
0.000000000000000000e+00
0.000000000000000000e+00
5.328002570444217295e-02
9.545563775281977470e-02
1.810512914844211452e-01
1.150350247896418376e-01
0.000000000000000000e+00
0.000000000000000000e+00
0.000000000000000000e+00
0.000000000000000000e+00
5.968055063907765252e-03
2.148715153104691633e-01
0.000000000000000000e+00
0.000000000000000000e+00
0.000000000000000000e+00
4.242945600748798118e-01
2.479599229132720128e-02
5.257180783106886468e-02
4.671188779571328747e-02
6.326458997407516036e-03
0.000000000000000000e+00
0.000000000000000000e+00
4.410377694282233835e-02
6.040471199416796305e-02
5.973071723515746556e-02
0.000000000000000000e+00
0.000000000000000000e+00
0.000000000000000000e+00
0.000000000000000000e+00
0.000000000000000000e+00
0.000000000000000000e+00
0.000000000000000000e+00
0.000000000000000000e+00
2.565330308654506682e-03
1.285094095546596843e-02
0.000000000000000000e+00
0.000000000000000000e+00
4.083204067066002058e-02
0.000000000000000000e+00
0.000000000000000000e+00
0.000000000000000000e+00
0.000000000000000000e+00
0.000000000000000000e+00
8.670766436160954466e-03
0.000000000000000000e+00
0.000000000000000000e+00
6.191168975461282253e-02
0.000000000000000000e+00
1.425155721765986594e-01
0.000000000000000000e+00
0.000000000000000000e+00
1.043760228234515003e-01
0.000000000000000000e+00
0.000000000000000000e+00
1.261496617677661421e-02
2.776918207836527874e-01
1.708843236397171172e-01
2.419683916955217839e-01
2.003072593066714258e-01
0.000000000000000000e+00
8.527943895580253342e-02
9.580858168890614424e-02
8.281654273475740069e-02
7.511634117319589479e-03
2.726603244932080394e-01
2.474250457577539253e-01
9.258695236732354672e-02
2.276629144510824987e-01
1.611393157915078922e-01
0.000000000000000000e+00
0.000000000000000000e+00
0.000000000000000000e+00
0.000000000000000000e+00
1.287572602750056971e-01
1.384049559259485467e-02
0.000000000000000000e+00
0.000000000000000000e+00
7.948501164800513691e-03
3.706447411118192481e-02
0.000000000000000000e+00
0.000000000000000000e+00
1.298582801864766045e-01
4.431806725342721937e-02
0.000000000000000000e+00
0.000000000000000000e+00
0.000000000000000000e+00
8.598612383571727167e-04
5.109540029599116823e-02
0.000000000000000000e+00
2.479695460411789412e-02
2.097201909194065100e-02
5.712100152025382377e-02
3.811502465446515303e-02
0.000000000000000000e+00
4.388360287552339756e-02
6.525609971740151116e-02
6.119635609971883078e-02
2.662838033013243885e-02
2.413909893976692866e-01
8.783375883370714288e-02
5.670705189804127466e-02
7.706105977539018381e-02
5.706768783313675292e-02
1.146510238577639895e-01
2.678749588156415506e-01
0.000000000000000000e+00
6.022822178431934403e-02
9.183504316422848313e-02
1.084287879214045069e-01
6.332552488918276323e-02
1.017630298904226016e-01
5.379007953368614148e-02
2.127913349452320579e-01
1.892283572028786998e-02
0.000000000000000000e+00
0.000000000000000000e+00
0.000000000000000000e+00
0.000000000000000000e+00
0.000000000000000000e+00
0.000000000000000000e+00
0.000000000000000000e+00
0.000000000000000000e+00
0.000000000000000000e+00
0.000000000000000000e+00
0.000000000000000000e+00
0.000000000000000000e+00
2.902618892858078743e-03
0.000000000000000000e+00
3.865997960812842839e-03
6.421431147854969601e-03
1.039827285561484120e-02
0.000000000000000000e+00
6.580294752192365239e-03
4.834601750443131250e-03
0.000000000000000000e+00
0.000000000000000000e+00
9.146149139669277131e-03
3.026697041004362126e-02
1.997739066031856692e-01
0.000000000000000000e+00
3.166793504325256942e-02
7.006681230007122396e-02
2.332531036692428797e-02
1.923479004828960309e-02
1.549427472861979183e-02
8.659815843604250218e-03
0.000000000000000000e+00
2.686819046650187892e-01
0.000000000000000000e+00
1.970046819690258327e-02
0.000000000000000000e+00
0.000000000000000000e+00
9.965692355741255851e-03
0.000000000000000000e+00
0.000000000000000000e+00
0.000000000000000000e+00
0.000000000000000000e+00
0.000000000000000000e+00
4.998365724460786252e-02
0.000000000000000000e+00
0.000000000000000000e+00
0.000000000000000000e+00
0.000000000000000000e+00
0.000000000000000000e+00
1.224456821601928921e-03
0.000000000000000000e+00
0.000000000000000000e+00
2.373853355220299777e-02
7.287005871854428975e-03
0.000000000000000000e+00
0.000000000000000000e+00
2.308670245542907007e-02
0.000000000000000000e+00
0.000000000000000000e+00
1.474427916611452047e-02
0.000000000000000000e+00
0.000000000000000000e+00
0.000000000000000000e+00
0.000000000000000000e+00
3.487271368329754404e-03
0.000000000000000000e+00
0.000000000000000000e+00
1.884808054624755730e-02
