1.824002716291128479e-01
2.027947139310109781e-01
2.592097427619002303e-01
3.717695205746524567e-01
5.070416273752860192e-01
0.000000000000000000e+00
0.000000000000000000e+00
1.190958334213463449e-01
4.335945853867218674e-02
2.984993711731439431e-02
5.132468919309135513e-02
4.542305767505533387e-02
6.582866546602972324e-02
1.873382726135882637e-01
3.187701877136234763e-01
6.226487038602063206e-01
0.000000000000000000e+00
0.000000000000000000e+00
1.446185011017460942e-01
2.495662565063425098e-01
3.835232087043652927e-01
4.199214321547490303e-01
5.317082907627761479e-01
4.595510287136400640e-01
5.787745334446927625e-01
1.057397886857761593e+00
