1.772635594119510369e-02
8.436401035055648978e-02
7.586141550577224502e-02
8.693740118451755150e-02
7.456638435924602126e-02
8.179537680017270884e-02
8.479723369443194214e-02
9.434365847880428479e-02
2.138982947145586511e-01
1.861969703514317065e-01
1.684898097563644337e-01
1.980002393113851900e-01
1.449223684473641138e-01
1.443501815820510681e-01
1.608710112246001800e-01
5.895445095658778667e-02
1.695345220553483023e-01
2.206599472892521452e-01
9.276227430862335477e-02
9.635972995457021961e-02
9.805142637939702477e-02
8.595272684054174051e-02
7.777722048196063220e-02
8.688119998633464514e-02
2.386487499470311135e-01
1.730199864193577020e-01
0.000000000000000000e+00
2.165701183918939676e-01
1.785414771822358415e-01
1.618634745465386826e-01
2.349846083061120083e-01
2.547532637644779330e-01
2.327535494836565633e-01
1.802286056010459769e-01
6.731506992952673851e-02
9.393377531717982121e-02
1.688324484232642253e-01
1.991978087212156745e-01
