,2014,2015,2016,2017,2018
normal_level,0.0,0.0,-0.05,-0.002,0.06
wd_level,-0.494,-0.269,-0.301,-0.229,-0.229
T_startdrawdown,274.0,303.0,303.0,299.0,299.0
T_stopdrawdown,290.0,343.0,329.0,307.0,307.0
T_startrefill,410.0,444.0,443.0,449.0,449.0
T_stoprefill,494.0,463.0,452.0,453.0,453.0
Qmin_recession,0.007596753,0.007596753,0.009954533,0.011262241,0.011262241
Qmin_refill,0.012292482,0.012292482,0.010428959,0.009003526,0.009003526
Qmin_drawdown,0.016721494,0.016721494,0.018938834,0.004793482,0.004793482
Qmin_summer,0.012269099,0.002269099,0.013128684,0.015125708,0.015125708
Qmax_recession,0.368632241,0.368632241,0.368632241,0.368632241,0.368632241
Qmax_refill,0.294712267,0.294712267,0.122123039,0.294712267,0.294712267
Qmax_drawdown,0.261656155,0.261656155,0.28190767,0.261656155,0.261656155
Qmax_summer,0.174433762,0.174433762,0.274083277,0.174433762,0.174433762
alpha,8.991100114814804,8.991100114814804,8.991100114814804,8.991100114814804,8.991100114814804
beta,79.98469673159717,79.98469673159717,79.98469673159717,79.98469673159717,79.98469673159717
gamma,16.908768978403234,5.290261678868613,5.290261678868613,5.290261678868613,5.290261678868613
theta,8.748108988713774,8.748108988713774,8.748108988713774,8.748108988713774,8.748108988713774
