,2014,2015,2016,2017
normal_level,0.001,-0.082,0.0,-0.018
wd_level,-1.4,-1.474,-1.444,-1.444
T_startdrawdown,290.0,288.0,292.0,288.0
T_stopdrawdown,328.0,332.0,319.0,327.0
T_startrefill,448.0,410.0,419.0,407.0
T_stoprefill,470.0,492.0,467.0,471.0
Qmin_recession,0.019632096,0.012526131,0.023843414,0.038339127
Qmin_refill,0.019067451,0.034741527,0.029630365,0.034535774
Qmin_drawdown,0.055434361,0.031620958,0.027482933,0.061289807
Qmin_summer,0.040686901,0.018702649,0.019899418,0.061296792
Qmax_recession,1.479942674,1.516051232,1.516051232,1.516051232
Qmax_refill,0.54820954,1.128739317,0.214045377,0.768985079
Qmax_drawdown,0.736316781,0.890222223,0.489882909,0.321773916
Qmax_summer,1.503247704,1.516051232,1.516051232,0.316878765
alpha,34.91339585857182,23.644462613164357,18.66773198327519,14.491754338224542
beta,7.493939343382377,18.066370630263336,6.749678337034295,14.31536602712417
gamma,12.870436642304554,6.543528964636001,4.360950120775382,6.737900464620785
theta,4.52266239417993,4.52266239417993,4.52266239417993,4.52266239417993
