,2014,2015,2016,2017
normal_level,0.003,0.05,0.005,0.074
wd_level,-0.85,-1.311,-0.687,-0.893
T_startdrawdown,288.0,288.0,298.0,298.0
T_stopdrawdown,309.0,330.0,333.0,333.0
T_startrefill,435.0,399.0,415.0,372.0
T_stoprefill,462.0,463.0,432.0,379.0
Qmin_recession,0.040335295,0.023101155,0.033916091,0.116964571
Qmin_refill,0.037683361,0.025833483,0.028540225,0.067879142
Qmin_drawdown,0.039485503,0.052108639,0.044029945,0.03580855
Qmin_summer,0.071829511,0.066855159,0.057769481,0.030999904
Qmax_recession,3.005351684,3.005351684,3.005351684,3.005351684
Qmax_refill,2.899728439,0.735539372,2.56573028,1.035092218
Qmax_drawdown,0.155135802,0.547518876,0.856123271,0.44771759
Qmax_summer,1.676278953,1.505351684,0.880426466,1.080582565
alpha,11.028362431507052,10.782186756923288,11.559391709425709,21.594225019478742
beta,73.82004889128602,70.69788812873234,60.87891424144415,60.87891424144415
gamma,11.330429114562099,11.40117421658285,13.168163134086852,18.34617929132902
theta,103.38619774004366,107.65121845084813,6.486152091384633,58.332525486827805
