,2015,2016,2017
normal_level,0.02,-0.001,-0.017
wd_level,-0.616,-0.631,-0.835
T_startdrawdown,305.0,285.0,283.0
T_stopdrawdown,307.0,293.0,295.0
T_startrefill,427.0,459.0,444.0
T_stoprefill,431.0,461.0,459.0
Qmin_recession,0.12,0.013675066,0.090790671
Qmin_refill,0.033401305,0.012562618,0.076822463
Qmin_drawdown,0.25,0.155321783,0.172388354
Qmin_summer,0.033401305,0.067736816,0.022076358
Qmax_recession,2.412829864,2.412829864,2.412829864
Qmax_refill,2.412829864,2.171677149,1.219111442
Qmax_drawdown,0.245989198,0.245989198,0.245989198
Qmax_summer,2.412829864,1.81500212,1.73180819
alpha,13.186136975183908,13.186136975183908,11.6724924545663
beta,139.0,139.0,6.431657894411622
gamma,4.852651556033107,4.852651556033107,32.36320169309007
theta,4.952519207300717,4.952519207300717,16.221271675384802
