,Simulated Water Levels
2014-10-03,-1.7763568394002505e-15
2014-10-04,-0.029269181627056717
2014-10-05,-0.0504612127523405
2014-10-06,-0.0764152780632692
2014-10-07,-0.09998634380368365
2014-10-08,-0.12066867175993945
2014-10-09,-0.14103732311419837
2014-10-10,-0.15889851329139848
2014-10-11,-0.17320335105877316
2014-10-12,-0.18124222698326964
2014-10-13,-0.19521137365552033
2014-10-14,-0.2078314699112731
2014-10-15,-0.2201607549710758
2014-10-16,-0.22965847579670395
2014-10-17,-0.20883969720816342
2014-10-18,-0.22060444952076352
2014-10-19,-0.23026088601536454
2014-10-20,-0.23975260490460215
2014-10-21,-0.24805417342224523
2014-10-22,-0.2536842097960754
2014-10-23,-0.19826710184356422
2014-10-24,-0.17697404342270584
2014-10-25,-0.19113070729553705
2014-10-26,-0.20413841433953017
2014-10-27,-0.21584671080338236
2014-10-28,-0.22653581530180045
2014-10-29,-0.23637518207337305
2014-10-30,-0.2427006527800497
2014-10-31,-0.25088771338747584
2014-11-01,-0.25808676980406453
2014-11-02,-0.24803160128752388
2014-11-03,-0.252956706215139
2014-11-04,-0.25973678376665443
2014-11-05,-0.2661721197265168
2014-11-06,-0.2722271483676817
2014-11-07,-0.2618777995682997
2014-11-08,-0.2679372497829897
2014-11-09,-0.2732200009940833
2014-11-10,-0.27820515135506074
2014-11-11,-0.2827737450246266
2014-11-12,-0.28698097653444954
2014-11-13,-0.29098756616001165
2014-11-14,-0.28711730519035505
2014-11-15,-0.29043593487362873
2014-11-16,-0.29330689216095873
2014-11-17,-0.28234383767073457
2014-11-18,-0.2527518660478192
2014-11-19,-0.2591516645680745
2014-11-20,-0.26471729797666743
2014-11-21,-0.27003311317526446
2014-11-22,-0.2746305749174889
2014-11-23,-0.27887385329731273
2014-11-24,-0.2777943625530783
2014-11-25,-0.27620659685281534
2014-11-26,-0.28117356810695515
2014-11-27,-0.23726821108557505
2014-11-28,-0.243462342270524
2014-11-29,-0.25044312743247765
2014-11-30,-0.25667123015024096
2014-12-01,-0.26280867433256905
2014-12-02,-0.2687620540289215
2014-12-03,-0.26036967009784373
2014-12-04,-0.26297843631986506
2014-12-05,-0.26837305646415555
2014-12-06,-0.25755081999839735
2014-12-07,-0.23800561854413083
2014-12-08,-0.24549745124185218
2014-12-09,-0.2504621883560869
2014-12-10,-0.18118984370455316
2014-12-11,-0.18913733498593022
2014-12-12,-0.19981777852901939
2014-12-13,-0.21084299327077805
2014-12-14,-0.2209531622967571
2014-12-15,-0.23016795552403924
2014-12-16,-0.23850293515186483
2014-12-17,-0.2318682159434644
2014-12-18,-0.2354922009072542
2014-12-19,-0.24348881555968482
2014-12-20,-0.25054795901774085
2014-12-21,-0.2568447933204627
2014-12-22,-0.26263904121364057
2014-12-23,-0.2646246510316743
2014-12-24,-0.2646719572160636
2014-12-25,-0.2553650953151454
2014-12-26,-0.2596425884291307
2014-12-27,-0.26550810080218756
2014-12-28,-0.27085716292638917
2014-12-29,-0.275130086446552
2014-12-30,-0.2793669359750579
2014-12-31,-0.2828941238624303
2015-01-01,-0.2860879928574107
2015-01-02,-0.2889925875863284
2015-01-03,-0.29186851572468253
2015-01-04,-0.2631319312793634
2015-01-05,-0.2617369771957918
2015-01-06,-0.2670652082320393
2015-01-07,-0.27169123168257414
2015-01-08,-0.27589896325180163
2015-01-09,-0.2797260411193916
2015-01-10,-0.2806772735229073
2015-01-11,-0.2840718667282802
2015-01-12,-0.2871590773438104
2015-01-13,-0.28634344782710563
2015-01-14,-0.2892249011607877
2015-01-15,-0.29184528156974565
2015-01-16,-0.2938419486988666
2015-01-17,-0.29615801414234166
2015-01-18,-0.2981498825221971
2015-01-19,-0.2798264122182781
2015-01-20,-0.2837134986748229
2015-01-21,-0.2871547154683727
2015-01-22,-0.2900293716992808
2015-01-23,-0.29280917227864567
2015-01-24,-0.29051398513843196
2015-01-25,-0.2731705073946573
2015-01-26,-0.277478923773014
2015-01-27,-0.2540508348180488
2015-01-28,-0.24324759337833424
2015-01-29,-0.2500238944861781
2015-01-30,-0.2561889932496362
2015-01-31,-0.2601145163702876
2015-02-01,-0.26536863331483485
2015-02-02,-0.2595709344173027
2015-02-03,-0.24325831218002136
2015-02-04,-0.2500336468396833
2015-02-05,-0.25269442421348565
2015-02-06,-0.25511528516515103
2015-02-07,-0.26082085838614955
2015-02-08,-0.25718889905676523
2015-02-09,-0.2512442068376428
2015-02-10,-0.2470053184662495
2015-02-11,-0.2534427395924528
2015-02-12,-0.25929929725421363
2015-02-13,-0.2636296769547206
2015-02-14,-0.2685662090544465
2015-02-15,-0.2501644591851182
2015-02-16,-0.253436720834765
2015-02-17,-0.2592938217735128
2015-02-18,-0.26462206858119686
2015-02-19,-0.26651489406163265
2015-02-20,-0.2711906636195023
2015-02-21,-0.2754436675311416
2015-02-22,-0.2718247582746356
2015-02-23,-0.27643311924364333
2015-02-24,-0.28021186194822345
2015-02-25,-0.28364858952232375
2015-02-26,-0.2867741344269419
2015-02-27,-0.2896165708429539
2015-02-28,-0.29220145777521545
2015-03-01,-0.29455206135812073
2015-03-02,-0.29173263020694495
2015-03-03,-0.29416395253810546
2015-03-04,-0.28554225349705753
2015-03-05,-0.28923662084791957
2015-03-06,-0.29201892980482924
2015-03-07,-0.2943860791525017
2015-03-08,-0.2965386256733096
2015-03-09,-0.2988696239424602
2015-03-10,-0.3013148612156318
2015-03-11,-0.30289147746652567
2015-03-12,-0.30571496978186197
2015-03-13,-0.3076283506476418
2015-03-14,-0.3089626187084784
2015-03-15,-0.2905746905408302
2015-03-16,-0.2923915876628458
2015-03-17,-0.2949021638906233
2015-03-18,-0.2953930520780039
2015-03-19,-0.29760992671066155
2015-03-20,-0.29966106479583665
2015-03-21,-0.2998778507157436
2015-03-22,-0.300416906930133
2015-03-23,-0.3024265801221997
2015-03-24,-0.3039681975358839
2015-03-25,-0.3056127941879252
2015-03-26,-0.30485515491902415
2015-03-27,-0.287810729013648
2015-03-28,-0.2897636402615511
2015-03-29,-0.28730123259428897
2015-03-30,-0.29093389408764114
2015-03-31,-0.29437513077216515
2015-04-01,-0.29794724824522767
2015-04-02,-0.30082749053833613
2015-04-03,-0.2664846118788633
2015-04-04,-0.21343508366045683
2015-04-05,-0.1561819638588915
2015-04-06,-0.10480023583268139
2015-04-07,-0.07003854399289011
2015-04-08,-0.04542146916525702
2015-04-09,-0.01735143960207086
2015-04-10,-0.004622406150842195
2015-04-11,0.002968979549478945
2015-04-12,0.0017112508542407312
2015-04-13,-8.905799362945999e-05
2015-04-14,-0.0016258897542966722
2015-04-15,-0.002055236611079536
2015-04-16,-0.0027700519804882973
2015-04-17,-0.0026892977598516055
2015-04-18,-0.00249573736351838
2015-04-19,-0.003570839339017695
2015-04-20,-0.003931084408140606
2015-04-21,0.034433020151994675
2015-04-22,0.021255285834278048
2015-04-23,0.014469675681779037
2015-04-24,0.008879586502934522
2015-04-25,0.0053074128018790745
2015-04-26,0.0027425065272472793
2015-04-27,0.00066015572333189
2015-04-28,0.0018055618508787674
2015-04-29,0.00029221588124794806
2015-04-30,-0.0016031450478593001
2015-05-01,-0.00282962348391802
2015-05-02,-0.003123210752423944
2015-05-03,-0.003810323418368178
2015-05-04,-0.005010893516361747
2015-05-05,-0.006739507896578623
2015-05-06,-0.007273483504621758
2015-05-07,-0.007961432882153119
2015-05-08,-0.008604038960139171
2015-05-09,-0.008619025787238499
2015-05-10,-0.008705214949897844
2015-05-11,-0.010166854264817005
2015-05-12,-0.010074979419470331
2015-05-13,-0.010470889780500592
2015-05-14,-0.009543053648537914
2015-05-15,-0.008707552080418957
2015-05-16,-0.008230793915503298
2015-05-17,-0.00864076101362432
2015-05-18,-0.009779383397471975
2015-05-19,-0.009851749868106552
2015-05-20,-0.006765614736194081
2015-05-21,-0.0070265197826566705
2015-05-22,-0.0069548952302636025
2015-05-23,-0.007905210158117626
2015-05-24,-0.00809161776484757
2015-05-25,-0.009718015286646953
2015-05-26,-0.011739360254813924
2015-05-27,-0.014802681739856993
2015-05-28,-0.018358216477712297
2015-05-29,-0.019553246113123812
2015-05-30,-0.02219461757694141
2015-05-31,-0.023269798771904604
2015-06-01,0.0013734623071677277
2015-06-02,0.044820500683741216
2015-06-03,0.03373897770210732
2015-06-04,0.020062686430118326
2015-06-05,0.010586510428963969
2015-06-06,0.004333837991659983
2015-06-07,-0.00046030929786766706
2015-06-08,-0.0032148395639612914
2015-06-09,-0.005690530652999293
2015-06-10,-0.00015034848079231722
2015-06-11,-0.004449548035387885
2015-06-12,-0.0077533023404727786
2015-06-13,-0.009664765203315717
2015-06-14,-0.011352253887704222
2015-06-15,-0.00610559734832794
2015-06-16,0.007866297400312305
2015-06-17,0.0027182472900468824
2015-06-18,-0.002012950942074987
2015-06-19,-0.005024738578731203
2015-06-20,-0.007729411979430445
2015-06-21,0.034481853452697386
2015-06-22,0.04071064687842796
2015-06-23,0.022435214316444352
2015-06-24,0.014446271598914429
2015-06-25,0.00504734361656034
2015-06-26,-0.0009351445372018929
2015-06-27,-0.004638820393609855
2015-06-28,0.022170895257491274
2015-06-29,0.029368723263251795
2015-06-30,0.01654611413353102
2015-07-01,0.0069825142250108385
2015-07-02,0.027974501827664255
2015-07-03,0.01451562483256108
2015-07-04,0.005752215830792551
2015-07-05,0.0010187130880332518
2015-07-06,-0.0033621193091875057
2015-07-07,-0.006767425122368387
2015-07-08,-0.009194083388854857
2015-07-09,-0.011057934841864459
2015-07-10,0.02624170075242649
2015-07-11,0.013097115419024696
2015-07-12,0.004386269210582938
2015-07-13,-0.0020243489694014016
2015-07-14,-0.005900914519932243
2015-07-15,-0.006365529935846936
2015-07-16,-0.008434579018376631
2015-07-17,-0.009276634747292789
2015-07-18,-0.004420963126535504
2015-07-19,-0.006893366639771692
2015-07-20,-0.008729686715374108
2015-07-21,-0.01106623960058073
2015-07-22,-0.01293432302737152
2015-07-23,-0.014542659031437921
2015-07-24,-0.016031437135780813
2015-07-25,-0.015393276907703424
2015-07-26,-0.016800431414620398
2015-07-27,-0.012947620823891448
2015-07-28,-0.010423579840690422
2015-07-29,-0.013753479982525185
2015-07-30,-0.017365172208911872
2015-07-31,-0.018325863117802932
2015-08-01,-0.021701059089709318
2015-08-02,-0.023322590557927292
2015-08-03,-0.02648206536894815
2015-08-04,-0.030348502150274292
2015-08-05,-0.006586002704440652
2015-08-06,-0.008623504161487716
2015-08-07,-0.010218609133651135
2015-08-08,-0.012483002636571428
2015-08-09,-0.014733997102998053
2015-08-10,-0.017245491689398484
2015-08-11,-0.020052480207872314
2015-08-12,-0.004705831072328692
2015-08-13,-0.00750845521340171
2015-08-14,-0.010020781986828098
2015-08-15,-0.012706840800754016
2015-08-16,-0.005959797937638456
2015-08-17,-0.009239375140781547
2015-08-18,-0.012950407219179283
2015-08-19,-0.01687842603440526
2015-08-20,-0.020631452464312083
2015-08-21,-0.024259798707295666
2015-08-22,-0.021693949906700816
2015-08-23,-0.02291884651749676
2015-08-24,-0.02583786880211658
2015-08-25,-0.02932301999455511
2015-08-26,-0.03301683382349818
2015-08-27,-0.03659139576118253
2015-08-28,-0.03971219943597326
2015-08-29,-0.04269343158118044
2015-08-30,-0.04572887712987583
2015-08-31,-0.04941902221633754
2015-09-01,-0.05307978898178245
2015-09-02,-0.05686343958776252
2015-09-03,-0.060754185060812205
2015-09-04,-0.06473911247267594
2015-09-05,-0.06785801830549065
2015-09-06,-0.07069248278113793
2015-09-07,-0.07420530211460363
2015-09-08,-0.07822347821206765
2015-09-09,-0.08270999389101164
2015-09-10,-0.08706522221069068
2015-09-11,-0.04592040126784802
2015-09-12,-0.044046074759800824
2015-09-13,-0.04423145861118716
2015-09-14,-0.04169118676123418
2015-09-15,-0.0438785159741748
2015-09-16,-0.04651557767795733
2015-09-17,-0.0494593424492491
2015-09-18,-0.052470758450336774
2015-09-19,-0.05543612054703839
2015-09-20,-0.058187634196975146
2015-09-21,-0.06054730000021724
2015-09-22,-0.06242639255569227
2015-09-23,-0.06445876861871813
2015-09-24,-0.0665897009892582
2015-09-25,-0.06885673535621528
2015-09-26,-0.07075508207866488
2015-09-27,-0.07237316057854226
2015-09-28,-0.0740479110016441
2015-09-29,-0.0763326801854376
2015-09-30,-0.05884583595306925
2015-10-01,-0.0015398927188918776
2015-10-02,-0.054112001435807855
2015-10-03,-0.10447423930038457
2015-10-04,-0.1605364481496423
2015-10-05,-0.2187372871750224
2015-10-06,-0.27757885796808246
2015-10-07,-0.3084541968556991
2015-10-08,-0.32396404820519553
2015-10-09,-0.33173965931987315
2015-10-10,-0.3289489925581428
2015-10-11,-0.333782302754261
2015-10-12,-0.3364391195279177
2015-10-13,-0.33817809227719486
2015-10-14,-0.3374545816485286
2015-10-15,-0.3383595586035364
2015-10-16,-0.3386125447474999
2015-10-17,-0.338369176729322
2015-10-18,-0.3381547831077194
2015-10-19,-0.3378038158315446
2015-10-20,-0.33751532227112957
2015-10-21,-0.3375606431961451
2015-10-22,-0.3367719661892341
2015-10-23,-0.3381197461543879
2015-10-24,-0.33839965602910027
2015-10-25,-0.33670508534033505
2015-10-26,-0.33589906333663144
2015-10-27,-0.33664522189207613
2015-10-28,-0.3368880164584569
2015-10-29,-0.28397774305262935
2015-10-30,-0.3092337575984807
2015-10-31,-0.3235898056726523
2015-11-01,-0.32990345452653447
2015-11-02,-0.333953321096347
2015-11-03,-0.33590496229193434
2015-11-04,-0.337012183642611
2015-11-05,-0.33748877188929605
2015-11-06,-0.3380641420976618
2015-11-07,-0.3384636511529431
2015-11-08,-0.3384083013108121
2015-11-09,-0.33789081292213297
2015-11-10,-0.33746601769364304
2015-11-11,-0.3343430915008909
2015-11-12,-0.3303563426517755
2015-11-13,-0.3288788954355324
2015-11-14,-0.3329592766032379
2015-11-15,-0.33469379285788214
2015-11-16,-0.33568268652428923
2015-11-17,-0.33642436724981106
2015-11-18,-0.33635645376594514
2015-11-19,-0.33630325389066673
2015-11-20,-0.30785262954746173
2015-11-21,-0.3225220157482349
2015-11-22,-0.32949894322366013
2015-11-23,-0.33162086787159684
2015-11-24,-0.3338844849939555
2015-11-25,-0.3348588201952172
2015-11-26,-0.33540912107254783
2015-11-27,-0.336049768407678
2015-11-28,-0.3367790418856762
2015-11-29,-0.3265783356287937
2015-11-30,-0.3313513808991031
2015-12-01,-0.33358657744980036
2015-12-02,-0.3275535458857135
2015-12-03,-0.32508338007805904
2015-12-04,-0.33087975435892947
2015-12-05,-0.33358212605397686
2015-12-06,-0.33501499963779224
2015-12-07,-0.3357950816202857
2015-12-08,-0.33622262721134355
2015-12-09,-0.3361891885911197
2015-12-10,-0.336307553563822
2015-12-11,-0.3366116784264106
2015-12-12,-0.3367144329734293
2015-12-13,-0.33685584993501383
2015-12-14,-0.33687333249092344
2015-12-15,-0.3155682361113845
2015-12-16,-0.32420946540594286
2015-12-17,-0.3303039091310742
2015-12-18,-0.31422960369935815
2015-12-19,-0.32380077864216084
2015-12-20,-0.3299252181160508
2015-12-21,-0.3329488762628632
2015-12-22,-0.3346133784773544
2015-12-23,-0.32679640123239206
2015-12-24,-0.2970085931113493
2015-12-25,-0.31712876153531155
2015-12-26,-0.3271518239887934
2015-12-27,-0.32504887509106783
2015-12-28,-0.32842902827686604
2015-12-29,-0.3171135744500093
2015-12-30,-0.30280798598991954
2015-12-31,-0.316220128271377
2016-01-01,-0.3261997497957605
2016-01-02,-0.33117499132576356
2016-01-03,-0.33353364167650934
2016-01-04,-0.3347940048173612
2016-01-05,-0.33501604700519483
2016-01-06,-0.3351270703659788
2016-01-07,-0.3353313476541899
2016-01-08,-0.33547438535886887
2016-01-09,-0.33404690418040417
2016-01-10,-0.3323339701752479
2016-01-11,-0.29845917566085856
2016-01-12,-0.317154933670011
2016-01-13,-0.3206834212534595
2016-01-14,-0.32795751518629324
2016-01-15,-0.3315969932635783
2016-01-16,-0.3221385133441288
2016-01-17,-0.31690762841959064
2016-01-18,-0.3207067778891224
2016-01-19,-0.32805958451505646
2016-01-20,-0.33164805052814206
2016-01-21,-0.333499751846162
2016-01-22,-0.334368877234164
2016-01-23,-0.3348034746571198
2016-01-24,-0.33017865048322204
2016-01-25,-0.3329218463386603
2016-01-26,-0.3342870550881374
2016-01-27,-0.33530239842277254
2016-01-28,-0.3357277280718325
2016-01-29,-0.33577503007824916
2016-01-30,-0.33591147834050084
2016-01-31,-0.33607560110199053
2016-02-01,-0.3366046185474012
2016-02-02,-0.337085375118539
2016-02-03,-0.33680154635008375
2016-02-04,-0.32480171336067176
2016-02-05,-0.32450205538349675
2016-02-06,-0.30275786449390374
2016-02-07,-0.3191289666296946
2016-02-08,-0.32758348244163926
2016-02-09,-0.3154482624843533
2016-02-10,-0.3253573478427487
2016-02-11,-0.32911483984474277
2016-02-12,-0.3321758931597385
2016-02-13,-0.33370685051526827
2016-02-14,-0.33447243694473183
2016-02-15,-0.3348552571070469
2016-02-16,-0.32136321604681584
2016-02-17,-0.31791184133017847
2016-02-18,-0.3274371552819124
2016-02-19,-0.3315855840126831
2016-02-20,-0.3328812281404119
2016-02-21,-0.3352448974076925
2016-02-22,-0.33624895449858183
2016-02-23,-0.3364989051271019
2016-02-24,-0.32983149271376444
2016-02-25,-0.3011196437391277
2016-02-26,-0.3181763722671356
2016-02-27,-0.32753161835505207
2016-02-28,-0.33169519862121266
2016-02-29,-0.3348482338458254
2016-03-01,-0.33650548643210687
2016-03-02,-0.32419353161356046
2016-03-03,-0.3254480588234676
2016-03-04,-0.3305246624550424
2016-03-05,-0.3330841637054709
2016-03-06,-0.33453286483918987
2016-03-07,-0.3355356434642447
2016-03-08,-0.33629159320500435
2016-03-09,-0.3371745081846713
2016-03-10,-0.3385615319034887
2016-03-11,-0.3167192457005825
2016-03-12,-0.3029048471343536
2016-03-13,-0.2899979116798841
2016-03-14,-0.2798144787337975
2016-03-15,-0.2458398244680735
2016-03-16,-0.21149299105018482
2016-03-17,-0.17829961259187055
2016-03-18,-0.1539639469733789
2016-03-19,-0.13346829004983096
2016-03-20,-0.11655376217069158
2016-03-21,-0.09042898057954218
2016-03-22,-0.07295769797980878
2016-03-23,-0.05896151385416726
2016-03-24,-0.04737172157409564
2016-03-25,-0.034127696081318604
2016-03-26,-0.01892387039508403
2016-03-27,-0.008935970651541503
2016-03-28,-0.0005841253342957486
2016-03-29,0.029504194793492644
2016-03-30,0.031134578607601604
2016-03-31,0.03254362759573226
2016-04-01,0.034307983079165716
2016-04-02,0.033425739157991075
2016-04-03,0.04504625783805771
2016-04-04,0.046995732181159156
2016-04-05,0.06210493722802379
2016-04-06,0.05921145133406469
2016-04-07,0.05676464046599783
2016-04-08,0.08831649396262264
2016-04-09,0.08196204433642684
2016-04-10,0.07413468958678227
2016-04-11,0.06847618540197775
2016-04-12,0.06358797208423272
2016-04-13,0.06340408904694783
2016-04-14,0.05886168975850925
2016-04-15,0.05511423891796863
2016-04-16,0.051918169383633916
2016-04-17,0.049388385078670716
2016-04-18,0.04670584741774597
2016-04-19,0.044593135464845446
2016-04-20,0.042684788989667766
2016-04-21,0.0414736020301838
2016-04-22,0.03978907228130346
2016-04-23,0.04463631369118737
2016-04-24,0.043592960044061435
2016-04-25,0.04230116083501745
2016-04-26,0.041067072400922555
2016-04-27,0.050698176939616424
2016-04-28,0.048096390336097805
2016-04-29,0.04607595289145827
2016-04-30,0.044252728566928745
2016-05-01,0.04242574655055975
2016-05-02,0.04302680864523545
2016-05-03,0.05810293744171258
2016-05-04,0.056525675331551284
2016-05-05,0.0628921785262424
2016-05-06,0.06381402353637977
2016-05-07,0.06024543611713096
2016-05-08,0.05586961721975392
2016-05-09,0.052101384961862784
2016-05-10,0.04844162775433691
2016-05-11,0.0452284697105112
2016-05-12,0.042083514947854894
2016-05-13,0.03931971410481161
2016-05-14,0.040857729095268525
2016-05-15,0.037798749736425385
2016-05-16,0.03691051708093962
2016-05-17,0.036632443673694226
2016-05-18,0.0354517403286394
2016-05-19,0.034484570450423746
2016-05-20,0.04118347394116739
2016-05-21,0.03877530952643582
2016-05-22,0.03673791894012268
2016-05-23,0.036222074913777824
2016-05-24,0.040782917397880425
2016-05-25,0.04027807254914073
2016-05-26,0.03648890317186293
2016-05-27,0.03325970443403392
2016-05-28,0.030681212555490944
2016-05-29,0.027714401383299503
2016-05-30,0.03257248955283831
2016-05-31,0.03435213480280375
2016-06-01,0.03148294895556525
2016-06-02,0.02951536581753622
2016-06-03,0.02784992366779715
2016-06-04,0.025819077173451
2016-06-05,0.0228261229806197
2016-06-06,0.05317067912128426
2016-06-07,0.0472832215107033
2016-06-08,0.043295089606359305
2016-06-09,0.039748266536919985
2016-06-10,0.037465700682408176
2016-06-11,0.0353674888308424
2016-06-12,0.036480581538160806
2016-06-13,0.0340504472855816
2016-06-14,0.03262208624088814
2016-06-15,0.0307228268842632
2016-06-16,0.027903717663008365
2016-06-17,0.024723615642120222
2016-06-18,0.021932332410576016
2016-06-19,0.019214335755985523
2016-06-20,0.016014380427220587
2016-06-21,0.014083875007835367
2016-06-22,0.010376603128839257
2016-06-23,0.007185146066285064
2016-06-24,0.0037566013679066756
2016-06-25,0.0004384414719318386
2016-06-26,-0.00311672889041148
2016-06-27,-0.007305653905379295
2016-06-28,-0.007657559153456006
2016-06-29,-0.009235288029372235
2016-06-30,-0.012693368726210075
2016-07-01,-0.01725122246987354
2016-07-02,-0.017276556965900802
2016-07-03,-0.02128187568863371
2016-07-04,-0.02535495335061455
2016-07-05,-0.02799088797185245
2016-07-06,-0.030627363855431078
2016-07-07,-0.03618822351768802
2016-07-08,-0.04135703026649562
2016-07-09,-0.0459844559027065
2016-07-10,-0.04751853418519936
2016-07-11,-0.05050667868480385
2016-07-12,-0.055003161543521806
2016-07-13,-0.059985334374658805
2016-07-14,-0.06552095999249641
2016-07-15,-0.06540806570277713
2016-07-16,-0.07145405316955955
2016-07-17,-0.07715344146922742
2016-07-18,-0.08304439672742792
2016-07-19,-0.08590321667595635
2016-07-20,-0.09105347076716175
2016-07-21,-0.09553479024633305
2016-07-22,-0.10076177654676144
2016-07-23,-0.10673034901296052
2016-07-24,-0.11304913860733734
2016-07-25,-0.11873356402051982
2016-07-26,-0.12447260731527443
2016-07-27,-0.13046913151137574
2016-07-28,-0.13632384350172977
2016-07-29,-0.14086077088886562
2016-07-30,-0.1445049477033784
2016-07-31,-0.14975525855665772
2016-08-01,-0.1501070305427037
2016-08-02,-0.15012886979780227
2016-08-03,-0.14881408223499282
2016-08-04,-0.15348087707033287
2016-08-05,-0.15864798395882218
2016-08-06,-0.16381624745251955
2016-08-07,-0.1677629585960494
2016-08-08,-0.1729895545315463
2016-08-09,-0.1780830717154469
2016-08-10,-0.18333370926014148
2016-08-11,-0.17686222349721437
2016-08-12,-0.18295349729602872
2016-08-13,-0.18389518003866367
2016-08-14,-0.17047065389023786
2016-08-15,-0.17636809441036405
2016-08-16,-0.1816816051731056
2016-08-17,-0.18049245332700892
2016-08-18,-0.18573884678967456
2016-08-19,-0.19090330149386148
2016-08-20,-0.1961257390984974
2016-08-21,-0.20119338125810682
2016-08-22,-0.16896063267245331
2016-08-23,-0.172941969280342
2016-08-24,-0.17655594011802034
2016-08-25,-0.18105563374891798
2016-08-26,-0.1858741392827028
2016-08-27,-0.1909206652848825
2016-08-28,-0.19582152090493743
2016-08-29,-0.2005030853863321
2016-08-30,-0.20522329362089398
2016-08-31,-0.2092174956316093
2016-09-01,-0.21345392360484272
2016-09-02,-0.21724060498560505
2016-09-03,-0.2211107750884853
2016-09-04,-0.22466253207905496
2016-09-05,-0.22833466406932956
2016-09-06,-0.22746240739573675
2016-09-07,-0.2275194008970587
2016-09-08,-0.23083222383879232
2016-09-09,-0.2346024141051366
2016-09-10,-0.23941074268733242
2016-09-11,-0.24264257348113283
2016-09-12,-0.24455088030421734
2016-09-13,-0.24778539431421276
2016-09-14,-0.25134819509611006
2016-09-15,-0.2552758519297855
2016-09-16,-0.25834221478940034
2016-09-17,-0.26128608944321297
2016-09-18,-0.26453836282188803
2016-09-19,-0.25692680362750053
2016-09-20,-0.24158799316882096
2016-09-21,-0.24532657492501997
2016-09-22,-0.24882029937447658
2016-09-23,-0.252316645595271
2016-09-24,-0.24618651185695128
2016-09-25,-0.24896073887205716
2016-09-26,-0.25119894884667016
2016-09-27,-0.24453079070506334
2016-09-28,-0.24537391556181465
2016-09-29,-0.24777812647346487
2016-09-30,-0.250087012095908
2016-10-01,-0.2375957327001732
2016-10-02,-0.22775650062661335
2016-10-03,-0.2287772177530103
2016-10-04,-0.2311526145224443
2016-10-05,-0.233297187220459
2016-10-06,-0.23514878486107982
2016-10-07,-0.2372337468808423
2016-10-08,-0.23956340869880055
2016-10-09,-0.22532389313664591
2016-10-10,-0.19357156947284349
2016-10-11,-0.19382459493008586
2016-10-12,-0.19416513382883505
2016-10-13,-0.19552903462167315
2016-10-14,-0.19726792031296103
2016-10-15,-0.1986072768306526
2016-10-16,-0.199632447932089
2016-10-17,-0.2011059664282886
2016-10-18,-0.19487989214103063
2016-10-19,-0.1964675478469884
2016-10-20,-0.1985863763792759
2016-10-21,-0.1982161304342398
2016-10-22,-0.10660075634885846
2016-10-23,-0.09933269165112701
2016-10-24,-0.09356580702400841
2016-10-25,-0.09143898970277675
2016-10-26,-0.0897487461851485
2016-10-27,-0.0881616073539675
2016-10-28,-0.050593636559947086
2016-10-29,-0.042807571391427324
2016-10-30,-0.03748025795832888
2016-10-31,-0.03198051023901094
2016-11-01,-0.02906999003467181
2016-11-02,-0.02618236961799081
2016-11-03,-0.02303732516006196
2016-11-04,-0.0202100517198307
2016-11-05,-0.018051718817686968
2016-11-06,-0.013759956382100924
2016-11-07,-0.011628822896309288
2016-11-08,-0.009482206113087699
2016-11-09,-0.007791538750543836
2016-11-10,-0.005646191515848109
2016-11-11,-0.0038717536187231616
2016-11-12,-0.0025251177801779434
2016-11-13,-0.000846495214952725
2016-11-14,0.000399881807342517
2016-11-15,0.0015233843640691802
2016-11-16,0.04018981804996624
2016-11-17,0.042624776000325326
2016-11-18,-0.00791248423109625
2016-11-19,-0.06131243295148625
2016-11-20,-0.10984701580351786
2016-11-21,-0.15323535307231584
2016-11-22,-0.1827639808467021
2016-11-23,-0.202579398772051
2016-11-24,-0.2158366752915022
2016-11-25,-0.2220140305050773
2016-11-26,-0.2259429433946316
2016-11-27,-0.23154651518063218
2016-11-28,-0.2352116496823875
2016-11-29,-0.23760122024114327
2016-11-30,-0.22212652889736972
2016-12-01,-0.1806213931605063
2016-12-02,-0.20159667032810002
2016-12-03,-0.2154161262590426
2016-12-04,-0.22447684112475486
2016-12-05,-0.22929656911074225
2016-12-06,-0.22927826096636927
2016-12-07,-0.2304875075241979
2016-12-08,-0.23323357793989263
2016-12-09,-0.2361503579427362
2016-12-10,-0.23798435133816387
2016-12-11,-0.2389735763071208
2016-12-12,-0.22944418490010499
2016-12-13,-0.22854042756013637
2016-12-14,-0.23303736915934437
2016-12-15,-0.23591546955843512
2016-12-16,-0.23762705278852891
2016-12-17,-0.2332278971469055
2016-12-18,-0.22068050564391584
2016-12-19,-0.22467244837389888
2016-12-20,-0.23009553996926435
2016-12-21,-0.2337129061503962
2016-12-22,-0.23634621054854765
2016-12-23,-0.23806773720232766
2016-12-24,-0.2394432241221125
2016-12-25,-0.22859876901050846
2016-12-26,-0.23309474376162154
2016-12-27,-0.23562704100542575
2016-12-28,-0.23812237165755157
2016-12-29,-0.23948514659251963
2016-12-30,-0.20745586168287833
2016-12-31,-0.21888544337458615
2017-01-01,-0.22653428765640182
2017-01-02,-0.23165677616618208
2017-01-03,-0.2343289488682343
2017-01-04,-0.20958075509335927
2017-01-05,-0.21934467767996857
2017-01-06,-0.2262747343584417
2017-01-07,-0.23019358493383457
2017-01-08,-0.2208703039080362
2017-01-09,-0.22755892584391013
2017-01-10,-0.23202100568694473
2017-01-11,-0.2261495062975598
2017-01-12,-0.22716986181663756
2017-01-13,-0.23199090402043954
2017-01-14,-0.23565933930791605
2017-01-15,-0.23743129774559435
2017-01-16,-0.23877703645665438
2017-01-17,-0.23967816180619117
2017-01-18,-0.22372373463528383
2017-01-19,-0.22639303382857356
2017-01-20,-0.23182875498327515
2017-01-21,-0.23528848672075586
2017-01-22,-0.23804340401036228
2017-01-23,-0.2384527305793549
2017-01-24,-0.20865734622209953
2017-01-25,-0.21444295125657842
2017-01-26,-0.22321705067259412
2017-01-27,-0.22962014500958894
2017-01-28,-0.2340895492845938
2017-01-29,-0.23692503057449077
2017-01-30,-0.2387405296269529
2017-01-31,-0.23968612898671093
2017-02-01,-0.2358842682846074
2017-02-02,-0.237965685582207
2017-02-03,-0.23926362014873703
2017-02-04,-0.23990575964857275
2017-02-05,-0.24035631759602705
2017-02-06,-0.2409549450950106
2017-02-07,-0.24145312070364433
2017-02-08,-0.22171440334855141
2017-02-09,-0.2288148983335736
2017-02-10,-0.21204685821720126
2017-02-11,-0.21576960008502155
2017-02-12,-0.22415536727480312
2017-02-13,-0.19640251021310107
2017-02-14,-0.2115007630027641
2017-02-15,-0.2214743348687982
2017-02-16,-0.22161234591822065
2017-02-17,-0.22843746871530968
2017-02-18,-0.23303922742793404
2017-02-19,-0.23642357719371176
2017-02-20,-0.2392394361670398
2017-02-21,-0.24056558587601184
2017-02-22,-0.2412221965923136
2017-02-23,-0.24244253808511562
2017-02-24,-0.24356688717772013
2017-02-25,-0.24473476700915864
2017-02-26,-0.236817032007548
2017-02-27,-0.23913421312518057
2017-02-28,-0.24078234310467028
2017-03-01,-0.24139448049262313
2017-03-02,-0.24326073077197918
2017-03-03,-0.243911236859371
2017-03-04,-0.24329085615647372
2017-03-05,-0.24251129098627278
2017-03-06,-0.2419916216759006
2017-03-07,-0.24190561303293112
2017-03-08,-0.24109813545182934
2017-03-09,-0.24222118930492265
2017-03-10,-0.24304065029009436
2017-03-11,-0.23946264092339042
2017-03-12,-0.23126068485486684
2017-03-13,-0.22346609548723784
2017-03-14,-0.21405737699002625
2017-03-15,-0.1647912219430241
2017-03-16,-0.15382718852693333
2017-03-17,-0.14329457760642672
2017-03-18,-0.13492283078078415
2017-03-19,-0.12675902173173004
2017-03-20,-0.11958552470375139
2017-03-21,-0.11300306431797846
2017-03-22,-0.10474609094603338
2017-03-23,-0.0938241391089818
2017-03-24,-0.0838349953685249
2017-03-25,-0.07318527877984149
2017-03-26,-0.06293511773644855
2017-03-27,-0.05253408383508518
2017-03-28,-0.027139817457622506
2017-03-29,0.014755238890366229
2017-03-30,0.018357482072153708
2017-03-31,0.02076439440701705
2017-04-01,0.07993078428985445
2017-04-02,0.07375231106062063
2017-04-03,0.05002906329866175
2017-04-04,0.046031331435109735
2017-04-05,0.0562976928862815
2017-04-06,0.04147226315131469
2017-04-07,0.06686022866715469
2017-04-08,0.04659794001813111
2017-04-09,0.03648763902304619
2017-04-10,0.030713976655335706
2017-04-11,0.026822000656772538
2017-04-12,0.023998695252993585
2017-04-13,0.027985904122274974
2017-04-14,0.02661696536259761
2017-04-15,0.02588712360387113
2017-04-16,0.02558486660917847
2017-04-17,0.023655057203617602
2017-04-18,0.022890397369813797
2017-04-19,0.023981781645075806
2017-04-20,0.02752654146320399
2017-04-21,0.03468390073680183
2017-04-22,0.04033107582422346
2017-04-23,0.034126705825080705
2017-04-24,0.029161326115806574
2017-04-25,0.026118382058464285
2017-04-26,0.05494684363779889
2017-04-27,0.04594014123150636
2017-04-28,0.035492317200574774
2017-04-29,0.028921899704640985
2017-04-30,0.024442792155244142
2017-05-01,0.025711733990818608
2017-05-02,0.030525129731611145
2017-05-03,0.027225943476459236
2017-05-04,0.02548204734493531
2017-05-05,0.024838519938291448
2017-05-06,0.052711855742536784
2017-05-07,0.04029467094933814
2017-05-08,0.03228627673116247
2017-05-09,0.02847864009700718
2017-05-10,0.026922010404596186
2017-05-11,0.025345551925163967
2017-05-12,0.02445697048147899
2017-05-13,0.024300237220665544
2017-05-14,0.05351011618332269
2017-05-15,0.0526970757399976
2017-05-16,0.04307463476146278
2017-05-17,0.03193384221850604
2017-05-18,0.025201701036220214
2017-05-19,0.029210959211015464
2017-05-20,0.023896990665301487
2017-05-21,0.022721541387171307
2017-05-22,0.02524714361889746
2017-05-23,0.030226377912620173
2017-05-24,0.02585422580747121
2017-05-25,0.0236126580857281
2017-05-26,0.06233848500617878
2017-05-27,0.050385444995796114
2017-05-28,0.035839908520685526
2017-05-29,0.028372965954474694
2017-05-30,0.028610622863205037
2017-05-31,0.025579434283059754
2017-06-01,0.03167178359689782
2017-06-02,0.026453525855576032
2017-06-03,0.02403853688743851
2017-06-04,0.024305483485710155
2017-06-05,0.03385418222750758
2017-06-06,0.0624848230654349
2017-06-07,0.06815372686409749
2017-06-08,0.04513145731390278
2017-06-09,0.032790154548390404
2017-06-10,0.02781403158341167
2017-06-11,0.023341398979035866
2017-06-12,0.020157412606633507
2017-06-13,0.01813768613438871
2017-06-14,0.01804274920684623
2017-06-15,0.018457668488154333
2017-06-16,0.019435225399750067
2017-06-17,0.04137979119749957
2017-06-18,0.03122867820010189
2017-06-19,0.024308942277299295
2017-06-20,0.03134341314604594
2017-06-21,0.02599991551147962
2017-06-22,0.02226852290382464
2017-06-23,0.020568011941143105
2017-06-24,0.02194754461993309
2017-06-25,0.02268494808254662
2017-06-26,0.02586217957264303
2017-06-27,0.02264329901865203
2017-06-28,0.05362867050753639
2017-06-29,0.03693450696296452
2017-06-30,0.02824138835387302
2017-07-01,0.029715536626904182
2017-07-02,0.0233239220879371
2017-07-03,0.02264115483220408
2017-07-04,0.020201350295623755
2017-07-05,0.01942087281008753
2017-07-06,0.018612539579461185
2017-07-07,0.01740396060688454
2017-07-08,0.03083389060751074
2017-07-09,0.027659352261371062
2017-07-10,0.023126943981976567
2017-07-11,0.023206847238059325
2017-07-12,0.022146908349180094
2017-07-13,0.04570289176544051
2017-07-14,0.03738052926820057
2017-07-15,0.030279208281244863
2017-07-16,0.02447781753956857
2017-07-17,0.021258300008206277
2017-07-18,0.018910777603691642
2017-07-19,0.024861598501918714
2017-07-20,0.02087465074898809
2017-07-21,0.017653486269771257
2017-07-22,0.014385557683159966
2017-07-23,0.011042245029754483
2017-07-24,0.01061291437825762
2017-07-25,0.042539077412117265
2017-07-26,0.032067836374047864
2017-07-27,0.026157667573001753
2017-07-28,0.026090866954285197
2017-07-29,0.0225367894216717
2017-07-30,0.021107896538040016
2017-07-31,0.019366136396823386
2017-08-01,0.01689173632594443
2017-08-02,0.013647398090285812
2017-08-03,0.05460848553160158
2017-08-04,0.036709056149962116
2017-08-05,0.027616939338932056
2017-08-06,0.035317030876307776
2017-08-07,0.027926529105478437
2017-08-08,0.024569466404154028
2017-08-09,0.022419400958496816
2017-08-10,0.02108661549281976
2017-08-11,0.01920839654909834
2017-08-12,0.021314026318425938
2017-08-13,0.01927458435829177
2017-08-14,0.01665314975482879
2017-08-15,0.014256121284807577
2017-08-16,0.01168136604301484
2017-08-17,0.008681611999083572
2017-08-18,0.006091267244819676
2017-08-19,0.004458359944248258
2017-08-20,0.00061322905583161
2017-08-21,-0.0029843788491543677
2017-08-22,-0.006596318844148463
2017-08-23,-0.0051869832566229235
2017-08-24,-0.008826779423722009
2017-08-25,-0.012035693133055858
2017-08-26,-0.015133885373355582
2017-08-27,-0.018039238921930156
2017-08-28,-0.0211005328232865
2017-08-29,-0.024183297667146775
2017-08-30,-0.025576569601641452
2017-08-31,-0.028925189599732448
2017-09-01,-0.03231674720173139
2017-09-02,-0.03502521063875452
2017-09-03,-0.03707252100774472
2017-09-04,-0.02323430086548317
2017-09-05,-0.02664984623236233
2017-09-06,-0.03065550986004606
2017-09-07,0.01111624946234091
2017-09-08,0.01617977596033171
2017-09-09,0.01619234510082279
2017-09-10,0.0147881111557977
2017-09-11,0.012999820222924008
2017-09-12,0.01099940163167279
2017-09-13,0.008508243578838837
2017-09-14,0.00588536095542036
2017-09-15,0.004404444417966502
2017-09-16,0.002698900118101477
2017-09-17,-0.0005137160917199068
2017-09-18,-0.003729339703710366
2017-09-19,-0.0058563646303566586
2017-09-20,-0.00525718988180035
2017-09-21,-0.004962505822362573
2017-09-22,-0.008063056340512631
2017-09-23,-0.009520882677476195
2017-09-24,-0.012816839489060428
2017-09-25,-0.016392302237938416
2017-09-26,-0.020084479800167365
2017-09-27,-0.023715630002058674
2017-09-28,-0.027374488705072864
2017-09-29,-0.030400102449942956
2017-09-30,-0.03200001734695501
2017-10-01,-0.0338712263951777
2017-10-02,-0.035979709750622924
2017-10-03,-0.038239243760549435
2017-10-04,-0.04060884093915895
2017-10-05,-0.043387248894186214
2017-10-06,-0.046614473159409364
2017-10-07,-0.048149264461703645
2017-10-08,-0.05133264508616531
2017-10-09,-0.04671342722878613
2017-10-10,-0.04306379399101257
2017-10-11,-0.04614664355068676
2017-10-12,-0.04881306959316856
2017-10-13,-0.1074862498172191
2017-10-14,-0.1627377695454486
2017-10-15,-0.2050092373229564
2017-10-16,-0.2370811651953204
2017-10-17,-0.26057846537256957
2017-10-18,-0.27768702541200696
2017-10-19,-0.2911266952038005
2017-10-20,-0.3012394464122856
2017-10-21,-0.30887387126554877
2017-10-22,-0.3146738029099776
2017-10-23,-0.31907785762556173
2017-10-24,-0.3175153825014556
2017-10-25,-0.2829993120212331
2017-10-26,-0.2699529837026491
2017-10-27,-0.2678224634933484
2017-10-28,-0.2832505636163871
2017-10-29,-0.29489741316677875
2017-10-30,-0.21476691369412393
2017-10-31,-0.2436238139358533
2017-11-01,-0.26480423675160925
2017-11-02,-0.28050670826427027
2017-11-03,-0.2930285946248592
2017-11-04,-0.3026188301197408
2017-11-05,-0.30907494596101603
2017-11-06,-0.31402681078591144
2017-11-07,-0.315699011666986
2017-11-08,-0.31591193943530005
2017-11-09,-0.31857752728564126
2017-11-10,-0.31999947530032813
2017-11-11,-0.32149058071626335
2017-11-12,-0.322329256831412
2017-11-13,-0.3231669893830933
2017-11-14,-0.316938078753898
2017-11-15,-0.31929249794168957
2017-11-16,-0.3210228935046864
2017-11-17,-0.309735552468406
2017-11-18,-0.313759227437691
2017-11-19,-0.30902562122146904
2017-11-20,-0.308281297828386
2017-11-21,-0.31273096462860384
2017-11-22,-0.3162951251683488
2017-11-23,-0.3003169012467213
2017-11-24,-0.3066424202856517
2017-11-25,-0.3114861154441808
2017-11-26,-0.3154275302237357
2017-11-27,-0.3182615743606343
2017-11-28,-0.32015840751400315
2017-11-29,-0.3214331527106955
2017-11-30,-0.32285594973179865
2017-12-01,-0.3222576517293465
2017-12-02,-0.3232797922052102
2017-12-03,-0.3238129786353161
2017-12-04,-0.32421641440314897
2017-12-05,-0.32463076572108207
2017-12-06,-0.3023506925243007
2017-12-07,-0.3084378503160057
2017-12-08,-0.3127069426339384
2017-12-09,-0.31575613237419287
2017-12-10,-0.2986191626019492
2017-12-11,-0.30521458389385003
2017-12-12,-0.31015990741175514
2017-12-13,-0.30667813194872906
2017-12-14,-0.3110414680693756
2017-12-15,-0.3142316140667756
2017-12-16,-0.3166250400044781
2017-12-17,-0.3184205691573556
2017-12-18,-0.3197674747941326
2017-12-19,-0.32090277565708547
2017-12-20,-0.3221916332646204
2017-12-21,-0.32306000260250123
2017-12-22,-0.3234264486108298
2017-12-23,-0.31881968920819137
2017-12-24,-0.29981468907632713
2017-12-25,-0.2980819519319402
2017-12-26,-0.2928570910560184
2017-12-27,-0.30058424393127137
2017-12-28,-0.306384390423486
2017-12-29,-0.31073719648617537
2017-12-30,-0.31400332035634904
2017-12-31,-0.31645376902643285
2018-01-01,-0.3182920873835524
2018-01-02,-0.31967109739965593
2018-01-03,-0.32070550757549565
2018-01-04,-0.32148140111731216
2018-01-05,-0.2930014291445566
2018-01-06,-0.3006925992596461
2018-01-07,-0.30646571431529956
2018-01-08,-0.3107982217554337
2018-01-09,-0.31405483193467276
2018-01-10,-0.3168719300039644
2018-01-11,-0.3186444782841402
2018-01-12,-0.320567161476073
2018-01-13,-0.28908148269379375
2018-01-14,-0.2984961317018957
2018-01-15,-0.30481714797475234
2018-01-16,-0.30956111173572776
2018-01-17,-0.3112919940905794
2018-01-18,-0.30691073042006956
2018-01-19,-0.3111321581878288
2018-01-20,-0.3144204825956747
2018-01-21,-0.3173153632578716
2018-01-22,-0.318308947429772
2018-01-23,-0.31471581225102874
2018-01-24,-0.28969690988857444
2018-01-25,-0.2986182654213163
2018-01-26,-0.30496832624917136
2018-01-27,-0.30978779379437427
2018-01-28,-0.3125546681270359
2018-01-29,-0.31616189644211534
2018-01-30,-0.31783566949221864
2018-01-31,-0.3193165329583856
2018-02-01,-0.3204576801097554
2018-02-02,-0.3136081009956442
2018-02-03,-0.3162800304031954
2018-02-04,-0.31816175377854794
2018-02-05,-0.30248528512264894
2018-02-06,-0.30824184944148136
2018-02-07,-0.312282116656065
2018-02-08,-0.2947286670924072
2018-02-09,-0.30207458503441487
2018-02-10,-0.3075029122259121
2018-02-11,-0.2985751358461153
2018-02-12,-0.2820762088236135
2018-02-13,-0.29323612712182534
2018-02-14,-0.3011578887998301
2018-02-15,-0.3075690575360568
2018-02-16,-0.31223518738152034
2018-02-17,-0.3162117591237035
2018-02-18,-0.3011901309372629
2018-02-19,-0.30742663903312906
2018-02-20,-0.31035452266407315
2018-02-21,-0.3155157219485325
2018-02-22,-0.31982224561548644
2018-02-23,-0.3184603139748656
2018-02-24,-0.3143285380712628
2018-02-25,-0.3154874753226853
2018-02-26,-0.3019837485556751
2018-02-27,-0.30861241368726144
2018-02-28,-0.2844788540379568
2018-03-01,-0.2657605587800438
2018-03-02,-0.23975780053342444
2018-03-03,-0.1591657102820978
2018-03-04,-0.08943311476057936
2018-03-05,-0.02994229288607375
2018-03-06,0.00903243198048198
2018-03-07,0.034779752595890834
2018-03-08,0.08246357125707515
2018-03-09,0.08042468916037748
2018-03-10,0.07609312812376512
2018-03-11,0.0722075251362222
2018-03-12,0.06892699733269314
2018-03-13,0.07391181961895388
2018-03-14,0.09117479767848291
2018-03-15,0.08489217334651133
2018-03-16,0.07941145105766534
2018-03-17,0.07514899888524873
2018-03-18,0.0717612607588034
2018-03-19,0.06946923400645488
2018-03-20,0.06732567088160835
2018-03-21,0.06513954230416186
2018-03-22,0.06496765180026909
2018-03-23,0.0657275124868697
2018-03-24,0.06329037531918313
2018-03-25,0.06222875814178952
2018-03-26,0.060665018236942814
2018-03-27,0.059324748898279545
2018-03-28,0.05858698324792844
2018-03-29,0.05653021733102026
2018-03-30,0.05568726001953639
2018-03-31,0.05423895431154779
2018-04-01,0.05272171414005822
2018-04-02,0.051631527707290736
2018-04-03,0.056538468914498985
2018-04-04,0.07196241472961162
2018-04-05,0.07605665367773451
2018-04-06,0.07186675424402811
2018-04-07,0.07926763392587954
2018-04-08,0.07430093871346788
2018-04-09,0.07026036576405748
2018-04-10,0.0669516989240222
2018-04-11,0.06429408154509542
2018-04-12,0.061797564730819765
2018-04-13,0.06185333925414316
2018-04-14,0.05803057309846871
2018-04-15,0.05549558549941569
2018-04-16,0.07277043162057595
2018-04-17,0.12433333333333074
2018-04-18,0.11123799309593885
2018-04-19,0.10224819071607527
2018-04-20,0.09878885255404146
2018-04-21,0.08993331968141494
2018-04-22,0.08224833896666617
2018-04-23,0.07581174561393222
2018-04-24,0.07020838189714151
2018-04-25,0.0656289475889702
2018-04-26,0.09239391319569012
2018-04-27,0.08342486633248125
2018-04-28,0.09067801839180678
2018-04-29,0.08128489261567573
2018-04-30,0.07949013581181053
2018-05-01,0.07612185888836365
2018-05-02,0.06982421967926111
2018-05-03,0.062858269904571
2018-05-04,0.05784320582346947
2018-05-05,0.053546361342347915
2018-05-06,0.04978039934189571
2018-05-07,0.05983100804092345
2018-05-08,0.05577289412253439
2018-05-09,0.05229247341979093
2018-05-10,0.049044224899962074
2018-05-11,0.04626922553295465
2018-05-12,0.04430380896675157
2018-05-13,0.051163062859436614
2018-05-14,0.04906970440939418
2018-05-15,0.04622793292495686
2018-05-16,0.06914246221954556
2018-05-17,0.06341998431870355
2018-05-18,0.05779983225887708
2018-05-19,0.0542107140965582
2018-05-20,0.061556563354213445
2018-05-21,0.057807160763072574
2018-05-22,0.053279711944624
2018-05-23,0.05141288984862058
2018-05-24,0.05134427069632341
2018-05-25,0.047862114873780115
2018-05-26,0.04417588094819713
2018-05-27,0.04227546935288817
2018-05-28,0.045586195044516664
2018-05-29,0.044280141788227034
2018-05-30,0.04097181414759188
2018-05-31,0.03868292123190997
2018-06-01,0.03673902273014118
2018-06-02,0.03523496984355834
2018-06-03,0.033128868944968914
2018-06-04,0.03383546740304766
2018-06-05,0.04759629774106866
2018-06-06,0.05191050157510624
2018-06-07,0.04869968097504618
2018-06-08,0.045655599812251424
2018-06-09,0.042615660891328844
2018-06-10,0.04005761923347073
2018-06-11,0.0382954702746332
2018-06-12,0.036973281030100225
2018-06-13,0.03557564260319346
2018-06-14,0.03477597031298618
2018-06-15,0.03250341984631966
2018-06-16,0.031181110021182512
2018-06-17,0.02903566814569114
2018-06-18,0.02626237251585728
2018-06-19,0.03317099403451529
2018-06-20,0.030325131023543506
2018-06-21,0.02797098316755875
2018-06-22,0.025091090443860153
2018-06-23,0.022710785791192123
2018-06-24,0.024418579997200318
2018-06-25,0.06858818991266524
2018-06-26,0.0617516761822019
2018-06-27,0.05636432922713297
2018-06-28,0.06522856458868631
2018-06-29,0.1060129385602746
2018-06-30,0.09165620827621268
2018-07-01,0.07949293127289092
2018-07-02,0.06883164875892156
2018-07-03,0.06026301420612423
2018-07-04,0.052723338862280755
2018-07-05,0.04663484876869184
2018-07-06,0.04164822678359048
2018-07-07,0.04765521043366938
2018-07-08,0.044399775055429025
2018-07-09,0.04128146990225279
2018-07-10,0.038084279588959546
2018-07-11,0.03705516844199419
2018-07-12,0.03493416689443407
2018-07-13,0.03350135757508266
2018-07-14,0.031608908907409194
2018-07-15,0.03179076563992744
2018-07-16,0.0289557261240887
2018-07-17,0.033018262985486935
2018-07-18,0.09305882116031139
2018-07-19,0.08169319140739262
2018-07-20,0.07265589330849576
2018-07-21,0.06475764315832322
2018-07-22,0.05930355456545122
2018-07-23,0.0697932926747189
2018-07-24,0.06261545188208206
2018-07-25,0.05596737733222934
2018-07-26,0.0772087505416561
2018-07-27,0.07676712750661174
2018-07-28,0.06756108652526027
2018-07-29,0.05983468934262692
2018-07-30,0.053936054024291025
2018-07-31,0.04927092717714476
2018-08-01,0.0450772610424357
2018-08-02,0.04178442276326333
2018-08-03,0.04168308271637855
2018-08-04,0.040694983190903145
2018-08-05,0.05336692172058122
2018-08-06,0.04830240974125655
2018-08-07,0.043794730468536436
2018-08-08,0.03982155327189307
2018-08-09,0.11471781808894299
2018-08-10,0.09935491616747427
2018-08-11,0.08697144878622343
2018-08-12,0.10463105630950142
2018-08-13,0.09541710122010194
2018-08-14,0.0914261959379532
2018-08-15,0.0901312657356046
2018-08-16,0.07917137136776731
2018-08-17,0.06995099573422614
2018-08-18,0.0789626894482982
2018-08-19,0.07947466429750882
2018-08-20,0.07125057275830127
2018-08-21,0.0645438146248063
2018-08-22,0.05983327749512046
2018-08-23,0.06701564572476126
2018-08-24,0.06113366522327546
2018-08-25,0.05616239620558172
2018-08-26,0.051940365740494876
2018-08-27,0.04852164027854222
2018-08-28,0.045002047677214385
2018-08-29,0.04164918804878681
2018-08-30,0.03856411103398738
2018-08-31,0.036693304380907676
2018-09-01,0.03609502533955755
2018-09-02,0.03571912403217414
2018-09-03,0.03504034010696877
2018-09-04,0.033488328577245596
2018-09-05,0.03189597291352442
2018-09-06,0.030343290159152048
2018-09-07,0.03786740921964249
2018-09-08,0.037233341937124464
2018-09-09,0.0369942048797256
2018-09-10,0.037026847982912336
2018-09-11,0.09015085076086482
2018-09-12,0.08295020853838686
2018-09-13,0.09874146985709054
2018-09-14,0.09082529797304595
2018-09-15,0.08160412682182017
2018-09-16,0.07381821013117307
2018-09-17,0.06714036724695127
2018-09-18,0.0741820513570941
2018-09-19,0.11505127116699132
2018-09-20,0.10236082985762618
2018-09-21,0.09190865972519102
2018-09-22,0.08369637605599145
2018-09-23,0.07653069931815004
2018-09-24,0.07116151085654554
2018-09-25,0.06691203982788707
2018-09-26,0.12010551100361777
2018-09-27,0.12407317007666041
2018-09-28,0.11147820554853993
2018-09-29,0.1056591112977543
2018-09-30,0.09512493118221954
2018-10-01,0.08666651357964295
2018-10-02,0.08718975034495813
2018-10-03,0.10329525574694642
2018-10-04,0.09456187524698834
2018-10-05,0.08560980868479984
2018-10-06,0.0788671660028335
2018-10-07,0.07337159837540153
2018-10-08,0.07091092247474418
2018-10-09,0.06771215103077566
2018-10-10,0.06338805933462233
2018-10-11,0.05926947841667829
2018-10-12,0.09829020586864523
2018-10-13,0.06166885079886164
2018-10-14,0.029772427407738
2018-10-15,-0.01176379688917617
2018-10-16,-0.05322929794719933
2018-10-17,-0.0989489977176401
2018-10-18,-0.1456502273008713
2018-10-19,-0.19077659387659107
2018-10-20,-0.2250535093799968
2018-10-21,-0.25084124740045066
2018-10-22,-0.2699331396753877
2018-10-23,-0.28414909499674135
2018-10-24,-0.28954045914850024
2018-10-25,-0.2983376493984258
2018-10-26,-0.30556508830184725
2018-10-27,-0.31053647663045325
2018-10-28,-0.2782470058263229
2018-10-29,-0.28901076418593874
2018-10-30,-0.2871531833609202
2018-10-31,-0.29712362516444557
2018-11-01,-0.304679177169227
2018-11-02,-0.30385829132787734
2018-11-03,-0.24267287148557504
2018-11-04,-0.2268590291710053
2018-11-05,-0.22270423603169487
2018-11-06,-0.22273364225251324
2018-11-07,-0.22262037748317987
2018-11-08,-0.23530791644596505
2018-11-09,-0.2582589458353448
2018-11-10,-0.2384881640130807
2018-11-11,-0.24787250386322945
2018-11-12,-0.26518042292882527
2018-11-13,-0.26062654411396213
2018-11-14,-0.2540745211003843
2018-11-15,-0.2564323050116615
2018-11-16,-0.23963761561894348
2018-11-17,-0.25526061712704085
2018-11-18,-0.2729848805031567
2018-11-19,-0.28276603212165696
2018-11-20,-0.2764848805110711
2018-11-21,-0.2773156832166519
2018-11-22,-0.2866023627898029
2018-11-23,-0.29588833376172374
2018-11-24,-0.30285971364780906
2018-11-25,-0.2987326301112665
2018-11-26,-0.30517507962602863
2018-11-27,-0.2670459607768265
2018-11-28,-0.2446691075108891
2018-11-29,-0.2347960226084327
2018-11-30,-0.24539046183127233
2018-12-01,-0.2652601600716178
2018-12-02,-0.26609253064404115
2018-12-03,-0.26312405006857986
2018-12-04,-0.2683347038513757
2018-12-05,-0.2824934728105557
2018-12-06,-0.2928994139384091
2018-12-07,-0.3008988559477874
2018-12-08,-0.3068543345377064
2018-12-09,-0.31108983943064406
2018-12-10,-0.31428989659332984
2018-12-11,-0.3167973370236874
2018-12-12,-0.31859104676522687
2018-12-13,-0.3200009048749646
2018-12-14,-0.3209528932363588
2018-12-15,-0.3220399835941734
2018-12-16,-0.32315699366439254
2018-12-17,-0.3037590566088877
2018-12-18,-0.30924075718750377
2018-12-19,-0.3130703505960257
2018-12-20,-0.31597532507738624
2018-12-21,-0.3120176950948954
2018-12-22,-0.28978664579261615
2018-12-23,-0.2982967857193142
2018-12-24,-0.30502964703614754
2018-12-25,-0.31001444835858205
2018-12-26,-0.313691296449214
2018-12-27,-0.3164123004461068
2018-12-28,-0.3177460411001416
2018-12-29,-0.3068720095753035
2018-12-30,-0.3117267110332893
2018-12-31,-0.3149968680771904
2019-01-01,-0.29270458032989133
2019-01-02,-0.3011342930358678
2019-01-03,-0.3070581052902428
2019-01-04,-0.31169503103145324
2019-01-05,-0.3152341686060858
2019-01-06,-0.3108062526217301
2019-01-07,-0.314431241210789
2019-01-08,-0.3162021642290407
2019-01-09,-0.30898208246573144
2019-01-10,-0.3131899222186503
2019-01-11,-0.3153446323891318
2019-01-12,-0.3174600338275164
2019-01-13,-0.31904694404772815
2019-01-14,-0.3202373288618956
2019-01-15,-0.32113023123706075
2019-01-16,-0.3218559966936603
2019-01-17,-0.3224571031591452
2019-01-18,-0.3227951873377446
2019-01-19,-0.323239619335677
2019-01-20,-0.2937053930240241
2019-01-21,-0.27978153185326526
2019-01-22,-0.2907663956882969
2019-01-23,-0.29901469535786696
2019-01-24,-0.3034296792030524
2019-01-25,-0.26659090879349545
2019-01-26,-0.2754302492118361
2019-01-27,-0.28686624810362993
2019-01-28,-0.29636374982835
2019-01-29,-0.30339358522646176
2019-01-30,-0.2993970059433746
2019-01-31,-0.3045461275349748
2019-02-01,-0.3093577278173445
2019-02-02,-0.31296828418756917
2019-02-03,-0.31567724710480594
2019-02-04,-0.31799644995903975
2019-02-05,-0.3204290676306609
2019-02-06,-0.32240673527056973
2019-02-07,-0.30453407282270817
2019-02-08,-0.3077269044070894
2019-02-09,-0.30992241294874745
2019-02-10,-0.31362904910233613
2019-02-11,-0.316358558665204
2019-02-12,-0.3185328638495726
2019-02-13,-0.2750724252621435
2019-02-14,-0.2869082903403726
2019-02-15,-0.296545732952997
2019-02-16,-0.3033971793529009
2019-02-17,-0.30916161016096133
2019-02-18,-0.30622825446103086
2019-02-19,-0.3086539733811344
2019-02-20,-0.3124402298664961
2019-02-21,-0.29989866180595826
2019-02-22,-0.30642719429600795
2019-02-23,-0.3114413923285504
2019-02-24,-0.3127892738925242
2019-02-25,-0.3045721575914957
2019-02-26,-0.3100028088507365
2019-02-27,-0.313469472905882
2019-02-28,-0.29141406329677455
2019-03-01,-0.2765002813343669
2019-03-02,-0.2630050154964252
2019-03-03,-0.24591672837474654
2019-03-04,-0.20312982413926495
2019-03-05,-0.1847103914255266
2019-03-06,-0.1668248023967962
2019-03-07,-0.1522268008270622
2019-03-08,-0.1389005921674844
2019-03-09,-0.1266209124988089
2019-03-10,-0.11558535183621288
2019-03-11,-0.08840357127132226
2019-03-12,-0.07596406517715248
2019-03-13,-0.056040182319677
