,Simulated Water Levels
2014-10-17,-7.105427357601002e-15
2014-10-18,-0.16447555490025323
2014-10-19,-0.27319780652932835
2014-10-20,-0.3462813401254472
2014-10-21,-0.39368182123133977
2014-10-22,-0.4222313779513982
2014-10-23,-0.386632669558022
2014-10-24,-0.33041175408467893
2014-10-25,-0.36092000612873676
2014-10-26,-0.4023669652269106
2014-10-27,-0.4307488329034541
2014-10-28,-0.45171160695703705
2014-10-29,-0.46583600121052626
2014-10-30,-0.4700791080761775
2014-10-31,-0.4775030382679155
2014-11-01,-0.48059148167018506
2014-11-02,-0.4821279751857226
2014-11-03,-0.4852582666244416
2014-11-04,-0.48745803272893795
2014-11-05,-0.4892974636396801
2014-11-06,-0.4906623570703985
2014-11-07,-0.48250622350280636
2014-11-08,-0.4795410240025042
2014-11-09,-0.48346341612397126
2014-11-10,-0.4862756116953584
2014-11-11,-0.48818897951293394
2014-11-12,-0.4895872827727068
2014-11-13,-0.49082473340707367
2014-11-14,-0.48525039845400997
2014-11-15,-0.48698394358482844
2014-11-16,-0.48791774044318004
2014-11-17,-0.4777425631157932
2014-11-18,-0.45656497058713796
2014-11-19,-0.4677426965928362
2014-11-20,-0.4750009706034497
2014-11-21,-0.4798881130550612
2014-11-22,-0.48309960131032526
2014-11-23,-0.48230505329141593
2014-11-24,-0.46952269047338646
2014-11-25,-0.46966175303145974
2014-11-26,-0.47733358293845285
2014-11-27,-0.4335092900270965
2014-11-28,-0.4497653413955298
2014-11-29,-0.46306953667321693
2014-11-30,-0.4718845348294316
2014-12-01,-0.4780135614348211
2014-12-02,-0.48256676365517137
2014-12-03,-0.4779112503066827
2014-12-04,-0.47788913021041424
2014-12-05,-0.48202126271564083
2014-12-06,-0.46653370757902834
2014-12-07,-0.4517526913852876
2014-12-08,-0.46454797885272114
2014-12-09,-0.4728704988368584
2014-12-10,-0.40937475808753376
2014-12-11,-0.41434558901329055
2014-12-12,-0.43364283492693545
2014-12-13,-0.4522906039936103
2014-12-14,-0.4648265838644505
2014-12-15,-0.47328076584291523
2014-12-16,-0.47899426825280145
2014-12-17,-0.4739447841791318
2014-12-18,-0.475617819709651
2014-12-19,-0.48050897564241524
2014-12-20,-0.483624996657106
2014-12-21,-0.4855911137244675
2014-12-22,-0.48530017961219585
2014-12-23,-0.48505724328354205
2014-12-24,-0.47580138486960166
2014-12-25,-0.45919560681429417
2014-12-26,-0.46182619080517284
2014-12-27,-0.47157860120789863
2014-12-28,-0.4721585709178733
2014-12-29,-0.47419710651139724
2014-12-30,-0.4795440091856271
2014-12-31,-0.48287016888862055
2015-01-01,-0.4850878533136651
2015-01-02,-0.4865664183528793
2015-01-03,-0.4875521767251776
2015-01-04,-0.46096826989370854
2015-01-05,-0.45266851476362646
2015-01-06,-0.4650320731901516
2015-01-07,-0.4704327870798828
2015-01-08,-0.4767948500957182
2015-01-09,-0.47270043874549117
2015-01-10,-0.4763189751970671
2015-01-11,-0.4807198156836421
2015-01-12,-0.4777341042788805
2015-01-13,-0.47026742014007894
2015-01-14,-0.47668457744658355
2015-01-15,-0.4809635926071003
2015-01-16,-0.48381667420153107
2015-01-17,-0.4857189085915792
2015-01-18,-0.48698714487061423
2015-01-19,-0.4368900144056802
2015-01-20,-0.4541925663911641
2015-01-21,-0.46596413249991286
2015-01-22,-0.47381490492009704
2015-01-23,-0.4790501154748732
2015-01-24,-0.4785939339898242
2015-01-25,-0.47768210683442547
2015-01-26,-0.48173913687104886
2015-01-27,-0.4737245862561643
2015-01-28,-0.4715679597005824
2015-01-29,-0.47755181768837573
2015-01-30,-0.4777378413160136
2015-01-31,-0.4786912796136029
2015-02-01,-0.4823016040454675
2015-02-02,-0.47156959753839445
2015-02-03,-0.46203899818824823
2015-02-04,-0.47119726363896675
2015-02-05,-0.4689387552312674
2015-02-06,-0.4708357675418071
2015-02-07,-0.47706357101382935
2015-02-08,-0.4766543900473117
2015-02-09,-0.46703144692884635
2015-02-10,-0.46360095546389957
2015-02-11,-0.47226652594509844
2015-02-12,-0.4780176372287315
2015-02-13,-0.4796214648688988
2015-02-14,-0.4829218128193382
2015-02-15,-0.4758427278244284
2015-02-16,-0.4766839716288729
2015-02-17,-0.4809631886598602
2015-02-18,-0.48381640487279043
2015-02-19,-0.48405990057688086
2015-02-20,-0.4788318286753004
2015-02-21,-0.4823953167944879
2015-02-22,-0.4695882065870798
2015-02-23,-0.4762316507813722
2015-02-24,-0.4806615891784567
2015-02-25,-0.48361531531832824
2015-02-26,-0.485584658993119
2015-02-27,-0.4868976405404162
2015-02-28,-0.4877729996964888
2015-03-01,-0.4883565894135664
2015-03-02,-0.48065322278103295
2015-03-03,-0.48360973706408217
2015-03-04,-0.4691833245178323
2015-03-05,-0.47596165734469054
2015-03-06,-0.4804815615043161
2015-03-07,-0.48349528261739394
2015-03-08,-0.48555752687172316
2015-03-09,-0.48649670487459673
2015-03-10,-0.48902141499921825
2015-03-11,-0.48677554312783755
2015-03-12,-0.48515672789843123
2015-03-13,-0.48172600230330787
2015-03-14,-0.4786113158030325
2015-03-15,-0.4682384227147267
2015-03-16,-0.466446316698935
2015-03-17,-0.46213255255633356
2015-03-18,-0.4576826487440293
2015-03-19,-0.45517440007795784
2015-03-20,-0.4533633337217786
2015-03-21,-0.4476148733551426
2015-03-22,-0.4459794161885462
2015-03-23,-0.4451984436596632
2015-03-24,-0.44469595575360543
2015-03-25,-0.4444465972008018
2015-03-26,-0.4384005965324711
2015-03-27,-0.40989032107260215
2015-03-28,-0.3902111377109243
2015-03-29,-0.36788381683248517
2015-03-30,-0.35634454219411893
2015-03-31,-0.3475298336142316
2015-04-01,-0.3392456111241309
2015-04-02,-0.3290115418995292
2015-04-03,-0.3143077583284537
2015-04-04,-0.25218922844343084
2015-04-05,-0.15475753361930344
2015-04-06,-0.08123151031651688
2015-04-07,-0.04245006689134101
2015-04-08,-0.016958453769714055
2015-04-09,0.009682014519903248
2015-04-10,0.02111304686656723
2015-04-11,0.019797879076957514
2015-04-12,0.01571460929758217
2015-04-13,0.011192673374672779
2015-04-14,0.09763835660613296
2015-04-15,0.17534202148416966
2015-04-16,0.17534202148416966
2015-04-17,0.17534202148416966
2015-04-18,0.17534202148416966
2015-04-19,0.17534202148416966
2015-04-20,0.17534202148416966
2015-04-21,0.17534202148416966
2015-04-22,0.17534202148416966
2015-04-23,0.17534202148416966
2015-04-24,0.17534202148416966
2015-04-25,0.15236401015528855
2015-04-26,0.1314460231218071
2015-04-27,0.11308416882226524
2015-04-28,0.09648706055163458
2015-04-29,0.08151681208488881
2015-04-30,0.06763402593275814
2015-05-01,0.05636538802149005
2015-05-02,0.046475594211973004
2015-05-03,0.037266912969716515
2015-05-04,0.02867400679226506
2015-05-05,0.020493772810905142
2015-05-06,0.013145913894064165
2015-05-07,0.006869423736095115
2015-05-08,0.0012872432237607256
2015-05-09,-0.004088593178504851
2015-05-10,-0.008457638422687097
2015-05-11,-0.013017279904659063
2015-05-12,-0.01731433138084526
2015-05-13,-0.018022885414957557
2015-05-14,-0.019356295158775794
2015-05-15,-0.020173681692636336
2015-05-16,-0.019793142340617464
2015-05-17,-0.019787396199923535
2015-05-18,-0.022721851897660628
2015-05-19,-0.019495880797752108
2015-05-20,-0.0059844717843446915
2015-05-21,-0.008303208591065925
2015-05-22,-0.007415070713673089
2015-05-23,-0.010283851777440844
2015-05-24,-0.011949746244795278
2015-05-25,-0.014640513949743195
2015-05-26,-0.018069557479130083
2015-05-27,-0.022063095229281515
2015-05-28,-0.007664852719774018
2015-05-29,-0.013060789147488094
2015-05-30,-0.016773925379791166
2015-05-31,-0.013744349144978685
2015-06-01,-0.002440216363719827
2015-06-02,0.04589191077922905
2015-06-03,0.041354726962623545
2015-06-04,0.03196970306568758
2015-06-05,0.023719760411673008
2015-06-06,0.023146977223888143
2015-06-07,0.015716984288768998
2015-06-08,0.009676379728389861
2015-06-09,0.03239584301754661
2015-06-10,0.03498584069408395
2015-06-11,0.02509781038433445
2015-06-12,0.015781926649015787
2015-06-13,0.02419383022166599
2015-06-14,0.015149408245967777
2015-06-15,0.044760909734034016
2015-06-16,0.06315589447438796
2015-06-17,0.05177211594660136
2015-06-18,0.03992067920671616
2015-06-19,0.029899039010214068
2015-06-20,0.020407982531274627
2015-06-21,0.034054083368111776
2015-06-22,0.059428160387081874
2015-06-23,0.045765710383886216
2015-06-24,0.046951706137058125
2015-06-25,0.03549521679178369
2015-06-26,0.025797060866601385
2015-06-27,0.017172553960673298
2015-06-28,0.04765158674028669
2015-06-29,0.04697752221347784
2015-06-30,0.04024785349658089
2015-07-01,0.051090422117447076
2015-07-02,0.06237274770346346
2015-07-03,0.04912856673622912
2015-07-04,0.03795034445742118
2015-07-05,0.034360035283445
2015-07-06,0.02454129726189791
2015-07-07,0.015546068026676352
2015-07-08,0.021426275644891746
2015-07-09,0.012865716907960234
2015-07-10,0.03966519160533721
2015-07-11,0.028826095282699526
2015-07-12,0.019443416291718307
2015-07-13,0.010926221321366114
2015-07-14,0.00340396056623149
2015-07-15,-0.002785960991541714
2015-07-16,-0.008480697295770057
2015-07-17,-0.012386980575175954
2015-07-18,-0.014379492629235102
2015-07-19,0.0008948579281984337
2015-07-20,0.0013338082757279324
2015-07-21,-0.005357657151549233
2015-07-22,-0.007613091324699894
2015-07-23,-0.012070053639938294
2015-07-24,-0.01585977221384738
2015-07-25,-0.016074190222344242
2015-07-26,-0.01609498372538809
2015-07-27,0.005475385825466361
2015-07-28,-0.001304957834609155
2015-07-29,-0.007438478429222073
2015-07-30,-0.01285867859078138
2015-07-31,-0.012476740223331007
2015-08-01,-0.016537225198813843
2015-08-02,-0.008462833953146287
2015-08-03,-0.012671693958928643
2015-08-04,-0.008280046409222308
2015-08-05,0.006695229988995521
2015-08-06,0.0009314694906734644
2015-08-07,-0.003982406036652009
2015-08-08,-0.008378856405748536
2015-08-09,-0.012292150346407738
2015-08-10,-0.01580143510719978
2015-08-11,-0.016705096237330963
2015-08-12,0.02887547936098045
2015-08-13,0.01992992360313295
2015-08-14,0.012657339487677888
2015-08-15,0.008921374985984443
2015-08-16,0.03160842570381206
2015-08-17,0.022095554444604204
2015-08-18,0.013783600429047027
2015-08-19,0.006236446923733041
2015-08-20,-3.256116736949366e-05
2015-08-21,0.021617337157575633
2015-08-22,0.020355081341712378
2015-08-23,0.013060885594562421
2015-08-24,0.006732269653625167
2015-08-25,0.036127620614166744
2015-08-26,0.05157169350602331
2015-08-27,0.04061751314544537
2015-08-28,0.03129558150472889
2015-08-29,0.023260556075939576
2015-08-30,0.01631948130903993
2015-08-31,0.009863025382401247
2015-09-01,0.0037668818176364027
2015-09-02,-0.0014865295273303047
2015-09-03,-0.005964318396426194
2015-09-04,-0.01010467520058711
2015-09-05,-0.01340087442279625
2015-09-06,-0.015817338912285095
2015-09-07,-0.018107874527949264
2015-09-08,-0.02025738615076733
2015-09-09,-0.02262055235653193
2015-09-10,-0.013880334569446262
2015-09-11,0.007810478348350358
2015-09-12,0.0060724822600093376
2015-09-13,0.026347121080242175
2015-09-14,0.035742346651996826
2015-09-15,0.03181083744799906
2015-09-16,0.024276382012036635
2015-09-17,0.017396587634621596
2015-09-18,0.011342448407432926
2015-09-19,0.006134893918805062
2015-09-20,0.0018283396585445644
2015-09-21,-0.0014070811195878719
2015-09-22,-0.003832600515217166
2015-09-23,-0.005983393144507687
2015-09-24,-0.008170019647010918
2015-09-25,-0.010117360399824804
2015-09-26,-0.011599718879129028
2015-09-27,-0.01277700283037575
2015-09-28,-0.013442142851680217
2015-09-29,-0.012089210757736168
2015-09-30,0.045168970553838506
2015-10-01,0.07528944771864943
2015-10-02,0.06347810330570525
2015-10-03,0.05834237672255327
2015-10-04,0.05220072399394837
2015-10-05,0.04377783391766599
2015-10-06,0.03651139441354445
2015-10-07,0.029912800682243557
2015-10-08,0.024070687926972312
2015-10-09,0.01902193415893194
2015-10-10,0.027452078941443858
2015-10-11,0.022363934017270992
2015-10-12,0.017784759018486085
2015-10-13,0.01342461771167791
2015-10-14,0.01289394525181109
2015-10-15,0.009336468915293494
2015-10-16,0.010827232109313911
2015-10-17,0.013539808064319203
2015-10-18,-0.21626915802158564
2015-10-19,-0.34919265670871624
2015-10-20,-0.41594460867602123
2015-10-21,-0.450096936438829
2015-10-22,-0.4677560724089105
2015-10-23,-0.4762260277519772
2015-10-24,-0.4801668248589728
2015-10-25,-0.46888964692709934
2015-10-26,-0.47399263524458846
2015-10-27,-0.4789472321467336
2015-10-28,-0.48133295091847117
2015-10-29,-0.43123959295276393
2015-10-30,-0.45382181134428023
2015-10-31,-0.46898067817319244
2015-11-01,-0.47626199896790666
2015-11-02,-0.48010792727295737
2015-11-03,-0.4823227882398058
2015-11-04,-0.48354386991418963
2015-11-05,-0.48421108505650423
2015-11-06,-0.484709665300894
2015-11-07,-0.4850704639631189
2015-11-08,-0.4848582641950223
2015-11-09,-0.4843250089222515
2015-11-10,-0.48396524386674855
2015-11-11,-0.4698372376169395
2015-11-12,-0.4589696109624377
2015-11-13,-0.46737053938363715
2015-11-14,-0.47483954744025425
2015-11-15,-0.47889543893310815
2015-11-16,-0.4812668570612715
2015-11-17,-0.4825419981390944
2015-11-18,-0.4827092248610221
2015-11-19,-0.48278058849578187
2015-11-20,-0.4413797367175576
2015-11-21,-0.4625719635590322
2015-11-22,-0.47020748624346
2015-11-23,-0.47663731599156023
2015-11-24,-0.47953575800378445
2015-11-25,-0.4808684480196028
2015-11-26,-0.4816516044439503
2015-11-27,-0.4822526100757152
2015-11-28,-0.48199383207331437
2015-11-29,-0.4798501246247824
2015-11-30,-0.4811925876071932
2015-12-01,-0.4816421783793281
2015-12-02,-0.4744122469776286
2015-12-03,-0.4664086338170961
2015-12-04,-0.4748010489316776
2015-12-05,-0.4788922862221625
2015-12-06,-0.48095984075323983
2015-12-07,-0.48199938783606555
2015-12-08,-0.4824402720632186
2015-12-09,-0.482588248162358
2015-12-10,-0.4819539026972315
2015-12-11,-0.48260993181143164
2015-12-12,-0.4830518209318626
2015-12-13,-0.4833261634124284
2015-12-14,-0.4835367446848302
2015-12-15,-0.45518640287360057
2015-12-16,-0.4606814873182188
2015-12-17,-0.4697047771187677
2015-12-18,-0.45916916437372635
2015-12-19,-0.46968140519916446
2015-12-20,-0.4760221645670981
2015-12-21,-0.47915076926222966
2015-12-22,-0.4774787867914583
2015-12-23,-0.467146495310093
2015-12-24,-0.44460068215244064
2015-12-25,-0.4632488538309545
2015-12-26,-0.4735445420217559
2015-12-27,-0.47469596903004074
2015-12-28,-0.4758084341981217
2015-12-29,-0.45821718052898675
2015-12-30,-0.4611057390367037
2015-12-31,-0.4674736016095373
2016-01-01,-0.47504137951160175
2016-01-02,-0.47818577045199007
2016-01-03,-0.4802462435536974
2016-01-04,-0.48127534514389936
2016-01-05,-0.4815900515537095
2016-01-06,-0.48174740623657186
2016-01-07,-0.48182608394750304
2016-01-08,-0.48194025620870207
2016-01-09,-0.48198605758943813
2016-01-10,-0.47874921061186626
2016-01-11,-0.443562133090861
2016-01-12,-0.4628260451224655
2016-01-13,-0.46601301830513364
2016-01-14,-0.47395763440849237
2016-01-15,-0.477930884063543
2016-01-16,-0.4750504520817955
2016-01-17,-0.47049196451262176
2016-01-18,-0.4739417942018491
2016-01-19,-0.475792080820721
2016-01-20,-0.4788482355293482
2016-01-21,-0.4803764522490894
2016-01-22,-0.48114059545873644
2016-01-23,-0.4815226757770503
2016-01-24,-0.48171371811471886
2016-01-25,-0.48180923982819124
2016-01-26,-0.48185700082109406
2016-01-27,-0.4821739555084683
2016-01-28,-0.4824139913735159
2016-01-29,-0.4822720508506251
2016-01-30,-0.4821644691136555
2016-01-31,-0.48228695199948035
2016-02-01,-0.48275891249012304
2016-02-02,-0.4832514146299971
2016-02-03,-0.48309260493520867
2016-02-04,-0.4556185433021014
2016-02-05,-0.46363500503965227
2016-02-06,-0.46779140739819525
2016-02-07,-0.47497829951990056
2016-02-08,-0.4787933677354772
2016-02-09,-0.4702977871208063
2016-02-10,-0.4738980643127988
2016-02-11,-0.4751313108668107
2016-02-12,-0.4770590978003604
2016-02-13,-0.4794818130688512
2016-02-14,-0.4806932582860881
2016-02-15,-0.48129900279464977
2016-02-16,-0.464505148851277
2016-02-17,-0.4393961764134353
2016-02-18,-0.4609937100407251
2016-02-19,-0.4714470621085667
2016-02-20,-0.4730713920151217
2016-02-21,-0.47814616322609993
2016-02-22,-0.4810434899035272
2016-02-23,-0.48196986963132815
2016-02-24,-0.4713540566233476
2016-02-25,-0.37176439647652515
2016-02-26,-0.18003059420051315
2016-02-27,-0.09730268405706965
2016-02-28,-0.09199043598859191
2016-02-29,-0.08770398215166253
2016-03-01,-0.07892143983043098
2016-03-02,-0.059071583701349795
2016-03-03,-0.049961758227581754
2016-03-04,-0.04718356143540703
2016-03-05,-0.044568008961032746
2016-03-06,-0.04210283329732434
2016-03-07,-0.04003116238207127
2016-03-08,-0.03869217969469574
2016-03-09,-0.03809942391421117
2016-03-10,-0.03832052919255702
2016-03-11,-0.011745110510755552
2016-03-12,0.05775614756293024
2016-03-13,0.04482644318272122
2016-03-14,0.03408743751421994
2016-03-15,0.04036010932663814
2016-03-16,0.031779819131205755
2016-03-17,0.037083392344545274
2016-03-18,0.031891711631178765
2016-03-19,0.025674663273260734
2016-03-20,0.02009688552769262
2016-03-21,0.016703999191115315
2016-03-22,0.012770945929389654
2016-03-23,0.00918529198715845
2016-03-24,0.005458875431809673
2016-03-25,0.007010577580398802
2016-03-26,0.010354441407660175
2016-03-27,0.0067091910362115925
2016-03-28,0.0036475456743296775
2016-03-29,0.019176720083226684
2016-03-30,0.014041281897434033
2016-03-31,0.009722050400135629
2016-04-01,0.00548744995189665
2016-04-02,0.0033144557614939174
2016-04-03,0.01387915764904335
2016-04-04,0.016318293975658094
2016-04-05,0.02879255977962103
2016-04-06,0.023036614797344868
2016-04-07,0.018139654083729084
2016-04-08,0.04184075649977004
2016-04-09,0.035645704727478744
2016-04-10,0.02746456266319086
2016-04-11,0.02252393214899584
2016-04-12,0.029796044653195963
2016-04-13,0.033143517062089956
2016-04-14,0.024760242002567878
2016-04-15,0.017818494560486897
2016-04-16,0.011904714870436095
2016-04-17,0.007007330603030937
2016-04-18,0.0024849929212678035
2016-04-19,-0.0015625538304746556
2016-04-20,-0.00427190381506648
2016-04-21,-0.0061528188302162334
2016-04-22,-0.008088424131091898
2016-04-23,0.006466609182172789
2016-04-24,0.0016970865927241618
2016-04-25,-0.0008927586780238528
2016-04-26,-0.0031241500750596174
2016-04-27,0.009635225563663141
2016-04-28,0.005454638014857238
2016-04-29,0.0021102741870997477
2016-04-30,-0.0009370357494695725
2016-05-01,-0.003859064772196774
2016-05-02,0.002735055283967114
2016-05-03,0.022620943332178456
2016-05-04,0.02061960447675304
2016-05-05,0.021921735263788378
2016-05-06,0.014998198040334643
2016-05-07,0.017254162201510326
2016-05-08,0.0143783885308153
2016-05-09,0.010106429136445882
2016-05-10,0.004874075889947704
2016-05-11,0.0009021198190453106
2016-05-12,-0.003213002295918699
2016-05-13,-0.007055739228405855
2016-05-14,0.007573238159380935
2016-05-15,0.0076265789974350184
2016-05-16,0.003299348438510208
2016-05-17,-3.0334441653678823e-05
2016-05-18,-0.003461211289550903
2016-05-19,-0.006546840704682921
2016-05-20,-0.00925368637325974
2016-05-21,-0.011465793048941464
2016-05-22,-0.013187033760445388
2016-05-23,-0.01506767459877878
2016-05-24,-0.012573769447698169
2016-05-25,-0.008646495071335636
2016-05-26,-0.012313476303653204
2016-05-27,-0.01622852706363176
2016-05-28,-0.02111733595320331
2016-05-29,-0.027066325664847568
2016-05-30,0.01779784929515671
2016-05-31,0.046639396411158884
2016-06-01,0.03130516880718304
2016-06-02,0.01968271316427206
2016-06-03,0.010451037181290701
2016-06-04,0.003095422793958136
2016-06-05,0.0005565313871080946
2016-06-06,0.037230839545035366
2016-06-07,0.030826718795665897
2016-06-08,0.025943111987711376
2016-06-09,0.016429243381761438
2016-06-10,0.009127281178098912
2016-06-11,0.0028421051538138897
2016-06-12,0.01947464350839212
2016-06-13,0.011011923060632256
2016-06-14,0.004651410079468121
2016-06-15,-0.00102259093291579
2016-06-16,-0.0062393388005475
2016-06-17,-0.010875006783354735
2016-06-18,-0.014251460016502904
2016-06-19,-0.017210901284485658
2016-06-20,-0.01982299291028866
2016-06-21,-0.016331647420159356
2016-06-22,-0.018878695544330526
2016-06-23,-0.021028203077339214
2016-06-24,-0.02415884567410842
2016-06-25,-0.02801724829597063
2016-06-26,-0.03256274865468356
2016-06-27,-0.03800194330079876
2016-06-28,-0.04338245197391899
2016-06-29,-0.03492492589472107
2016-06-30,-0.04024118536558774
2016-07-01,-0.04607355112491973
2016-07-02,-0.041096160601519216
2016-07-03,-0.04626802375921102
2016-07-04,-0.05206478162317296
2016-07-05,-0.04423691063186652
2016-07-06,-0.04457307799279775
2016-07-07,-0.051702734028427955
2016-07-08,-0.055395480590640034
2016-07-09,-0.04609221224314197
2016-07-10,-0.03853016395539299
2016-07-11,-0.03700792467020264
2016-07-12,-0.04254012337780111
2016-07-13,-0.048843913037611486
2016-07-14,-0.05597505132813296
2016-07-15,-0.0577624364056426
2016-07-16,-0.05968070990769192
2016-07-17,-0.06318253040881672
2016-07-18,-0.07114457661245055
2016-07-19,-0.07917508988090916
2016-07-20,-0.08661227523816706
2016-07-21,-0.09360861584593039
2016-07-22,-0.10129603580607238
2016-07-23,-0.1099597084931574
2016-07-24,-0.11891463875582176
2016-07-25,-0.12731326262020914
2016-07-26,-0.1349659150830398
2016-07-27,-0.1438089920078589
2016-07-28,-0.15276148320508653
2016-07-29,-0.1519879860629061
2016-07-30,-0.16094448071701706
2016-07-31,-0.15969130595951242
2016-08-01,-0.139824453322408
2016-08-02,-0.1232572348837877
2016-08-03,-0.1250407093469157
2016-08-04,-0.13125953767525544
2016-08-05,-0.13817221887225628
2016-08-06,-0.14544492481456928
2016-08-07,-0.1511440999412912
2016-08-08,-0.15869073653286492
2016-08-09,-0.1660779773742007
2016-08-10,-0.17179155108476607
2016-08-11,-0.167541505749071
2016-08-12,-0.17578968540017925
2016-08-13,-0.15797726821263325
2016-08-14,-0.1528801212983879
2016-08-15,-0.15527132097697915
2016-08-16,-0.16177280906656577
2016-08-17,-0.1615802193688971
2016-08-18,-0.16809572272725504
2016-08-19,-0.17485446035075114
2016-08-20,-0.18182287165908306
2016-08-21,-0.18854030019639723
2016-08-22,-0.16389567687147633
2016-08-23,-0.16545997003593627
2016-08-24,-0.16902760125439187
2016-08-25,-0.17398568717489127
2016-08-26,-0.17947569679222752
2016-08-27,-0.18554093714620734
2016-08-28,-0.19155090214026416
2016-08-29,-0.1977634171596634
2016-08-30,-0.20404429913382316
2016-08-31,-0.2097304957188051
2016-09-01,-0.21444154538599491
2016-09-02,-0.21970399945906038
2016-09-03,-0.22580115865057593
2016-09-04,-0.23179522164502586
2016-09-05,-0.2379781608250191
2016-09-06,-0.2442816652999653
2016-09-07,-0.24732042554541422
2016-09-08,-0.2511547133800782
2016-09-09,-0.2426145573517111
2016-09-10,-0.24923713888820132
2016-09-11,-0.2547915568406651
2016-09-12,-0.2443675415692006
2016-09-13,-0.24908442734321312
2016-09-14,-0.2547889198098652
2016-09-15,-0.2549665850313154
2016-09-16,-0.2602360341822596
2016-09-17,-0.26570744548922676
2016-09-18,-0.26991378650089715
2016-09-19,-0.23128615545189035
2016-09-20,-0.21457636896662535
2016-09-21,-0.21244131219237872
2016-09-22,-0.21303368401506617
2016-09-23,-0.21459831186777478
2016-09-24,-0.21647217284992237
2016-09-25,-0.21778085078663878
2016-09-26,-0.21906146658126247
2016-09-27,-0.20199207682238907
2016-09-28,-0.19899943075841264
2016-09-29,-0.19826632372881647
2016-09-30,-0.19887214700644051
2016-10-01,-0.1949904523051771
2016-10-02,-0.19301036720656484
2016-10-03,-0.19398034129683595
2016-10-04,-0.19595986603009408
2016-10-05,-0.1981013669326117
2016-10-06,-0.20021984394876569
2016-10-07,-0.20267508473775564
2016-10-08,-0.20548217753242426
2016-10-09,-0.2038617211523075
2016-10-10,-0.20075934206010615
2016-10-11,-0.2022123403316911
2016-10-12,-0.20442558863315696
2016-10-13,-0.20701464655731883
2016-10-14,-0.20777058861775188
2016-10-15,-0.21037470929852375
2016-10-16,-0.2131015246334549
2016-10-17,-0.21629697271300685
2016-10-18,-0.22012361044792428
2016-10-19,-0.22471730906834608
2016-10-20,-0.22908267376520186
2016-10-21,-0.23126506476710418
2016-10-22,-0.20228616970454638
2016-10-23,-0.14046618617540219
2016-10-24,-0.11347266660176203
2016-10-25,-0.09195423674318093
2016-10-26,-0.07486376904063263
2016-10-27,-0.061142013943960904
2016-10-28,-0.017785266619434026
2016-10-29,-0.009666741539000157
2016-10-30,-0.008867914648952535
2016-10-31,-0.006533060482826869
2016-11-01,-0.160148492116722
2016-11-02,-0.2629732820184003
2016-11-03,-0.3322915146210228
2016-11-04,-0.37587060171855313
2016-11-05,-0.40758287593302
2016-11-06,-0.425229720157386
2016-11-07,-0.44018557245872003
2016-11-08,-0.45000901047490416
2016-11-09,-0.4569971578488712
2016-11-10,-0.45954427908036877
2016-11-11,-0.46300386939586957
2016-11-12,-0.46539453979419676
2016-11-13,-0.46658124041180216
2016-11-14,-0.4677476905801399
2016-11-15,-0.46852588077958046
2016-11-16,-0.4344404545964409
2016-11-17,-0.4422365712579861
2016-11-18,-0.4515676117343652
2016-11-19,-0.45795929515274025
2016-11-20,-0.44091142128007377
2016-11-21,-0.4321626694240983
2016-11-22,-0.442286424722095
2016-11-23,-0.450874197994132
2016-11-24,-0.45664376325564504
2016-11-25,-0.4535960958828227
2016-11-26,-0.4587177799572011
2016-11-27,-0.4594994063547446
2016-11-28,-0.4625686920819483
2016-11-29,-0.4646244324962474
2016-11-30,-0.43545093290686054
2016-12-01,-0.3746510640166747
2016-12-02,-0.18295381345924966
2016-12-03,-0.23745951671535437
2016-12-04,-0.3143324805328973
2016-12-05,-0.3641414441757789
2016-12-06,-0.3971214968403203
2016-12-07,-0.416954089911588
2016-12-08,-0.43411659650774226
2016-12-09,-0.44481013617534515
2016-12-10,-0.4524522736766379
2016-12-11,-0.4575068492378094
2016-12-12,-0.4437785174759519
2016-12-13,-0.44382751845895285
2016-12-14,-0.4490675461363587
2016-12-15,-0.4553354680833408
2016-12-16,-0.45692664612799305
2016-12-17,-0.4541269289474883
2016-12-18,-0.4267074331458858
2016-12-19,-0.4267679222073433
2016-12-20,-0.4403776016937826
2016-12-21,-0.4494548081797589
2016-12-22,-0.45550809789293467
2016-12-23,-0.4525400319806572
2016-12-24,-0.4578983772263925
2016-12-25,-0.4428584119778449
2016-12-26,-0.45144978728329477
2016-12-27,-0.45406220208018766
2016-12-28,-0.4589179759135611
2016-12-29,-0.4620570160886288
2016-12-30,-0.4490958437250683
2016-12-31,-0.45318318630380716
2017-01-01,-0.45696888399542956
2017-01-02,-0.4605527258383688
2017-01-03,-0.4629189491281629
2017-01-04,-0.4448858464016503
2017-01-05,-0.4506876259361121
2017-01-06,-0.45437078781261064
2017-01-07,-0.45878609933057035
2017-01-08,-0.4564964038150663
2017-01-09,-0.46020340538835924
2017-01-10,-0.4626750432369491
2017-01-11,-0.4513843876118493
2017-01-12,-0.4481302095870987
2017-01-13,-0.43493311400897383
2017-01-14,-0.44625670072845125
2017-01-15,-0.45337546835381914
2017-01-16,-0.45812243221999793
2017-01-17,-0.4612875723713543
2017-01-18,-0.44778092888581966
2017-01-19,-0.45301210778003664
2017-01-20,-0.4583362371660975
2017-01-21,-0.46187212079053097
2017-01-22,-0.4645177486005494
2017-01-23,-0.46427854545343905
2017-01-24,-0.44584137873673413
2017-01-25,-0.4362297257617236
2017-01-26,-0.4419152678346592
2017-01-27,-0.45102231276510807
2017-01-28,-0.4569868487047479
2017-01-29,-0.46082150151513446
2017-01-30,-0.4634024537629742
2017-01-31,-0.4648079065078079
2017-02-01,-0.4598682937736953
2017-02-02,-0.4624516130482057
2017-02-03,-0.46417397328641385
2017-02-04,-0.46532227896735634
2017-02-05,-0.4660878452137176
2017-02-06,-0.4665982356574787
2017-02-07,-0.46700721487962227
2017-02-08,-0.44839271892820776
2017-02-09,-0.45141167473937216
2017-02-10,-0.4355256038977373
2017-02-11,-0.43939614435252494
2017-02-12,-0.44880026313692056
2017-02-13,-0.4312493151089356
2017-02-14,-0.4433667227367586
2017-02-15,-0.4515002279798104
2017-02-16,-0.45480954743312196
2017-02-17,-0.459078656221763
2017-02-18,-0.46195345571482704
2017-02-19,-0.4645159840240076
2017-02-20,-0.4665744855105167
2017-02-21,-0.46760430384818363
2017-02-22,-0.4679074899335376
2017-02-23,-0.4687959789141267
2017-02-24,-0.4679009704105255
2017-02-25,-0.46972166873816334
2017-02-26,-0.44051328457018357
2017-02-27,-0.4155960783565398
2017-02-28,-0.43352613961556585
2017-03-01,-0.44600295920026767
2017-03-02,-0.4549275993762478
2017-03-03,-0.4602762690927378
2017-03-04,-0.4616939834594582
2017-03-05,-0.4636688497751784
2017-03-06,-0.464985513459208
2017-03-07,-0.4646984373055645
2017-03-08,-0.4594615876118304
2017-03-09,-0.461530228687824
2017-03-10,-0.4647391167021162
2017-03-11,-0.46364559657864746
2017-03-12,-0.4649700105143211
2017-03-13,-0.4658529918819383
2017-03-14,-0.45656241595871094
2017-03-15,-0.41166910800888346
2017-03-16,-0.42744351182089346
2017-03-17,-0.4408282360992608
2017-03-18,-0.44993490367110667
2017-03-19,-0.45496346143291433
2017-03-20,-0.45950591647710226
2017-03-21,-0.4630090081117473
2017-03-22,-0.46566323346354466
2017-03-23,-0.4665580173739947
2017-03-24,-0.4669116891487093
2017-03-25,-0.46387668092651424
2017-03-26,-0.45028319127101923
2017-03-27,-0.4351497354760774
2017-03-28,-0.4124614662672208
2017-03-29,-0.3854905234232362
2017-03-30,-0.37466121261437024
2017-03-31,-0.3600152294921699
2017-04-01,-0.3115827061707499
2017-04-02,-0.30246614240434155
2017-04-03,-0.2973727396970105
2017-04-04,-0.2578275065373461
2017-04-05,-0.14603141157255095
2017-04-06,-0.05340565227474059
2017-04-07,0.051883556993587376
2017-04-08,0.0543610094156044
2017-04-09,0.05186419214796345
2017-04-10,0.04869317554218
2017-04-11,0.044312748699606885
2017-04-12,0.03930876928047766
2017-04-13,0.04016441377345359
2017-04-14,0.036937238808508965
2017-04-15,0.03396356016671831
2017-04-16,0.0312543086439625
2017-04-17,0.03380087623918726
2017-04-18,0.02948240008726799
2017-04-19,0.026561571430480768
2017-04-20,0.029570180819408876
2017-04-21,0.042200923647705224
2017-04-22,0.043954339276048415
2017-04-23,0.04069209218927483
2017-04-24,0.036949668064526264
2017-04-25,0.03287336904750049
2017-04-26,0.041543276826363496
2017-04-27,0.04120024920309362
2017-04-28,0.03744115310981044
2017-04-29,0.03180807621720305
2017-04-30,0.026524618183049853
2017-05-01,0.03526666340199114
2017-05-02,0.05675426605977307
2017-05-03,0.06119208570158463
2017-05-04,0.05686953232785896
2017-05-05,0.05866749914327585
2017-05-06,0.10676641605591186
2017-05-07,0.11061687481461746
2017-05-08,0.1127941268629371
2017-05-09,0.109754426805587
2017-05-10,0.10541662320834888
2017-05-11,0.10085709675922416
2017-05-12,0.09571128188483868
2017-05-13,0.09037360387503313
2017-05-14,0.13284695302193583
2017-05-15,0.13334256063039263
2017-05-16,0.13095597564413097
2017-05-17,0.12377723899890114
2017-05-18,0.11559928960762278
2017-05-19,0.11209412401967711
2017-05-20,0.10374514862061446
2017-05-21,0.09711126482402932
2017-05-22,0.09857305811807038
2017-05-23,0.09799538416504205
2017-05-24,0.09192757091762971
2017-05-25,0.08551568150847189
2017-05-26,0.10967911644572936
2017-05-27,0.11578661691059722
2017-05-28,0.10895218124994344
2017-05-29,0.10206215027451648
2017-05-30,0.1079457473029457
2017-05-31,0.10498783259143352
2017-06-01,0.10353437634815776
2017-06-02,0.09677200945748154
2017-06-03,0.09099255129119399
2017-06-04,0.08506671593727688
2017-06-05,0.09342022984352738
2017-06-06,0.11864870637543845
2017-06-07,0.13378584910838143
2017-06-08,0.12658326243956708
2017-06-09,0.11908098238183129
2017-06-10,0.11194535753318746
2017-06-11,0.10416741561257226
2017-06-12,0.0955131105618996
2017-06-13,0.08657799872315053
2017-06-14,0.07783068640370061
2017-06-15,0.07052554906278985
2017-06-16,0.06409605182860645
2017-06-17,0.06869424465968876
2017-06-18,0.0615955698824564
2017-06-19,0.053945149853504404
2017-06-20,0.08560494219365822
2017-06-21,0.0774931603130895
2017-06-22,0.07033653588955247
2017-06-23,0.06337819713668935
2017-06-24,0.06428300326443903
2017-06-25,0.06408665566389615
2017-06-26,0.0650326627426594
2017-06-27,0.060855560660801444
2017-06-28,0.05880906575091771
2017-06-29,0.05296652558672932
2017-06-30,0.04653193051285953
2017-07-01,0.06180401890644305
2017-07-02,0.05699403102444478
2017-07-03,0.05878433080135537
2017-07-04,0.05163897790554017
2017-07-05,0.04499824595680124
2017-07-06,0.03845960533334747
2017-07-07,0.032110154020941195
2017-07-08,0.03445523496970182
2017-07-09,0.04570552198901012
2017-07-10,0.03944914047182024
2017-07-11,0.04095588444804932
2017-07-12,0.03786567385284556
2017-07-13,0.043672435377686725
2017-07-14,0.04913776042929996
2017-07-15,0.04676732104702097
2017-07-16,0.040283671719635095
2017-07-17,0.03342080963859573
2017-07-18,0.031639435766162904
2017-07-19,0.03431441692634252
2017-07-20,0.027179995111183075
2017-07-21,0.02014065916666752
2017-07-22,0.01351498097638526
2017-07-23,0.007278360922764904
2017-07-24,0.005331614908325122
2017-07-25,0.02733183911232473
2017-07-26,0.02561894604670556
2017-07-27,0.02023544296105939
2017-07-28,0.020684756239468527
2017-07-29,0.014761289020061241
2017-07-30,0.009520293574816208
2017-07-31,0.004518599768474019
2017-08-01,-0.0009229404995672041
2017-08-02,-0.006519083774460199
2017-08-03,0.007455611094535186
2017-08-04,0.001732783197287091
2017-08-05,0.009024537795170318
2017-08-06,0.005359745925151316
2017-08-07,0.0005389125069790168
2017-08-08,0.002564239885209929
2017-08-09,-0.002374531983928563
2017-08-10,-0.007040152570805702
2017-08-11,-0.012078350650234881
2017-08-12,-0.004012317136343313
2017-08-13,0.005107467865574478
2017-08-14,-0.00010300235238602795
2017-08-15,-0.0007170610417404077
2017-08-16,-0.004319434932948951
2017-08-17,-0.009293129887090856
2017-08-18,-0.012694536551112634
2017-08-19,0.0002633355710273122
2017-08-20,-0.003272461713020647
2017-08-21,-0.00809016619880154
2017-08-22,-0.012932235193552799
2017-08-23,0.01417274188416684
2017-08-24,0.009051387762706753
2017-08-25,0.004774752664037152
2017-08-26,0.0006929632108452211
2017-08-27,-0.0029730100694322914
2017-08-28,-0.006578624553270629
2017-08-29,-0.010025792414491974
2017-08-30,-0.012984602534658052
2017-08-31,-0.016413908121027276
2017-09-01,-0.019732550102624202
2017-09-02,-0.022184190420183825
2017-09-03,-0.013288499927178066
2017-09-04,0.02658688270220111
2017-09-05,0.02660556393862734
2017-09-06,0.03494328753287945
2017-09-07,0.0666063198534097
2017-09-08,0.07166995980960778
2017-09-09,0.06994730211959066
2017-09-10,0.06549228547486052
2017-09-11,0.061014838936994664
2017-09-12,0.0565611086981761
2017-09-13,0.05183960204843174
2017-09-14,0.04705047235304605
2017-09-15,0.0451455838400463
2017-09-16,0.04703777128241882
2017-09-17,0.05154849525670002
2017-09-18,0.04629779716243476
2017-09-19,0.04139063696666767
2017-09-20,0.03668437822972237
2017-09-21,0.03211184805401501
2017-09-22,0.02761069793347204
2017-09-23,0.023378760877278637
2017-09-24,0.019265141394857466
2017-09-25,0.01485527913326834
2017-09-26,0.010398426200971755
2017-09-27,0.006114173650519916
2017-09-28,0.002073080016042894
2017-09-29,-0.0013598041700255692
2017-09-30,0.001658548103463886
2017-10-01,0.007590388233072787
2017-10-02,0.00560913633664839
2017-10-03,0.0034523138009667775
2017-10-04,0.0012098694181474912
2017-10-05,-0.0012460780336702726
2017-10-06,-0.0038686948695207946
2017-10-07,-0.0034206222326957914
2017-10-08,-0.0060178349380386464
2017-10-09,0.010364940417510127
2017-10-10,0.029388290871633416
2017-10-11,0.025865713015534197
2017-10-12,0.02727126565322635
2017-10-13,0.024677807306861865
2017-10-14,0.022524113061045625
2017-10-15,0.020144654706960807
2017-10-16,0.023247826310974773
2017-10-17,0.021004632627533937
2017-10-18,0.019485796195599647
2017-10-19,0.017598289612845264
2017-10-20,0.01535162039827398
2017-10-21,0.013147412470026154
2017-10-22,0.010921294206799104
2017-10-23,0.008583445119128896
2017-10-24,0.006512104999600865
2017-10-25,0.035402227566542877
2017-10-26,0.03251140720864498
2017-10-27,0.03445075755580618
2017-10-28,0.03236027992607049
2017-10-29,0.03569906292516478
2017-10-30,0.13918621256572905
2017-10-31,0.17534202148416966
2017-11-01,0.09843110428384705
2017-11-02,-0.03619364099397515
2017-11-03,-0.139574760110861
2017-11-04,-0.2173292049310369
2017-11-05,-0.2762510225051358
2017-11-06,-0.3151176002479943
2017-11-07,-0.34298347948341146
2017-11-08,-0.3674196013414246
2017-11-09,-0.38848113509450855
2017-11-10,-0.4020469407611529
2017-11-11,-0.41409512830657036
2017-11-12,-0.422947630753324
2017-11-13,-0.42976137599350395
2017-11-14,-0.43505998369365884
2017-11-15,-0.439090306294009
2017-11-16,-0.4412188390912384
2017-11-17,-0.4330769311411764
2017-11-18,-0.43765764331746126
2017-11-19,-0.42580976795400716
2017-11-20,-0.4253480836038648
2017-11-21,-0.4317967784986969
2017-11-22,-0.4368238143187426
2017-11-23,-0.4386552942875568
2017-11-24,-0.4416470867234885
2017-11-25,-0.4440630776387593
2017-11-26,-0.4461099540699216
2017-11-27,-0.4475283249045674
2017-11-28,-0.448386848053115
2017-11-29,-0.4489139739505923
2017-11-30,-0.4495414184497264
2017-12-01,-0.4437144763546428
2017-12-02,-0.4454656207398955
2017-12-03,-0.4467730415721114
2017-12-04,-0.447781858416068
2017-12-05,-0.4486113455759977
2017-12-06,-0.421202677325514
2017-12-07,-0.42887260532448934
2017-12-08,-0.4343466870276096
2017-12-09,-0.43829193998457683
2017-12-10,-0.429379811626589
2017-12-11,-0.43449585773754507
2017-12-12,-0.43602137284807796
2017-12-13,-0.42115243539965874
2017-12-14,-0.4250242708326084
2017-12-15,-0.43114692240011365
2017-12-16,-0.43521072438600683
2017-12-17,-0.43801597435908945
2017-12-18,-0.44089244020174334
2017-12-19,-0.4430500051857962
2017-12-20,-0.4450032556132193
2017-12-21,-0.44652590684307114
2017-12-22,-0.44727534904800237
2017-12-23,-0.44119758167796164
2017-12-24,-0.4241007343066414
2017-12-25,-0.42286496503147575
2017-12-26,-0.42417653329671623
2017-12-27,-0.43051096211315354
2017-12-28,-0.4352628287839657
2017-12-29,-0.4388273170205359
2017-12-30,-0.44150101424316546
2017-12-31,-0.4417046796104316
2018-01-01,-0.4436592344774297
2018-01-02,-0.4451252501878997
2018-01-03,-0.44622481798479185
2018-01-04,-0.4470495253451716
2018-01-05,-0.4223131428533229
2018-01-06,-0.42911305512948417
2018-01-07,-0.4342141935520303
2018-01-08,-0.4380407252201266
2018-01-09,-0.4388803555431231
2018-01-10,-0.44158627668652173
2018-01-11,-0.4435722860096014
2018-01-12,-0.4453848418795481
2018-01-13,-0.3726185015513259
2018-01-14,-0.3521853943462361
2018-01-15,-0.3764848481440808
2018-01-16,-0.394724778779743
2018-01-17,-0.3929096365235303
2018-01-18,-0.40290258684641245
2018-01-19,-0.4145498130103782
2018-01-20,-0.4232887632441411
2018-01-21,-0.42998449673652317
2018-01-22,-0.43229975531882303
2018-01-23,-0.42905258739803287
2018-01-24,-0.39244517921131816
2018-01-25,-0.40699454557544
2018-01-26,-0.4176201370206307
2018-01-27,-0.42559226942296746
2018-01-28,-0.4251737561853375
2018-01-29,-0.4317576992937191
2018-01-30,-0.4365962423572505
2018-01-31,-0.43854146231954516
2018-02-01,-0.43854098455292245
2018-02-02,-0.4314777611179963
2018-02-03,-0.4359880613178717
2018-02-04,-0.4393713164322044
2018-02-05,-0.40378350890239645
2018-02-06,-0.4153265050398929
2018-02-07,-0.4238714819316378
2018-02-08,-0.40599330750929497
2018-02-09,-0.4168688883971221
2018-02-10,-0.4232550474126917
2018-02-11,-0.4229866053036524
2018-02-12,-0.40173112915018194
2018-02-13,-0.4142905365757521
2018-02-14,-0.42309423826940673
2018-02-15,-0.4299094276598474
2018-02-16,-0.4302992875925362
2018-02-17,-0.4313473014625764
2018-02-18,-0.42078717948751176
2018-02-19,-0.4281714965154819
2018-02-20,-0.41938592320485313
2018-02-21,-0.4280046678819538
2018-02-22,-0.4353861226794251
2018-02-23,-0.4314454172014379
2018-02-24,-0.42248746479461374
2018-02-25,-0.41954872335903204
2018-02-26,-0.4133250407884965
2018-02-27,-0.4232974573566963
2018-02-28,-0.4307150805878628
2018-03-01,-0.4366503677587339
2018-03-02,-0.4194548408063028
2018-03-03,-0.4015898347436142
2018-03-04,-0.41416345189042403
2018-03-05,-0.42069042560854797
2018-03-06,-0.4283985923263387
2018-03-07,-0.4272033648536855
2018-03-08,-0.38923312445769653
2018-03-09,-0.3985797227848664
2018-03-10,-0.40751436500294247
2018-03-11,-0.4183047687543109
2018-03-12,-0.42649045981070444
2018-03-13,-0.42512618924149237
2018-03-14,-0.41765374817141065
2018-03-15,-0.41043647002997474
2018-03-16,-0.4191057473500095
2018-03-17,-0.42692605764217006
2018-03-18,-0.4326655981905958
2018-03-19,-0.43687909336335906
2018-03-20,-0.4400396772716917
2018-03-21,-0.4424103754896329
2018-03-22,-0.44421462639800424
2018-03-23,-0.4463981342045571
2018-03-24,-0.4481350765324663
2018-03-25,-0.4493974299161003
2018-03-26,-0.45032777554922987
2018-03-27,-0.450748151187387
2018-03-28,-0.4491722997018641
2018-03-29,-0.4502507079119411
2018-03-30,-0.4474357514830487
2018-03-31,-0.44673249277581917
2018-04-01,-0.4488639077091712
2018-04-02,-0.4481897546951181
2018-04-03,-0.4447457816766658
2018-04-04,-0.4306290236632435
2018-04-05,-0.427619938725055
2018-04-06,-0.43365517605952775
2018-04-07,-0.4227180493531222
2018-04-08,-0.42995534873774943
2018-04-09,-0.4351312784718715
2018-04-10,-0.4392425581129906
2018-04-11,-0.439606927243247
2018-04-12,-0.4428992956336728
2018-04-13,-0.44151436810330935
2018-04-14,-0.44596088722104454
2018-04-15,-0.44988666769723906
2018-04-16,-0.4366042705792843
2018-04-17,-0.395516412287904
2018-04-18,-0.4031363528804768
2018-04-19,-0.4106288905705462
2018-04-20,-0.4180481652452457
2018-04-21,-0.4270898728899333
2018-04-22,-0.3869669482790563
2018-04-23,-0.3367980937726891
2018-04-24,-0.271536056702697
2018-04-25,-0.16388972050732775
2018-04-26,-0.0565300551603265
2018-04-27,0.05032578464862425
2018-04-28,0.05608248201968635
2018-04-29,0.060953821540788766
2018-04-30,0.05976229370672215
2018-05-01,0.05621112616397639
2018-05-02,0.04927852845050751
2018-05-03,0.04222528284553917
