,2014,2015,2016,2017
normal_level,0.003,0.05,0.005,0.074
wd_level,-1.5,-1.5,-0.687,-1.1
T_startdrawdown,288,288,298,298
T_stopdrawdown,309,330,333,333
T_startrefill,435,399,415,372
T_stoprefill,462,463,432,379
Qmin_recession,0.040335295,0.023101155,0.033916091,0.116964571
Qmin_refill,0.037683361,0.025833483,0.028540225,0.067879142
Qmin_drawdown,0.039485503,0.052108639,0.044029945,0.03580855
Qmin_summer,0.091829511,0.136855159,0.087769481,0.090999904
Qmax_recession,1.125351684,0.852135432,0.885351684,0.931561216
Qmax_refill,0.735539372,0.735539372,0.735539372,1.035092218
Qmax_drawdown,0.155135802,0.547518876,0.856123271,0.44771759
Qmax_summer,0.880426466,0.880426466,0.880426466,0.880426466
alpha,30.0283624315071,30.7821867569233,11.5593917094257,10.7821867569233
beta,73.820048891286,70.6978881287323,60.8789142414442,60.8789142414442
gamma,11.3304291145621,11.4011742165829,13.1681631340869,18.346179291329
theta,103.386197740044,107.651218450848,6.48615209138463,58.3325254868278
