,2014,2015,2016,2017
normal_level,0.112,-0.212,0.058,0.0
wd_level,-2.2150000000000003,-2.1830000000000003,-2.178,-2.218
T_startdrawdown,297.0,289.0,289.0,286.0
T_stopdrawdown,353.0,336.0,359.0,343.0
T_startrefill,435.0,394.0,396.0,396.0
T_stoprefill,542.0,533.0,473.0,516.0
Qmin_recession,0.10870610199288375,0.10870610199288375,0.10870610199288375,0.10870610199288375
Qmin_refill,0.10870610199288375,0.10870610199288375,0.10870610199288375,0.10870610199288375
Qmin_drawdown,0.10870610199288375,0.10870610199288375,0.10870610199288375,0.10870610199288375
Qmin_summer,0.10870610199288375,0.10870610199288375,0.10870610199288375,0.10870610199288375
Qmax_recession,8.333413788827908,8.333413788827908,8.333413788827908,8.333413788827908
Qmax_refill,8.333413788827908,8.333413788827908,8.333413788827908,8.333413788827908
Qmax_drawdown,8.333413788827908,8.333413788827908,8.333413788827908,8.333413788827908
Qmax_summer,8.333413788827908,8.333413788827908,8.333413788827908,8.333413788827908
alpha,0.5,0.5,0.5,0.5
beta,0.5,0.5,0.5,0.5
gamma,0.5,0.5,0.5,0.5
theta,0.5,0.5,0.5,0.5
