,2014,2015,2016,2017
normal_level,0.0,-0.042,0.009,0.052
wd_level,-0.356,-0.35,-0.33299999999999996,-0.327
T_startdrawdown,309.0,296.0,303.0,300.0
T_stopdrawdown,328.0,301.0,314.0,319.0
T_startrefill,450.0,472.0,450.0,487.0
T_stoprefill,476.0,482.0,473.0,491.0
Qmin_recession,0.04505704501890865,0.04505704501890865,0.04505704501890865,0.04505704501890865
Qmin_refill,0.04505704501890865,0.04505704501890865,0.04505704501890865,0.04505704501890865
Qmin_drawdown,0.04505704501890865,0.04505704501890865,0.04505704501890865,0.04505704501890865
Qmin_summer,0.04505704501890865,0.04505704501890865,0.04505704501890865,0.04505704501890865
Qmax_recession,1.8031425577541662,1.8031425577541662,1.8031425577541662,1.8031425577541662
Qmax_refill,1.8031425577541662,1.8031425577541662,1.8031425577541662,1.8031425577541662
Qmax_drawdown,1.8031425577541662,1.8031425577541662,1.8031425577541662,1.8031425577541662
Qmax_summer,1.8031425577541662,1.8031425577541662,1.8031425577541662,1.8031425577541662
alpha,0.5,0.5,0.5,0.5
beta,0.5,0.5,0.5,0.5
gamma,0.5,0.5,0.5,0.5
theta,0.5,0.5,0.5,0.5
