Date,In-situ Water Level (Mean) of Lake Garfield
2015-10-14,-0.001
2015-10-15,-0.0036666666666666666
2015-10-16,-0.022250000000000002
2015-10-17,-0.041416666666666664
2015-10-18,-0.07125
2015-10-19,-0.10175000000000001
2015-10-20,-0.11091666666666666
2015-10-21,-0.1285
2015-10-22,-0.14916666666666667
2015-10-23,-0.1679166666666667
2015-10-24,-0.22183333333333333
2015-10-25,-0.27166666666666667
2015-10-26,-0.32308333333333333
2015-10-27,-0.3834166666666667
2015-10-28,-0.42625
2015-10-29,-0.455
2015-10-30,-0.4995
2015-10-31,-0.5598333333333333
2015-11-01,-0.6201666666666666
2015-11-02,-0.6931666666666666
2015-11-03,-0.7744166666666668
2015-11-04,-0.8533333333333334
2015-11-05,-0.9328333333333333
2015-11-06,-1.0135833333333333
2015-11-07,-1.0576666666666668
2015-11-08,-1.0905
2015-11-09,-1.13275
2015-11-10,-1.1699166666666667
2015-11-11,-1.19225
2015-11-12,-1.2212500000000002
2015-11-13,-1.2474166666666666
2015-11-14,-1.2820833333333332
2015-11-15,-1.3179166666666666
2015-11-16,-1.3516666666666666
2015-11-17,-1.3850833333333332
2015-11-18,-1.4231666666666667
2015-11-19,-1.44775
2015-11-20,-1.4503333333333333
2015-11-21,-1.4814166666666668
2015-11-22,-1.497
2015-11-23,-1.5075853331335993
2015-11-24,-1.5199801877571701
2015-11-25,-1.5339891692526426
2015-11-26,-1.5494168830019468
2015-11-27,-1.5660679343870134
2015-11-28,-1.583746928789772
2015-11-29,-1.6022584715921524
2015-11-30,-1.6214071681760858
2015-12-01,-1.6409976239235011
2015-12-02,-1.660834444216329
2015-12-03,-1.6807222344364994
2015-12-04,-1.7004655999659424
2015-12-05,-1.7198691461865883
2015-12-06,-1.738737478480367
2015-12-07,-1.7568752022292087
2015-12-08,-1.7740869228150435
2015-12-09,-1.7901772456198013
2015-12-10,-1.8049507760254127
2015-12-11,-1.8182121194138072
2015-12-12,-1.8297658811669153
2015-12-13,-1.8394166666666667
2015-12-14,-1.8448333333333335
2015-12-15,-1.8400833333333333
2015-12-16,-1.834666666666667
2015-12-17,-1.832
2015-12-18,-1.8317500000000002
2015-12-19,-1.8408333333333333
2015-12-20,-1.8254166666666667
2015-12-21,-1.8304166666666666
2015-12-22,-1.8304166666666666
2015-12-23,-1.8214166666666667
2015-12-24,-1.7988333333333333
2015-12-25,-1.7965
2015-12-26,-1.803
2015-12-27,-1.8092499999999998
2015-12-28,-1.8230833333333332
2015-12-29,-1.8289166666666665
2015-12-30,-1.8251666666666668
2015-12-31,-1.8224166666666666
2016-01-01,-1.8238333333333332
2016-01-02,-1.8344166666666668
2016-01-03,-1.8353333333333335
2016-01-04,-1.8748333333333334
2016-01-05,-1.9119166666666667
2016-01-06,-1.8942500000000002
2016-01-07,-1.8814166666666665
2016-01-08,-1.8702500000000002
2016-01-09,-1.8630000000000002
2016-01-10,-1.8295833333333331
2016-01-11,-1.80975
2016-01-12,-1.8171666666666668
2016-01-13,-1.8332499999999998
2016-01-14,-1.8451666666666666
2016-01-15,-1.8279166666666669
2016-01-16,-1.8139166666666666
2016-01-17,-1.8194166666666665
2016-01-18,-1.8492499999999998
2016-01-19,-1.8654166666666667
2016-01-20,-1.8655833333333334
2016-01-21,-1.86825
2016-01-22,-1.8848333333333331
2016-01-23,-1.8775833333333332
2016-01-24,-1.8847500000000001
2016-01-25,-1.8740833333333333
2016-01-26,-1.8622500000000002
2016-01-27,-1.8579166666666669
2016-01-28,-1.8685
2016-01-29,-1.864
2016-01-30,-1.8744166666666666
2016-01-31,-1.8595
2016-02-01,-1.8593333333333335
2016-02-02,-1.8633333333333333
2016-02-03,-1.8424166666666668
2016-02-04,-1.8083333333333333
2016-02-05,-1.8165833333333332
2016-02-06,-1.8313333333333333
2016-02-07,-1.8267499999999999
2016-02-08,-1.836
2016-02-09,-1.84375
2016-02-10,-1.8406666666666667
2016-02-11,-1.8788333333333334
2016-02-12,-1.9075
2016-02-13,-1.9327500000000002
2016-02-14,-1.9845
2016-02-15,-1.9572500000000002
2016-02-16,-1.85050695768468
2016-02-17,-1.7229379039385881
2016-02-18,-1.6389166666666666
2016-02-19,-1.6208333333333333
2016-02-20,-1.5734166666666667
2016-02-21,-1.5385833333333334
2016-02-22,-1.5216666666666667
2016-02-23,-1.5114999999999998
2016-02-24,-1.4754166666666668
2016-02-25,-1.3203760124498414
2016-02-26,-1.1635833333333332
2016-02-27,-1.1136666666666666
2016-02-28,-1.0580833333333333
2016-02-29,-1.0189166666666667
2016-03-01,-1.002
2016-03-02,-0.963
2016-03-03,-0.9496666666666668
2016-03-04,-0.9107500000000001
2016-03-05,-0.8914166666666667
2016-03-06,-0.8670833333333333
2016-03-07,-0.8469166666666667
2016-03-08,-0.8266666666666667
2016-03-09,-0.8115
2016-03-10,-0.7929166666666667
2016-03-11,-0.7476666666666666
2016-03-12,-0.7279166666666667
2016-03-13,-0.7084166666666666
2016-03-14,-0.6843333333333333
2016-03-15,-0.6595000000000001
2016-03-16,-0.6423333333333333
2016-03-17,-0.61125
2016-03-18,-0.5904999999999999
2016-03-19,-0.5831666666666666
2016-03-20,-0.5732499999999999
2016-03-21,-0.5559166666666667
2016-03-22,-0.5435833333333334
2016-03-23,-0.52975
2016-03-24,-0.5113333333333333
2016-03-25,-0.49983333333333335
2016-03-26,-0.48724999999999996
2016-03-27,-0.4750833333333333
2016-03-28,-0.455
2016-03-29,-0.4389166666666667
2016-03-30,-0.42575
2016-03-31,-0.41083333333333333
2016-04-01,-0.4013333333333333
2016-04-02,-0.3781666666666667
2016-04-03,-0.3749166666666666
2016-04-04,-0.3645833333333333
2016-04-05,-0.35033333333333333
2016-04-06,-0.33275
2016-04-07,-0.2955
2016-04-08,-0.23866666666666667
2016-04-09,-0.21941666666666668
2016-04-10,-0.20583333333333334
2016-04-11,-0.18083333333333332
2016-04-12,-0.1505
2016-04-13,-0.12525
2016-04-14,-0.10766666666666667
2016-04-15,-0.09533333333333334
2016-04-16,-0.08133333333333333
2016-04-17,-0.07291666666666667
2016-04-18,-0.06308333333333334
2016-04-19,-0.05325
2016-04-20,-0.04275
2016-04-21,-0.036166666666666666
2016-04-22,-0.03
2016-04-23,-0.016666666666666666
2016-04-24,-0.0042499999999999994
2016-04-25,-0.004916666666666666
2016-04-26,0.011916666666666666
2016-04-27,0.017333333333333336
2016-04-28,0.018166666666666668
2016-04-29,0.019333333333333334
2016-04-30,0.019
2016-05-01,0.027333333333333334
2016-05-02,0.036166666666666666
2016-05-03,0.052583333333333336
2016-05-04,0.05691666666666667
2016-05-05,0.05575
2016-05-06,0.048999999999999995
2016-05-07,0.050749999999999997
2016-05-08,0.04533333333333334
2016-05-09,0.042166666666666665
2016-05-10,0.04058333333333333
2016-05-11,0.034666666666666665
2016-05-12,0.029916666666666664
2016-05-13,0.032
2016-05-14,0.042333333333333334
2016-05-15,0.04649999999999999
2016-05-16,0.03675
2016-05-17,0.031083333333333334
2016-05-18,0.026
2016-05-19,0.024249999999999997
2016-05-20,0.022416666666666668
2016-05-21,0.02075
2016-05-22,0.01875
2016-05-23,0.016333333333333335
2016-05-24,0.01975
2016-05-25,0.020583333333333332
2016-05-26,0.018
2016-05-27,0.014916666666666667
2016-05-28,0.011500000000000002
2016-05-29,0.011833333333333333
2016-05-30,0.01775
2016-05-31,0.03666666666666667
2016-06-01,0.03358333333333333
2016-06-02,0.027583333333333335
2016-06-03,0.021083333333333332
2016-06-04,0.013083333333333334
2016-06-05,0.023333333333333334
2016-06-06,0.05458333333333334
2016-06-07,0.051583333333333335
2016-06-08,0.04225
2016-06-09,0.028749999999999998
2016-06-10,0.02075
2016-06-11,0.03175
2016-06-12,0.04225
2016-06-13,0.036083333333333335
2016-06-14,0.03025
2016-06-15,0.025333333333333333
2016-06-16,0.023499999999999997
2016-06-17,0.020166666666666666
2016-06-18,0.01525
2016-06-19,0.013416666666666667
2016-06-20,0.011000000000000001
2016-06-21,0.014916666666666667
2016-06-22,0.011500000000000002
2016-06-23,0.007083333333333333
2016-06-24,0.002916666666666667
2016-06-25,-0.0003333333333333333
2016-06-26,-0.002916666666666667
2016-06-27,-0.006166666666666667
2016-06-28,-0.007583333333333333
2016-06-29,-0.007083333333333333
2016-06-30,-0.006916666666666667
2016-07-01,-0.007416666666666666
2016-07-02,-0.0031666666666666666
2016-07-03,-0.005999999999999999
2016-07-04,-0.00775
2016-07-05,-0.007666666666666666
2016-07-06,-0.006666666666666667
2016-07-07,-0.006416666666666667
2016-07-08,-0.0019166666666666666
2016-07-09,0.007416666666666666
2016-07-10,0.0065
2016-07-11,0.00775
2016-07-12,0.005666666666666667
2016-07-13,0.004083333333333334
2016-07-14,0.0034999999999999996
2016-07-15,0.009333333333333334
2016-07-16,0.006916666666666667
2016-07-17,0.0004999999999999999
2016-07-18,-0.0015000000000000002
2016-07-19,-0.00475
2016-07-20,-0.009416666666666667
2016-07-21,-0.011749999999999998
2016-07-22,-0.016
2016-07-23,-0.016666666666666666
2016-07-24,-0.018666666666666668
2016-07-25,-0.01958333333333333
2016-07-26,-0.02383333333333333
2016-07-27,-0.026166666666666668
2016-07-28,-0.02366666666666667
2016-07-29,-0.022583333333333334
2016-07-30,-0.022333333333333334
2016-07-31,-0.013666666666666666
2016-08-01,-0.013
2016-08-02,-0.0020833333333333333
2016-08-03,-0.00125
2016-08-04,-0.004416666666666667
2016-08-05,-0.006999999999999999
2016-08-06,-0.0105
2016-08-07,-0.009416666666666667
2016-08-08,-0.013083333333333334
2016-08-09,-0.016583333333333335
2016-08-10,-0.013166666666666667
2016-08-11,-0.00825
2016-08-12,-0.002916666666666667
2016-08-13,0.02266666666666667
2016-08-14,0.02316666666666667
2016-08-15,0.0155
2016-08-16,0.011333333333333334
2016-08-17,0.004583333333333333
2016-08-18,-0.0006666666666666666
2016-08-19,-0.0031666666666666666
2016-08-20,-0.005916666666666666
2016-08-21,-0.00975
2016-08-22,-0.005
2016-08-23,-0.008
2016-08-24,-0.011583333333333334
2016-08-25,-0.014166666666666666
2016-08-26,-0.017333333333333336
2016-08-27,-0.015833333333333335
2016-08-28,-0.016666666666666666
2016-08-29,-0.020583333333333332
2016-08-30,-0.02033333333333333
2016-08-31,-0.022250000000000002
2016-09-01,-0.023749999999999997
2016-09-02,-0.023500000000000004
2016-09-03,-0.025583333333333333
2016-09-04,-0.027583333333333335
2016-09-05,-0.029416666666666664
2016-09-06,-0.03325
2016-09-07,-0.034416666666666665
2016-09-08,-0.03316666666666667
2016-09-09,-0.03233333333333333
2016-09-10,-0.029083333333333333
2016-09-11,-0.025916666666666668
2016-09-12,-0.0195
2016-09-13,-0.022250000000000002
2016-09-14,-0.02691666666666667
2016-09-15,-0.025416666666666667
2016-09-16,-0.0265
2016-09-17,-0.028083333333333335
2016-09-18,-0.029833333333333333
2016-09-19,-0.00975
2016-09-20,-0.004416666666666667
2016-09-21,-0.0028333333333333335
2016-09-22,-0.0065
2016-09-23,-0.016666666666666666
2016-09-24,-0.015583333333333333
2016-09-25,-0.016333333333333335
2016-09-26,-0.021500000000000002
2016-09-27,-0.013666666666666667
2016-09-28,-0.007083333333333334
2016-09-29,-0.011833333333333333
2016-09-30,-0.0135
2016-10-01,-0.012499999999999999
2016-10-02,-0.013833333333333331
2016-10-03,-0.013999999999999999
2016-10-04,-0.008749999999999999
2016-10-05,-0.007583333333333333
2016-10-06,-0.008666666666666668
2016-10-07,-0.008083333333333333
2016-10-08,-0.007666666666666666
2016-10-09,-0.0045
2016-10-10,-0.0028333333333333335
2016-10-11,-0.0045833333333333325
2016-10-12,-0.007833333333333333
2016-10-13,-0.008
2016-10-14,-0.00525
2016-10-15,-0.004583333333333333
2016-10-16,-0.008583333333333333
2016-10-17,-0.012249999999999999
2016-10-18,-0.010833333333333334
2016-10-19,-0.007916666666666667
2016-10-20,-0.0011666666666666668
2016-10-21,-0.0019166666666666666
2016-10-22,0.015
2016-10-23,0.03
2016-10-24,0.03316666666666667
2016-10-25,0.03341666666666667
2016-10-26,0.029583333333333333
2016-10-27,0.03258333333333333
2016-10-28,0.044750000000000005
2016-10-29,0.04158333333333333
2016-10-30,0.03983333333333333
2016-10-31,0.044833333333333336
2016-11-01,0.039
2016-11-02,0.034583333333333334
2016-11-03,0.035583333333333335
2016-11-04,0.0385
2016-11-05,0.03808333333333334
2016-11-06,0.03358333333333333
2016-11-07,0.0305
2016-11-08,0.028333333333333335
2016-11-09,0.03283333333333333
2016-11-10,0.0325
2016-11-11,0.027833333333333335
2016-11-12,0.025916666666666668
2016-11-13,0.023000000000000003
2016-11-14,0.020666666666666667
2016-11-15,0.03291666666666667
2016-11-16,0.052083333333333336
2016-11-17,0.030416666666666665
2016-11-18,-0.02625
2016-11-19,-0.10291666666666667
2016-11-20,-0.17016666666666666
2016-11-21,-0.2414166666666667
2016-11-22,-0.32358333333333333
2016-11-23,-0.41
2016-11-24,-0.5328241386769774
2016-11-25,-0.6848894282103973
2016-11-26,-0.8455427638548347
2016-11-27,-0.9941310408648646
2016-11-28,-1.1100011544950612
2016-11-29,-1.1725
2016-11-30,-1.17875
2016-12-01,-1.1831847844573833
2016-12-02,-1.2028499022163184
2016-12-03,-1.2409999999999999
2016-12-04,-1.2929166666666665
2016-12-05,-1.3341666666666667
2016-12-06,-1.3779166666666667
2016-12-07,-1.4289166666666666
2016-12-08,-1.4696666666666667
2016-12-09,-1.5156666666666665
2016-12-10,-1.5583333333333333
2016-12-11,-1.5916666666666668
2016-12-12,-1.5796666666666666
2016-12-13,-1.58275
2016-12-14,-1.6181666666666665
2016-12-15,-1.6665
2016-12-16,-1.7211666666666667
2016-12-17,-1.6896666666666667
2016-12-18,-1.6645833333333335
2016-12-19,-1.7045000000000001
2016-12-20,-1.7325833333333334
2016-12-21,-1.72025
2016-12-22,-1.7216666666666667
2016-12-23,-1.7266666666666666
2016-12-24,-1.7325833333333334
2016-12-25,-1.7323333333333333
2016-12-26,-1.7540833333333332
2016-12-27,-1.7349166666666667
2016-12-28,-1.7393333333333334
2016-12-29,-1.748916666666667
2016-12-30,-1.758
2016-12-31,-1.7769166666666667
2017-01-01,-1.7699999999999998
2017-01-02,-1.7874166666666669
2017-01-03,-1.7748333333333333
2017-01-04,-1.7546666666666668
2017-01-05,-1.773
2017-01-06,-1.7864166666666665
2017-01-07,-1.8146666666666667
2017-01-08,-1.82075
2017-01-09,-1.8290833333333334
2017-01-10,-1.7943333333333333
2017-01-11,-1.7561666666666664
2017-01-12,-1.74325
2017-01-13,-1.6955
2017-01-14,-1.7169999999999999
2017-01-15,-1.71
2017-01-16,-1.7215833333333332
2017-01-17,-1.7150833333333333
2017-01-18,-1.7097499999999999
2017-01-19,-1.7132500000000002
2017-01-20,-1.7115
2017-01-21,-1.7171666666666667
2017-01-22,-1.7169166666666669
2017-01-23,-1.7065000000000001
2017-01-24,-1.6973333333333331
2017-01-25,-1.6945
2017-01-26,-1.6889166666666666
2017-01-27,-1.6922499999999998
2017-01-28,-1.7010833333333333
2017-01-29,-1.7049166666666666
2017-01-30,-1.7258333333333333
2017-01-31,-1.7597500000000001
2017-02-01,-1.7445833333333332
2017-02-02,-1.7548333333333332
2017-02-03,-1.7757500000000002
2017-02-04,-1.7914166666666667
2017-02-05,-1.7885
2017-02-06,-1.78875
2017-02-07,-1.7932499999999998
2017-02-08,-1.779
2017-02-09,-1.7810833333333331
2017-02-10,-1.8126666666666666
2017-02-11,-1.7794999999999999
2017-02-12,-1.77475
2017-02-13,-1.7554166666666668
2017-02-14,-1.7576666666666665
2017-02-15,-1.7586666666666666
2017-02-16,-1.7679166666666666
2017-02-17,-1.7758333333333332
2017-02-18,-1.7748333333333333
2017-02-19,-1.7631666666666668
2017-02-20,-1.7405
2017-02-21,-1.7242499999999998
2017-02-22,-1.6575833333333332
2017-02-23,-1.635
2017-02-24,-1.5910833333333334
2017-02-25,-1.5246666666666666
2017-02-26,-1.441
2017-02-27,-1.3999166666666667
2017-02-28,-1.36675
2017-03-01,-1.3458333333333334
2017-03-02,-1.33075
2017-03-03,-1.3328333333333333
2017-03-04,-1.3545833333333333
2017-03-05,-1.33775
2017-03-06,-1.303
2017-03-07,-1.262
2017-03-08,-1.2425833333333334
2017-03-09,-1.2284166666666667
2017-03-10,-1.228
2017-03-11,-1.2726666666666666
2017-03-12,-1.257
2017-03-13,-1.2286666666666666
2017-03-14,-1.1825833333333333
2017-03-15,-1.1660833333333334
2017-03-16,-1.13625
2017-03-17,-1.1148333333333333
2017-03-18,-1.1084166666666666
2017-03-19,-1.08875
2017-03-20,-1.0820833333333333
2017-03-21,-1.0608333333333333
2017-03-22,-1.0663333333333334
2017-03-23,-1.0660833333333333
2017-03-24,-1.0373333333333334
2017-03-25,-1.0139166666666666
2017-03-26,-1.003
2017-03-27,-0.9766666666666666
2017-03-28,-0.9378333333333333
2017-03-29,-0.8780833333333334
2017-03-30,-0.8473333333333333
2017-03-31,-0.7971666666666667
2017-04-01,-0.7401666666666666
2017-04-02,-0.7080000000000001
2017-04-03,-0.6688333333333333
2017-04-04,-0.5895
2017-04-05,-0.5051666666666667
2017-04-06,-0.44458333333333333
2017-04-07,-0.3798333333333333
2017-04-08,-0.3363333333333333
2017-04-09,-0.30433333333333334
2017-04-10,-0.2778333333333333
2017-04-11,-0.25333333333333335
2017-04-12,-0.22883333333333333
2017-04-13,-0.20491666666666666
2017-04-14,-0.18616666666666667
2017-04-15,-0.17325000000000002
2017-04-16,-0.1645
2017-04-17,-0.14091666666666666
2017-04-18,-0.12208333333333334
2017-04-19,-0.1075
2017-04-20,-0.09775
2017-04-21,-0.06541666666666666
2017-04-22,-0.043583333333333335
2017-04-23,-0.03133333333333333
2017-04-24,-0.01875
2017-04-25,-0.0020833333333333333
2017-04-26,0.017833333333333333
2017-04-27,0.035583333333333335
2017-04-28,0.048499999999999995
2017-04-29,0.05633333333333334
2017-04-30,0.073
2017-05-01,0.08275
2017-05-02,0.09766666666666667
2017-05-03,0.10891666666666666
2017-05-04,0.10725
2017-05-05,0.11941666666666667
2017-05-06,0.14475
2017-05-07,0.15083333333333335
2017-05-08,0.1435
2017-05-09,0.13041666666666665
2017-05-10,0.11958333333333333
2017-05-11,0.11058333333333333
2017-05-12,0.10366666666666667
2017-05-13,0.09999999999999999
2017-05-14,0.15583333333333335
2017-05-15,0.14683333333333334
2017-05-16,0.13166666666666668
2017-05-17,0.11975000000000001
2017-05-18,0.10858333333333332
2017-05-19,0.10366666666666667
2017-05-20,0.09766666666666667
2017-05-21,0.08800000000000001
2017-05-22,0.08858333333333333
2017-05-23,0.0815
2017-05-24,0.07841666666666668
2017-05-25,0.07841666666666668
2017-05-26,0.09483333333333333
2017-05-27,0.10325
2017-05-28,0.09699999999999999
2017-05-29,0.09833333333333334
2017-05-30,0.09508333333333334
2017-05-31,0.09066666666666667
2017-06-01,0.09008333333333333
2017-06-02,0.08466666666666667
2017-06-03,0.0785
2017-06-04,0.07433333333333333
2017-06-05,0.0775
2017-06-06,0.10733333333333334
2017-06-07,0.11966666666666666
2017-06-08,0.10983333333333334
2017-06-09,0.09766666666666667
2017-06-10,0.08783333333333333
2017-06-11,0.07908333333333334
2017-06-12,0.07441666666666667
2017-06-13,0.06991666666666667
2017-06-14,0.06725
2017-06-15,0.062
2017-06-16,0.06125
2017-06-17,0.06216666666666667
2017-06-18,0.06075
2017-06-19,0.07566666666666667
2017-06-20,0.10283333333333333
2017-06-21,0.09425
2017-06-22,0.083
2017-06-23,0.07383333333333333
2017-06-24,0.07433333333333333
2017-06-25,0.07291666666666667
2017-06-26,0.07166666666666667
2017-06-27,0.06625
2017-06-28,0.06241666666666667
2017-06-29,0.05541666666666667
2017-06-30,0.05433333333333334
2017-07-01,0.06491666666666666
2017-07-02,0.06133333333333333
2017-07-03,0.05875
2017-07-04,0.05566666666666667
2017-07-05,0.05341666666666667
2017-07-06,0.04758333333333333
2017-07-07,0.04708333333333333
2017-07-08,0.050833333333333335
2017-07-09,0.05383333333333334
2017-07-10,0.051083333333333335
2017-07-11,0.049833333333333334
2017-07-12,0.052083333333333336
2017-07-13,0.06375
2017-07-14,0.0795
2017-07-15,0.07091666666666667
2017-07-16,0.06641666666666667
2017-07-17,0.06216666666666667
2017-07-18,0.06375
2017-07-19,0.08650000000000001
2017-07-20,0.07891666666666666
2017-07-21,0.0665
2017-07-22,0.06125
2017-07-23,0.05566666666666667
2017-07-24,0.0615
2017-07-25,0.06308333333333334
2017-07-26,0.057999999999999996
2017-07-27,0.05375
2017-07-28,0.05408333333333334
2017-07-29,0.0535
2017-07-30,0.04674999999999999
2017-07-31,0.04533333333333334
2017-08-01,0.042666666666666665
2017-08-02,0.042416666666666665
2017-08-03,0.044333333333333336
2017-08-04,0.047999999999999994
2017-08-05,0.0545
2017-08-06,0.049499999999999995
2017-08-07,0.048666666666666664
2017-08-08,0.04658333333333333
2017-08-09,0.047749999999999994
2017-08-10,0.045250000000000005
2017-08-11,0.043916666666666666
2017-08-12,0.05708333333333334
2017-08-13,0.05425
2017-08-14,0.05508333333333334
2017-08-15,0.0525
2017-08-16,0.050249999999999996
2017-08-17,0.050499999999999996
2017-08-18,0.051416666666666666
2017-08-19,0.056833333333333326
2017-08-20,0.05525
2017-08-21,0.05225
2017-08-22,0.049666666666666665
2017-08-23,0.057666666666666665
2017-08-24,0.05491666666666667
2017-08-25,0.048916666666666664
2017-08-26,0.04674999999999999
2017-08-27,0.042083333333333334
2017-08-28,0.04041666666666666
2017-08-29,0.03775
2017-08-30,0.03183333333333333
2017-08-31,0.03391666666666667
2017-09-01,0.03291666666666667
2017-09-02,0.030666666666666665
2017-09-03,0.05391666666666667
2017-09-04,0.0705
2017-09-05,0.06883333333333334
2017-09-06,0.08558333333333333
2017-09-07,0.10149999999999999
2017-09-08,0.10075
2017-09-09,0.09125
2017-09-10,0.0815
2017-09-11,0.07458333333333333
2017-09-12,0.06791666666666667
2017-09-13,0.06433333333333334
2017-09-14,0.058916666666666666
2017-09-15,0.06175
2017-09-16,0.06733333333333334
2017-09-17,0.06625
2017-09-18,0.06575
2017-09-19,0.06225
2017-09-20,0.05658333333333334
2017-09-21,0.05441666666666667
2017-09-22,0.0515
2017-09-23,0.04591666666666667
2017-09-24,0.04766666666666666
2017-09-25,0.04733333333333334
2017-09-26,0.046250000000000006
2017-09-27,0.045000000000000005
2017-09-28,0.042166666666666665
2017-09-29,0.042333333333333334
2017-09-30,0.044750000000000005
2017-10-01,0.042333333333333334
2017-10-02,0.042916666666666665
2017-10-03,0.03925
2017-10-04,0.0375
2017-10-05,0.036083333333333335
2017-10-06,0.04008333333333333
2017-10-07,0.03933333333333333
2017-10-08,0.04716666666666667
2017-10-09,0.07725
2017-10-10,0.09383333333333332
2017-10-11,0.09258333333333334
2017-10-12,0.09200000000000001
2017-10-13,0.08483333333333333
2017-10-14,0.07741666666666668
2017-10-15,0.07591666666666667
2017-10-16,0.07633333333333334
2017-10-17,0.05758333333333334
2017-10-18,0.023499999999999997
2017-10-19,-0.03283333333333333
2017-10-20,-0.10541666666666667
2017-10-21,-0.17200000000000001
2017-10-22,-0.23975
2017-10-23,-0.3060833333333333
2017-10-24,-0.367
2017-10-25,-0.40975
2017-10-26,-0.46900000000000003
2017-10-27,-0.5376666666666666
2017-10-28,-0.62
2017-10-29,-0.6716666666666667
2017-10-30,-0.5654658971586961
2017-10-31,-0.4635
2017-11-01,-0.5208333333333334
2017-11-02,-0.5939166666666666
2017-11-03,-0.6718333333333333
2017-11-04,-0.75325
2017-11-05,-0.8417499999999999
2017-11-06,-0.9046666666666666
2017-11-07,-0.9423333333333334
2017-11-08,-0.97925
2017-11-09,-1.03125
2017-11-10,-1.0779166666666666
2017-11-11,-1.1330833333333332
2017-11-12,-1.1643333333333332
2017-11-13,-1.2001666666666668
2017-11-14,-1.235
2017-11-15,-1.2816666666666665
2017-11-16,-1.3253333333333333
2017-11-17,-1.3654166666666665
2017-11-18,-1.4245
2017-11-19,-1.4385000000000001
2017-11-20,-1.4703333333333335
2017-11-21,-1.50425
2017-11-22,-1.5284166666666668
2017-11-23,-1.5607499999999999
2017-11-24,-1.5714166666666667
2017-11-25,-1.5854166666666665
2017-11-26,-1.615916666666667
2017-11-27,-1.6464166666666669
2017-11-28,-1.6904166666666667
2017-11-29,-1.7010833333333333
2017-11-30,-1.70925
2017-12-01,-1.729
2017-12-02,-1.7471666666666668
2017-12-03,-1.7493333333333334
2017-12-04,-1.7458333333333333
2017-12-05,-1.7485833333333334
2017-12-06,-1.763
2017-12-07,-1.7684166666666667
2017-12-08,-1.7830833333333331
2017-12-09,-1.7883333333333333
2017-12-10,-1.7964166666666666
2017-12-11,-1.79675
2017-12-12,-1.798
2017-12-13,-1.8321666666666667
2017-12-14,-1.8275833333333333
2017-12-15,-1.8361666666666665
2017-12-16,-1.8294166666666667
2017-12-17,-1.8321666666666667
2017-12-18,-1.8116666666666668
2017-12-19,-1.8049166666666665
2017-12-20,-1.8064166666666666
2017-12-21,-1.8226666666666667
2017-12-22,-1.8296666666666666
2017-12-23,-1.8162500000000001
2017-12-24,-1.8074999999999999
2017-12-25,-1.8105
2017-12-26,-1.8365833333333335
2017-12-27,-1.8584166666666666
2017-12-28,-1.8646666666666667
2017-12-29,-1.8495833333333334
2017-12-30,-1.8376666666666666
2017-12-31,-1.8555000000000001
2018-01-01,-1.8675
2018-01-02,-1.8480833333333333
2018-01-03,-1.8465
2018-01-04,-1.8213333333333335
2018-01-05,-1.8366666666666667
2018-01-06,-1.8529166666666665
2018-01-07,-1.8644166666666668
2018-01-08,-1.8189166666666667
2018-01-09,-1.7985
2018-01-10,-1.8083333333333333
2018-01-11,-1.7815833333333335
2018-01-12,-1.7081666666666668
2018-01-13,-1.617
2018-01-14,-1.6615833333333334
2018-01-15,-1.6507500000000002
2018-01-16,-1.6335833333333334
2018-01-17,-1.6234166666666667
2018-01-18,-1.6580833333333331
2018-01-19,-1.64925
2018-01-20,-1.6463333333333334
2018-01-21,-1.6421666666666666
2018-01-22,-1.6420000000000001
2018-01-23,-1.6016666666666666
2018-01-24,-1.5870833333333334
2018-01-25,-1.61775
2018-01-26,-1.6203333333333332
2018-01-27,-1.6016666666666666
2018-01-28,-1.5904166666666668
2018-01-29,-1.59725
2018-01-30,-1.6239999999999999
2018-01-31,-1.6551666666666665
2018-02-01,-1.63825
2018-02-02,-1.67225
2018-02-03,-1.7041666666666666
2018-02-04,-1.6684999999999999
2018-02-05,-1.631
2018-02-06,-1.6570833333333335
2018-02-07,-1.6585833333333333
2018-02-08,-1.6589166666666666
2018-02-09,-1.6793333333333333
2018-02-10,-1.6454166666666667
2018-02-11,-1.6005
2018-02-12,-1.5465
2018-02-13,-1.5768333333333333
2018-02-14,-1.5605
2018-02-15,-1.5565833333333332
2018-02-16,-1.5563333333333336
2018-02-17,-1.5721666666666667
2018-02-18,-1.5728333333333333
2018-02-19,-1.5820833333333333
2018-02-20,-1.5371666666666666
2018-02-21,-1.4375
2018-02-22,-1.3251201906904129
2018-02-23,-1.2395
2018-02-24,-1.1935
2018-02-25,-1.1299166666666667
2018-02-26,-1.0727499999999999
2018-02-27,-1.0367499999999998
2018-02-28,-1.0076666666666665
2018-03-01,-0.97925
2018-03-02,-0.91975
2018-03-03,-0.8654166666666666
2018-03-04,-0.8360833333333333
2018-03-05,-0.8135833333333333
2018-03-06,-0.7925
2018-03-07,-0.7588333333333334
2018-03-08,-0.7096666666666667
2018-03-09,-0.6942499999999999
2018-03-10,-0.6656666666666667
2018-03-11,-0.6491666666666667
2018-03-12,-0.63025
2018-03-13,-0.5994166666666666
2018-03-14,-0.5761666666666666
2018-03-15,-0.54425
2018-03-16,-0.5320833333333334
2018-03-17,-0.5215
2018-03-18,-0.5175
2018-03-19,-0.4939166666666666
2018-03-20,-0.486
2018-03-21,-0.455
2018-03-22,-0.44175000000000003
2018-03-23,-0.42841666666666667
2018-03-24,-0.4163333333333333
2018-03-25,-0.40116666666666667
2018-03-26,-0.397
2018-03-27,-0.3790833333333334
2018-03-28,-0.35624999999999996
2018-03-29,-0.33749999999999997
2018-03-30,-0.30391666666666667
2018-03-31,-0.263
2018-04-01,-0.22624999999999998
2018-04-02,-0.19816666666666669
2018-04-03,-0.17016666666666666
2018-04-04,-0.1215
2018-04-05,-0.08883333333333333
2018-04-06,-0.05766666666666667
2018-04-07,-0.01941666666666667
2018-04-08,-0.0012499999999999996
2018-04-09,0.017583333333333333
2018-04-10,0.044750000000000005
2018-04-11,0.051333333333333335
2018-04-12,0.06591666666666667
2018-04-13,0.07783333333333332
2018-04-14,0.09416666666666666
2018-04-15,0.10049999999999999
2018-04-16,0.133
2018-04-17,0.1905
2018-04-18,0.16825
2018-04-19,0.15016666666666667
2018-04-20,0.13233333333333333
2018-04-21,0.121
2018-04-22,0.11308333333333333
2018-04-23,0.10433333333333333
2018-04-24,0.10016666666666667
2018-04-25,0.10049999999999999
2018-04-26,0.09933333333333333
2018-04-27,0.10066666666666667
2018-04-28,0.10191666666666667
2018-04-29,0.11233333333333334
2018-04-30,0.112
2018-05-01,0.09975
2018-05-02,0.09125
2018-05-03,0.08641666666666666
2018-05-04,0.09508333333333334
2018-05-05,0.09158333333333334
2018-05-06,0.09283333333333332
2018-05-07,0.08791666666666666
2018-05-08,0.0815
2018-05-09,0.07766666666666666
2018-05-10,0.07241666666666667
2018-05-11,0.0675
2018-05-12,0.07208333333333333
2018-05-13,0.07408333333333333
2018-05-14,0.06874999999999999
2018-05-15,0.07383333333333333
2018-05-16,0.09008333333333333
2018-05-17,0.08141666666666666
2018-05-18,0.07675
2018-05-19,0.07541666666666667
2018-05-20,0.07658333333333334
2018-05-21,0.08191666666666667
2018-05-22,0.08141666666666668
2018-05-23,0.07275
2018-05-24,0.06691666666666667
2018-05-25,0.06125
2018-05-26,0.05758333333333334
2018-05-27,0.05883333333333333
2018-05-28,0.05566666666666667
2018-05-29,0.07583333333333334
2018-05-30,0.11375
2018-05-31,0.11216666666666668
2018-06-01,0.107
2018-06-02,0.11166666666666668
2018-06-03,0.11158333333333333
2018-06-04,0.12525
2018-06-05,0.12908333333333333
2018-06-06,0.12416666666666666
2018-06-07,0.11883333333333333
2018-06-08,0.11358333333333333
2018-06-09,0.11008333333333332
2018-06-10,0.10775
2018-06-11,0.10583333333333333
2018-06-12,0.10158333333333334
2018-06-13,0.09733333333333333
2018-06-14,0.09291666666666666
2018-06-15,0.09516666666666666
2018-06-16,0.09308333333333334
2018-06-17,0.09341666666666666
2018-06-18,0.09466666666666666
2018-06-19,0.10775
2018-06-20,0.10691666666666666
2018-06-21,0.10316666666666667
2018-06-22,0.10116666666666667
2018-06-23,0.10066666666666667
2018-06-24,0.10091666666666667
2018-06-25,0.11358333333333333
2018-06-26,0.10916666666666668
2018-06-27,0.10725
2018-06-28,0.18500000000000003
2018-06-29,0.20483333333333334
2018-06-30,0.1748333333333333
2018-07-01,0.15183333333333335
2018-07-02,0.13466666666666668
2018-07-03,0.12041666666666667
2018-07-04,0.11241666666666666
2018-07-05,0.10508333333333332
2018-07-06,0.10216666666666667
2018-07-07,0.10208333333333335
2018-07-08,0.09508333333333334
2018-07-09,0.09091666666666666
2018-07-10,0.08625
2018-07-11,0.08433333333333333
2018-07-12,0.08225
2018-07-13,0.07841666666666666
2018-07-14,0.07916666666666666
2018-07-15,0.08574999999999999
2018-07-16,0.08866666666666667
2018-07-17,0.09583333333333333
2018-07-18,0.11316666666666668
2018-07-19,0.10608333333333335
2018-07-20,0.09941666666666667
2018-07-21,0.09566666666666666
2018-07-22,0.09316666666666666
2018-07-23,0.10991666666666666
2018-07-24,0.12166666666666666
2018-07-25,0.121
2018-07-26,0.14116666666666666
2018-07-27,0.13791666666666666
2018-07-28,0.13999999999999999
2018-07-29,0.13908333333333334
2018-07-30,0.127
2018-07-31,0.11775000000000001
2018-08-01,0.11358333333333333
2018-08-02,0.11183333333333334
2018-08-03,0.12366666666666666
2018-08-04,0.1435
2018-08-05,0.13458333333333333
2018-08-06,0.12366666666666666
2018-08-07,0.1205
2018-08-08,0.14891666666666667
2018-08-09,0.15841666666666668
2018-08-10,0.14316666666666666
2018-08-11,0.13025
2018-08-12,0.14516666666666667
2018-08-13,0.14275
2018-08-14,0.13858333333333334
2018-08-15,0.13133333333333333
2018-08-16,0.12325000000000001
2018-08-17,0.11833333333333333
2018-08-18,0.20183333333333334
2018-08-19,0.18891666666666665
2018-08-20,0.1635
2018-08-21,0.1485
2018-08-22,0.16374999999999998
2018-08-23,0.16716666666666666
2018-08-24,0.14866666666666667
2018-08-25,0.13583333333333333
2018-08-26,0.12525
2018-08-27,0.11725000000000001
2018-08-28,0.11233333333333334
2018-08-29,0.11041666666666666
2018-08-30,0.10683333333333334
2018-08-31,0.10325
2018-09-01,0.09591666666666666
2018-09-02,0.09283333333333332
2018-09-03,0.08941666666666666
2018-09-04,0.09208333333333334
2018-09-05,0.09000000000000001
2018-09-06,0.09249999999999999
2018-09-07,0.10466666666666667
2018-09-08,0.10266666666666667
2018-09-09,0.09866666666666667
2018-09-10,0.09941666666666667
2018-09-11,0.11066666666666668
2018-09-12,0.12133333333333333
2018-09-13,0.13491666666666668
2018-09-14,0.12716666666666668
2018-09-15,0.12041666666666667
2018-09-16,0.11483333333333334
2018-09-17,0.11158333333333333
2018-09-18,0.1789166666666667
2018-09-19,0.20475
2018-09-20,0.17716666666666667
2018-09-21,0.15491666666666667
2018-09-22,0.16016666666666668
2018-09-23,0.15408333333333332
2018-09-24,0.14016666666666666
2018-09-25,0.15883333333333335
2018-09-26,0.19283333333333333
2018-09-27,0.25025000000000003
2018-09-28,0.2373333333333333
2018-09-29,0.21533333333333335
2018-09-30,0.19141666666666668
2018-10-01,0.17158333333333334
2018-10-02,0.17033333333333334
2018-10-03,0.26125000000000004
2018-10-04,0.2324166666666667
2018-10-05,0.20641666666666666
2018-10-06,0.18558333333333332
2018-10-07,0.16683333333333336
2018-10-08,0.16216666666666668
2018-10-09,0.15214285714285714
