Date,In-situ Water Level (Mean) of Lake Otis
2012-03-16,-1.494312235
2012-03-17,-1.473885556
2012-03-18,-1.4468345569166667
2012-03-19,-1.4232887573333333
2012-03-20,-1.3982189583333333
2012-03-21,-1.379549959
2012-03-22,-1.35907755975
2012-03-23,-1.3466315600833332
2012-03-24,-1.33794476
2012-03-25,-1.33527776
2012-03-26,-1.3302231606666666
2012-03-27,-1.3331644804
2012-03-28,-1.3319757605833333
2012-03-29,-1.3265401609999998
2012-03-30,-1.3250161609166666
2012-03-31,-1.320571161
2012-04-01,-1.3166087610000001
2012-04-02,-1.3046961610833334
2012-04-03,-1.300886161
2012-04-04,-1.302977389942802
2012-04-05,-1.3032229611666668
2012-04-06,-1.3000479615
2012-04-07,-1.3049501611666667
2012-04-08,-1.3032483611666665
2012-04-09,-1.3015211611666666
2012-04-10,-1.3025117611666668
2012-04-11,-1.3013179611666665
2012-04-12,-1.3027657611666668
2012-04-13,-1.3008099615833333
2012-04-14,-1.305254961
2012-04-15,-1.3020291611666666
2012-04-16,-1.3028165611666667
2012-04-17,-1.2977873616666666
2012-04-18,-1.3049247609999999
2012-04-19,-1.306169361
2012-04-20,-1.307667961
2012-04-21,-1.310182561
2012-04-22,-1.2987779615833333
2012-04-23,-1.2449299633333333
2012-04-24,-1.216685164
2012-04-25,-1.2067537644166666
2012-04-26,-1.201419765
2012-04-27,-1.191539165
2012-04-28,-1.184681165
2012-04-29,-1.182649165
2012-04-30,-1.177645365
2012-05-01,-1.1655803657500001
2012-05-02,-1.1486131659999999
2012-05-03,-1.1310617669166667
2012-05-04,-1.1115291675833332
2012-05-05,-1.0975591679999999
2012-05-06,-1.0861545680833333
2012-05-07,-1.0777471688333333
2012-05-08,-1.064158169
2012-05-09,-1.04221257
2012-05-10,-1.01297717075
2012-05-11,-0.9921745711666666
2012-05-12,-0.9827511719166666
2012-05-13,-0.9742929720000001
2012-05-14,-0.9629137721666666
2012-05-15,-0.942314373
2012-05-16,-0.9204957737499999
2012-05-17,-0.9016235739999999
2012-05-18,-0.8958831742500001
2012-05-19,-0.8877297749166666
2012-05-20,-0.880592375
2012-05-21,-0.8758679749999999
2012-05-22,-0.848590685
2012-05-23,-0.8311639764166667
2012-05-24,-0.8199625770000001
2012-05-25,-0.808557977
2012-05-26,-0.8002013772500001
2012-05-27,-0.7949943779166667
2012-05-28,-0.791565378
2012-05-29,-0.7853169780833333
2012-05-30,-0.7634729786666666
2012-05-31,-0.7478265789999999
2012-06-01,-0.743584779
2012-06-02,-0.7156193801666667
2012-06-03,-0.6833867811666666
2012-06-04,-0.657046982
2012-06-05,-0.6359649829999999
2012-06-06,-0.6188453830833334
2012-06-07,-0.603452984
2012-06-08,-0.592327784
2012-06-09,-0.5806183846666667
2012-06-10,-0.571779185
2012-06-11,-0.5679437850000001
2012-06-12,-0.564235385
2012-06-13,-0.5420357858333333
2012-06-14,-0.532028186
2012-06-15,-0.526770386
2012-06-16,-0.524865386
2012-06-17,-0.52209678625
2012-06-18,-0.52161418625
2012-06-19,-0.5203949864166667
2012-06-20,-0.52039498625
2012-06-21,-0.5196329865833333
2012-06-22,-0.5178549868333333
2012-06-23,-0.5188455866666667
2012-06-24,-0.5233667860833333
2012-06-25,-0.5192011864166667
2012-06-26,-0.5132321869166666
2012-06-27,-0.5186169865833333
2012-06-28,-0.5219189860833333
2012-06-29,-0.525779786
2012-06-30,-0.5268211859999999
2012-07-01,-0.5265417860833334
2012-07-02,-0.526541786
2012-07-03,-0.530021586
2012-07-04,-0.534034786
2012-07-05,-0.535050786
2012-07-06,-0.540511786
2012-07-07,-0.5421627859166667
2012-07-08,-0.5476999855833333
2012-07-09,-0.55214498525
2012-07-10,-0.557326585
2012-07-11,-0.562558985
2012-07-12,-0.567765985
2012-07-13,-0.571702985
2012-07-14,-0.5756653850000001
2012-07-15,-0.5793483848333333
2012-07-16,-0.57983098475
2012-07-17,-0.5853935840833334
2012-07-18,-0.5876795840000001
2012-07-19,-0.591870584
2012-07-20,-0.593521584
2012-07-21,-0.596036184
2012-07-22,-0.6012685839999999
2012-07-23,-0.604189584
2012-07-24,-0.604443584
2012-07-25,-0.6106411835
2012-07-26,-0.616127583
2012-07-27,-0.6144257831666667
2012-07-28,-0.5969759839166667
2012-07-29,-0.5674611850000001
2012-07-30,-0.570432985
2012-07-31,-0.572972985
2012-08-01,-0.5768845850000001
2012-08-02,-0.5786371849166667
2012-08-03,-0.5808469846666667
2012-08-04,-0.58463158425
2012-08-05,-0.5861301840833334
2012-08-06,-0.573684185
2012-08-07,-0.5813549845
2012-08-08,-0.5841489841666667
2012-08-09,-0.588365384
2012-08-10,-0.5643877849166666
2012-08-11,-0.5315709860000001
2012-08-12,-0.525805186
2012-08-13,-0.528497586
2012-08-14,-0.532028186
2012-08-15,-0.5161785867500001
2012-08-16,-0.508761787
2012-08-17,-0.512698787
2012-08-18,-0.512012987
2012-08-19,-0.5154165868333334
2012-08-20,-0.5191249865833333
2012-08-21,-0.5208775864166667
2012-08-22,-0.525576586
2012-08-23,-0.5287515859999999
2012-08-24,-0.531774186
2012-08-25,-0.533044186
2012-08-26,-0.538276586
2012-08-27,-0.542264386
2012-08-28,-0.5107429866666667
2012-08-29,-0.501802187
2012-08-30,-0.5082283870000001
2012-08-31,-0.5146545868333333
2012-09-01,-0.5148577869166667
2012-09-02,-0.5181089866666667
2012-09-03,-0.5216141863333333
2012-09-04,-0.5240779861666667
2012-09-05,-0.48193938766666666
2012-09-06,-0.46776618799999997
2012-09-07,-0.468528188
2012-09-08,-0.46009538825
2012-09-09,-0.42484018933333334
2012-09-10,-0.42245258983333334
2012-09-11,-0.42417978966666664
2012-09-12,-0.4262879890833333
2012-09-13,-0.42702458899999995
2012-09-14,-0.428040589
2012-09-15,-0.4293359890833333
2012-09-16,-0.432790389
2012-09-17,-0.434796989
2012-09-18,-0.41854560781818184
2012-09-19,-0.3526469480143206
2012-09-20,-0.290423394
2012-09-21,-0.281025394
2012-09-22,-0.27282119416666667
2012-09-23,-0.245033595
2012-09-24,-0.23881059508333333
2012-09-25,-0.23507679574999998
2012-09-26,-0.23190179600000002
2012-09-27,-0.226923396
2012-09-28,-0.20538419633333335
2012-09-29,-0.164210798
2012-09-30,-0.14676099816666666
2012-10-01,-0.131698799
2012-10-02,-0.11831299916666667
2012-10-03,-0.09695159999999999
2012-10-04,-0.08257520025
2012-10-05,-0.058242001083333335
2012-10-06,-0.04434820175
2012-10-07,-0.035966201999999996
2012-10-08,-0.031521202
2012-10-09,-0.030505202
2012-10-10,-0.025603002166666666
2012-10-11,-0.001244403
2012-10-12,0.013182796583333331
2012-10-13,0.00025419683333333326
2012-10-14,-0.027254002333333333
2012-10-15,-0.030987802166666665
2012-10-16,-0.001701603
2012-10-17,0.005994597000000001
2012-10-18,0.009677597
2012-10-19,0.0183897965
2012-10-20,0.0426721955
2012-10-21,0.011861996583333333
2012-10-22,-0.046558001583333335
2012-10-23,-0.0940052
2012-10-24,-0.14190959849999998
2012-10-25,-0.17927299741666666
2012-10-26,-0.22966659575
2012-10-27,-0.32217339275
2012-10-28,-0.4218937895833333
2012-10-29,-0.5117081867500001
2012-10-30,-0.49031215118181815
2012-10-31,-0.5481571855
2012-11-01,-0.6250683830833333
2012-11-02,-0.70070958075
2012-11-03,-0.7815577780833333
2012-11-04,-0.879804975
2012-11-05,-0.9770361719166667
2012-11-06,-1.0765279685833333
2012-11-07,-1.1623291659166666
2012-11-08,-1.2057377645
2012-11-09,-1.29329156175
2012-11-10,-1.3632685594166667
2012-11-11,-1.4111221580000002
2012-11-12,-1.4542767565833332
2012-11-13,-1.5147795546666665
2012-11-14,-1.60235875175
2012-11-15,-1.6961728430729568
2012-11-16,-1.7730467464166668
2012-11-17,-1.8206463448333334
2012-11-18,-1.8565873435833333
2012-11-19,-1.882647743
2012-11-20,-1.9146517416666666
2012-11-21,-1.946909741
2012-11-22,-1.97345274
2012-11-23,-1.99351873925
2012-11-24,-2.0076919390000003
2012-11-25,-2.0200871384166668
2012-11-26,-2.0337523379166664
2012-11-27,-2.0776181365833333
2012-11-28,-2.115108535333333
2012-11-29,-2.1391369348333336
2012-11-30,-2.1550119340833334
2012-12-01,-2.1726395335
2012-12-02,-2.1867873330000003
2012-12-03,-2.186507933
2012-12-04,-2.195728133
2012-12-05,-2.179751533166667
2012-12-06,-2.184272733083333
2012-12-07,-2.195677333
2012-12-08,-2.191232333
2012-12-09,-2.188743133
2012-12-10,-2.188006533
2012-12-11,-2.1758653335
2012-12-12,-2.182774133
2012-12-13,-2.189454333
2012-12-14,-2.194407333
2012-12-15,-2.1966933330000002
2012-12-16,-2.2012145329166666
2012-12-17,-2.195931333
2012-12-18,-2.155494534166667
2012-12-19,-2.124023935
2012-12-20,-2.125725735
2012-12-21,-2.0845777364166667
2012-12-22,-2.01663273875
2012-12-23,-2.0203665384166665
2012-12-24,-2.032228338
2012-12-25,-2.046376137833333
2012-12-26,-2.063495737083333
2012-12-27,-2.04015313775
2012-12-28,-2.0503385374166667
2012-12-29,-2.076170336666667
2012-12-30,-2.0783801367500003
2012-12-31,-2.1022053359166666
2013-01-01,-2.11487993525
2013-01-02,-2.1307041349999998
2013-01-03,-2.14558853425
2013-01-04,-2.155977134
2013-01-05,-2.1617175339999997
2013-01-06,-2.1739095335833336
2013-01-07,-2.1773385333333333
2013-01-08,-2.185999933
2013-01-09,-2.1952201329166665
2013-01-10,-2.1946867329999997
2013-01-11,-2.2026369329166666
2013-01-12,-2.196185333
2013-01-13,-2.193416733
2013-01-14,-2.1773639333333334
2013-01-15,-2.164460734
2013-01-16,-2.153970534
2013-01-17,-2.150262134
2013-01-18,-2.1549865340000003
2013-01-19,-2.165476734
2013-01-20,-2.164917934
2013-01-21,-2.1741381335833334
2013-01-22,-2.1756113335833334
2013-01-23,-2.184272733
2013-01-24,-2.1900131330000003
2013-01-25,-2.2016463327499998
2013-01-26,-2.201697132916667
2013-01-27,-2.2090885324166667
2013-01-28,-2.215565532
2013-01-29,-2.2130763320833333
2013-01-30,-2.215565532083333
2013-01-31,-2.1485603344166666
2013-02-01,-2.1066503358333333
2013-02-02,-2.10639633575
2013-02-03,-2.1111715355
2013-02-04,-2.1113747355
2013-02-05,-2.119782135
2013-02-06,-2.1272243349999997
2013-02-07,-2.137816135
2013-02-08,-2.14828093425
2013-02-09,-2.0937471359999997
2013-02-10,-2.1155657353333335
2013-02-11,-2.134183935
2013-02-12,-2.14033073475
2013-02-13,-2.153487934083333
2013-02-14,-2.161260334
2013-02-15,-2.17065833375
2013-02-16,-2.17756713325
2013-02-17,-2.181554933
2013-02-18,-2.1887177330000003
2013-02-19,-2.198395133
2013-02-20,-2.193467533
2013-02-21,-2.198445933
2013-02-22,-2.2049229325833335
2013-02-23,-2.210079132166667
2013-02-24,-2.2076407322500002
2013-02-25,-2.206878732416667
2013-02-26,-2.213127132
2013-02-27,-2.1932135328333335
2013-02-28,-2.1724109338333335
2013-03-01,-2.1683977339166667
2013-03-02,-2.1700995339166664
2013-03-03,-2.173630133666667
2013-03-04,-2.17804973325
2013-03-05,-2.183967933
2013-03-06,-2.185314133
2013-03-07,-2.187981133
2013-03-08,-2.1738333334999997
2013-03-09,-2.1773385334166666
2013-03-10,-2.1833929693636365
2013-03-11,-2.186050733
2013-03-12,-2.1671785335833333
2013-03-13,-2.0937217361666667
2013-03-14,-2.072207937
2013-03-15,-2.069718737
2013-03-16,-2.070404537
2013-03-17,-2.0744177369166668
2013-03-18,-2.088032136166667
2013-03-19,-2.084603136166667
2013-03-20,-2.0890481360833335
2013-03-21,-2.1046945359166664
2013-03-22,-2.1111715354166667
2013-03-23,-2.099385936
2013-03-24,-2.0902165360000002
2013-03-25,-2.081123336583333
2013-03-26,-2.073198537
2013-03-27,-2.070150537
2013-03-28,-2.0510751373333336
2013-03-29,-2.029307338166667
2013-03-30,-2.0044661390000003
2013-03-31,-1.9763737399166665
2013-04-01,-1.93222854125
2013-04-02,-1.8789393431666666
2013-04-03,-1.8395185443333333
2013-04-04,-1.8102577450833335
2013-04-05,-1.7739865463333333
2013-04-06,-1.7328131476666666
2013-04-07,-1.6993613487500001
2013-04-08,-1.6546827501666668
2013-04-09,-1.5966945520833333
2013-04-10,-1.5142715545833332
2013-04-11,-1.4290037573333334
2013-04-12,-1.35801075975
2013-04-13,-1.2972539615
2013-04-14,-1.2364971635
2013-04-15,-1.1792201653333334
2013-04-16,-1.1509245661666665
2013-04-17,-1.167078966
2013-04-18,-1.1508991660833334
2013-04-19,-1.1372593669166666
2013-04-20,-1.08496076825
2013-04-21,-1.05100096925
2013-04-22,-1.0264391701666666
2013-04-23,-1.005026971
2013-04-24,-0.9857229715
2013-04-25,-0.95989117225
2013-04-26,-0.945997373
2013-04-27,-0.936370773
2013-04-28,-0.92720137325
2013-04-29,-0.915288774
2013-04-30,-0.909497574
2013-05-01,-0.9020807740833333
2013-05-02,-0.8988549740833333
2013-05-03,-0.8952227745833333
2013-05-04,-0.8926827745833332
2013-05-05,-0.8892029748333333
2013-05-06,-0.8877551748333333
2013-05-07,-0.8848087749166668
2013-05-08,-0.8783063750000001
2013-05-09,-0.8647427751666666
2013-05-10,-0.852804776
2013-05-11,-0.8436099760833334
2013-05-12,-0.8284969768333333
2013-05-13,-0.822451777
2013-05-14,-0.817955977
2013-05-15,-0.815060377
2013-05-16,-0.8058655770833334
2013-05-17,-0.7989059776666667
2013-05-18,-0.7973819778333334
2013-05-19,-0.792505178
2013-05-20,-0.787069578
2013-05-21,-0.782040378
2013-05-22,-0.7530843788333333
2013-05-23,-0.7300211796666667
2013-05-24,-0.6560563821666666
2013-05-25,-0.5838695844166667
2013-05-26,-0.5071869869166666
2013-05-27,-0.45341518858333335
2013-05-28,-0.41521358983333334
2013-05-29,-0.3619243915833333
2013-05-30,-0.28846759383333337
2013-05-31,-0.2336543955
2013-06-01,-0.19243019708333334
2013-06-02,-0.16169619799999999
2013-06-03,-0.11706839949999999
2013-06-04,-0.09055080008333333
2013-06-05,-0.073939201
2013-06-06,-0.061239201
2013-06-07,-0.03073380208333333
2013-06-08,0.05079672494463651
2013-06-09,0.1052069935
2013-06-10,0.07663199450000001
2013-06-11,0.07269499475
2013-06-12,0.06670059466666667
2013-06-13,0.032486796
2013-06-14,0.061061795083333335
2013-06-15,0.05186699533333333
2013-06-16,0.011455596583333333
2013-06-17,-0.04264640166666667
2013-06-18,-0.0813560005
2013-06-19,-0.04015720175
2013-06-20,-0.012649002916666667
2013-06-21,0.0025655969999999998
2013-06-22,0.009906196916666667
2013-06-23,0.011633396833333332
2013-06-24,0.013157396583333333
2013-06-25,0.01762779608333333
2013-06-26,0.015671996083333334
2013-06-27,0.012395396583333334
2013-06-28,0.0404623955
2013-06-29,0.006705796583333333
2013-06-30,-0.04188440166666666
2013-07-01,-0.030276602166666666
2013-07-02,-0.06322040116666666
2013-07-03,-0.055473401166666665
2013-07-04,-0.039928602
2013-07-05,-0.030251202
2013-07-06,-0.025044202
2013-07-07,-0.023266202
2013-07-08,-0.018618002583333335
2013-07-09,0.0022353965833333328
2013-07-10,0.01912639625
2013-07-11,0.018161196
2013-07-12,0.015138596416666665
2013-07-13,0.009652197
2013-07-14,0.002717997
2013-07-15,-0.011379003
2013-07-16,-0.022834402333333333
2013-07-17,-0.028066802000000002
2013-07-18,-0.032003802
2013-07-19,-0.033654802000000004
2013-07-20,-0.038963402
2013-07-21,-0.04511020191666667
2013-07-22,-0.05079980141666667
2013-07-23,-0.032740402
2013-07-24,-0.025831602083333332
2013-07-25,-0.033502402
2013-07-26,-0.039725402
2013-07-27,-0.041909801999999996
2013-07-28,-0.044805402
2013-07-29,-0.04706600175
2013-07-30,-0.050850601333333335
2013-07-31,-0.054559000999999996
2013-08-01,-0.054990801
2013-08-02,-0.05057120125
2013-08-03,-0.053111201
2013-08-04,-0.055295601
2013-08-05,-0.061213801000000005
2013-08-06,-0.066014401
2013-08-07,-0.068757601
2013-08-08,-0.070891201
2013-08-09,-0.034416802
2013-08-10,-0.055803601333333334
2013-08-11,-0.13070819916666668
2013-08-12,-0.135584999
2013-08-13,-0.127964999
2013-08-14,-0.1062226
2013-08-15,-0.104978
2013-08-16,-0.1042414
2013-08-17,-0.1027174
2013-08-18,-0.1011934
2013-08-19,-0.0996694
2013-08-20,-0.09890739999999999
2013-08-21,-0.0991614
2013-08-22,-0.09890739999999999
2013-08-23,-0.09913229228644801
2013-08-24,-0.10020061226928247
2013-08-25,-0.10209881274167064
2013-08-26,-0.10481334649677986
2013-08-27,-0.10833066632777741
2013-08-28,-0.11263722502783065
2013-08-29,-0.1177194753901069
2013-08-30,-0.12356387020777344
2013-08-31,-0.13015686227399764
2013-09-01,-0.13748490438194685
2013-09-02,-0.14553444932478823
2013-09-03,-0.1542919498956893
2013-09-04,-0.1637438588878173
2013-09-05,-0.1738766290943395
2013-09-06,-0.18467671330842328
2013-09-07,-0.19613056432323597
2013-09-08,-0.20822463493194482
2013-09-09,-0.22094537792771723
2013-09-10,-0.23427924610372058
2013-09-11,-0.2482126922531219
2013-09-12,-0.26273216916908887
2013-09-13,-0.27782412964478864
2013-09-14,-0.29347502647338847
2013-09-15,-0.30967131244805574
2013-09-16,-0.32639944036195784
2013-09-17,-0.343645863008262
2013-09-18,-0.36139703318013566
2013-09-19,-0.3796394036707459
2013-09-20,-0.3983594272732603
2013-09-21,-0.41754355678084615
2013-09-22,-0.4371782449866705
2013-09-23,-0.457249944683901
2013-09-24,-0.4777451086657048
2013-09-25,-0.4986501897252492
2013-09-26,-0.5199516406557018
2013-09-27,-0.5416359142502296
2013-09-28,-0.5636894633019999
2013-09-29,-0.5860987406041802
2013-09-30,-0.6088501989499379
2013-10-01,-0.6319302911324398
2013-10-02,-0.6553254699448539
2013-10-03,-0.6790221881803473
2013-10-04,-0.7030068986320871
2013-10-05,-0.7272660540932406
2013-10-06,-0.7517861073569756
2013-10-07,-0.776553511216459
2013-10-08,-0.8015547184648584
2013-10-09,-0.8267761818953407
2013-10-10,-0.8522043543010734
2013-10-11,-0.8778256884752241
2013-10-12,-0.9036266372109598
2013-10-13,-0.9295936533014482
2013-10-14,-0.9557131895398561
2013-10-15,-0.981971698719351
2013-10-16,-1.0083556336331
2013-10-17,-1.0348514470742716
2013-10-18,-1.0614455918360317
2013-10-19,-1.0881245207115482
2013-10-20,-1.1148746864939882
2013-10-21,-1.1416825419765193
2013-10-22,-1.168534539952309
2013-10-23,-1.195417133214524
2013-10-24,-1.2223167745563321
2013-10-25,-1.2492199167709006
2013-10-26,-1.2761130126513962
2013-10-27,-1.3029825149909875
2013-10-28,-1.3298148765828406
2013-10-29,-1.356596550220123
2013-10-30,-1.3833139886960026
2013-10-31,-1.4099536448036463
2013-11-01,-1.4365019713362217
2013-11-02,-1.4629454210868957
2013-11-03,-1.489270446848836
2013-11-04,-1.51546350141521
2013-11-05,-1.5415110375791845
2013-11-06,-1.5673995081339274
2013-11-07,-1.5931153658726056
2013-11-08,-1.6186450635883862
2013-11-09,-1.6439750540744378
2013-11-10,-1.669091790123926
2013-11-11,-1.6939817245300188
2013-11-12,-1.7186313100858845
2013-11-13,-1.7430269995846888
2013-11-14,-1.7671552458196003
2013-11-15,-1.7910025015837854
2013-11-16,-1.814555219670412
2013-11-17,-1.8377998528726474
2013-11-18,-1.8607228539836582
2013-11-19,-1.8833106757966134
2013-11-20,-1.9055497711046785
2013-11-21,-1.9274265927010215
2013-11-22,-1.94892759337881
2013-11-23,-1.970039225931211
2013-11-24,-1.990747943151392
2013-11-25,-2.01104019783252
2013-11-26,-2.0309024427677627
2013-11-27,-2.050321130750287
2013-11-28,-2.06928271457326
2013-11-29,-2.087773647029851
2013-11-30,-2.1057803809132247
2013-12-01,-2.1232893690165495
2013-12-02,-2.140287064132994
2013-12-03,-2.156759919055723
2013-12-04,-2.1726943865779056
2013-12-05,-2.1880769194927088
2013-12-06,-2.2028939705932995
2013-12-07,-2.2171319926728446
2013-12-08,-2.230777438524513
2013-12-09,-2.2438167609414714
2013-12-10,-2.256236412716886
2013-12-11,-2.268022846643925
2013-12-12,-2.2791625155157558
2013-12-13,-2.2896418721255456
2013-12-14,-2.299447369266462
2013-12-15,-2.308565459731672
2013-12-16,-2.3169825963143427
2013-12-17,-2.324685231807642
2013-12-18,-2.331659819004736
2013-12-19,-2.337892810698794
2013-12-20,-2.3433706596829817
2013-12-21,-2.348079818750467
2013-12-22,-2.3520067406944176
2013-12-23,-2.3551378783079997
2013-12-24,-2.357459684384382
2013-12-25,-2.358958611716731
2013-12-26,-2.3596211130982137
2013-12-27,-2.3594336413219983
2013-12-28,-2.3583826491812516
2013-12-29,-2.356454589469141
2013-12-30,-2.3536359149788337
2013-12-31,-2.349913078503498
2014-01-01,-2.345272532836299
2014-01-02,-2.339700730770406
2014-01-03,-2.3331841250989864
2014-01-04,-2.325709168615206
2014-01-05,-2.317262314112233
2014-01-06,-2.3078300143832355
2014-01-07,-2.297398722221379
2014-01-08,-2.2859548904198324
2014-01-09,-2.2734849717717625
2014-01-10,-2.259975419070336
2014-01-11,-2.2454126851087213
2014-01-12,-2.2297832226800853
2014-01-13,-2.213073484577595
2014-01-14,-2.195269923594418
2014-01-15,-2.176358992523722
2014-01-16,-2.156327144158673
2014-01-17,-2.13516083129244
2014-01-18,-2.112846506718189
2014-01-19,-2.089370623229088
2014-01-20,-2.0647196336183047
2014-01-21,-2.0388799906790056
2014-01-22,-2.0118381472043576
2014-01-23,-1.9835805559875295
2014-01-24,-1.9540936698216875
2014-01-25,-1.9233639415
2014-01-26,-1.8967701425
2014-01-27,-1.8890993429166667
2014-01-28,-1.8814539430000001
2014-01-29,-1.876221543
2014-01-30,-1.870049343
2014-01-31,-1.86753474325
2014-02-01,-1.8649947431666665
2014-02-02,-1.8585431436666668
2014-02-03,-1.850872344
2014-02-04,-1.844446144
2014-02-05,-1.8377913443333334
2014-02-06,-1.82811394475
2014-02-07,-1.8409409440833333
2014-02-08,-1.8474687439999997
2014-02-09,-1.8568667438333335
2014-02-10,-1.86080374375
2014-02-11,-1.873046543
2014-02-12,-1.8841717430000002
2014-02-13,-1.8893025428333334
2014-02-14,-1.853107544
2014-02-15,-1.8826223428333335
2014-02-16,-1.9107401419999999
2014-02-17,-1.9473669406666667
2014-02-18,-1.9838159394166668
2014-02-19,-2.01244173875
2014-02-20,-2.0366225379166667
2014-02-21,-2.0664929369166667
2014-02-22,-2.0934931361666664
2014-02-23,-2.1242525351666663
2014-02-24,-2.15353873425
2014-02-25,-2.1870159330833334
2014-02-26,-2.2202645320833336
2014-02-27,-2.249296731083333
2014-02-28,-2.2582375310000002
2014-03-01,-2.2708867305
2014-03-02,-2.28445033
2014-03-03,-2.29288313
2014-03-04,-2.3041099291666667
2014-03-05,-2.316530529
2014-03-06,-2.329103528666667
2014-03-07,-2.342311528
2014-03-08,-2.342387728
2014-03-09,-2.3412516552727274
2014-03-10,-2.3458167280000004
2014-03-11,-2.343835528
2014-03-12,-2.3413209281666667
2014-03-13,-2.313584129
2014-03-14,-2.308529529
2014-03-15,-2.3038559290833334
2014-03-16,-2.2968709297500003
2014-03-17,-2.2933657299166668
2014-03-18,-2.28071653
2014-03-19,-2.2708359301666667
2014-03-20,-2.235123531583333
2014-03-21,-2.208605932333333
2014-03-22,-2.188260533083333
2014-03-23,-2.1654259339166666
2014-03-24,-2.149042934166667
2014-03-25,-2.135428535
2014-03-26,-2.1173437351666666
2014-03-27,-2.1031451359999997
2014-03-28,-2.088540136166667
2014-03-29,-2.05183713725
2014-03-30,-1.962703675134663
2014-03-31,-1.835352699442326
2014-04-01,-1.6963051465496595
2014-04-02,-1.5720819528333332
2014-04-03,-1.47838135575
2014-04-04,-1.3910307586666668
2014-04-05,-1.3186153609166666
2014-04-06,-1.3431517603333332
2014-04-07,-1.3959329585000002
2014-04-08,-1.4344393571666665
2014-04-09,-1.4624809563333334
2014-04-10,-1.5105631546666667
2014-04-11,-1.56123615325
2014-04-12,-1.5832833523333332
2014-04-13,-1.53019735425
2014-04-14,-1.4810737556666667
2014-04-15,-1.4260065573333334
2014-04-16,-1.3287779349030395
2014-04-17,-1.2334999635833335
2014-04-18,-1.1797027653333334
2014-04-19,-1.1274041670833332
2014-04-20,-1.09014236825
2014-04-21,-1.0589003691666667
2014-04-22,-1.0303761700833334
2014-04-23,-1.0027917710833332
2014-04-24,-0.9864595715000001
2014-04-25,-0.974521572
2014-04-26,-0.939799773
2014-04-27,-0.90261417425
2014-04-28,-0.8827513749999999
2014-04-29,-0.8601961755833334
2014-04-30,-0.820292777
2014-05-01,-0.712220719731155
2014-05-02,-0.5960107840000001
2014-05-03,-0.533602986
2014-05-04,-0.4834379875833334
2014-05-05,-0.445210989
2014-05-06,-0.41818538975
2014-05-07,-0.39786539016666667
2014-05-08,-0.381710991
2014-05-09,-0.3631181913333333
2014-05-10,-0.344525392
2014-05-11,-0.3274057928333333
2014-05-12,-0.316483793
2014-05-13,-0.30512999308333333
2014-05-14,-0.29700199391666665
2014-05-15,-0.285444994
2014-05-16,-0.2607053946666667
2014-05-17,-0.1796328452602096
2014-05-18,-0.09474180008333333
2014-05-19,-0.05852140125
2014-05-20,-0.030733802083333334
2014-05-21,-0.012953803
2014-05-22,0.0037339969166666665
2014-05-23,0.020802796
2014-05-24,0.029540396
2014-05-25,0.034417196000000004
2014-05-26,0.034417196000000004
2014-05-27,0.032207396
2014-05-28,0.033426596
2014-05-29,0.029997596
2014-05-30,0.028041795999999997
2014-05-31,0.025806596
2014-06-01,0.024282596
2014-06-02,0.019583595999999998
2014-06-03,0.018643796166666667
2014-06-04,0.021793396000000003
2014-06-05,0.029184796
2014-06-06,0.031978796
2014-06-07,0.026339996
2014-06-08,0.023520596
2014-06-09,0.020980596
2014-06-10,0.018643796
2014-06-11,0.026060596000000002
2014-06-12,0.030784996
2014-06-13,0.032486796000000005
2014-06-14,-0.004978202916666667
2014-06-15,-0.06225520116666666
2014-06-16,-0.062483801
2014-06-17,-0.060705801000000004
2014-06-18,-0.05105380141666666
2014-06-19,-0.04480540191666666
2014-06-20,-0.043383002000000004
2014-06-21,-0.039217402
2014-06-22,-0.037693401999999994
2014-06-23,-0.035382002
2014-06-24,-0.041427201999999996
2014-06-25,-0.037947402
2014-06-26,-0.015163602916666666
2014-06-27,-0.011633003000000001
2014-06-28,-0.012903003000000001
2014-06-29,-0.012623602916666666
2014-06-30,-0.014681003
2014-07-01,-0.01689080275
2014-07-02,-0.006451403166666667
2014-07-03,0.015900596166666666
2014-07-04,-0.007670602833333334
2014-07-05,-0.04437360158333333
2014-07-06,-0.04564360183333333
2014-07-07,-0.025044202249999998
2014-07-08,0.004241997
2014-07-09,0.024282596
2014-07-10,0.03947179591666666
2014-07-11,0.04023379583333333
2014-07-12,0.017373796416666667
2014-07-13,-0.005943403
2014-07-14,0.02283479608333333
2014-07-15,0.043434195333333335
2014-07-16,0.07741939441666666
2014-07-17,0.08034039416666666
2014-07-18,0.07145039466666667
2014-07-19,0.0758699945
2014-07-20,0.05806459508333334
2014-07-21,0.034721996
2014-07-22,0.033451996000000005
2014-07-23,0.02654319608333333
2014-07-24,0.035966595750000004
2014-07-25,0.019075596333333333
2014-07-26,0.0067565966666666664
2014-07-27,0.0110644367
2014-07-28,0.06661284936363637
2014-07-29,0.05189239508333333
2014-07-30,0.035509395916666665
2014-07-31,0.01884699625
2014-08-01,0.003987997
2014-08-02,0.008483796833333333
2014-08-03,-0.007950003
2014-08-04,-0.021081802333333333
2014-08-05,-0.016154202833333336
2014-08-06,-0.004190803
2014-08-07,5.0996999999999925e-05
2014-08-08,-0.000990403
2014-08-09,-0.001701603
2014-08-10,0.0017781969999999998
2014-08-11,-0.0016508030000000002
2014-08-12,-0.005841803
2014-08-13,0.04917459525
2014-08-14,0.11310639324999999
2014-08-15,0.08709679399999999
2014-08-16,0.06377959500000001
2014-08-17,0.040716395583333335
2014-08-18,0.02011699625
2014-08-19,-0.001676203
2014-08-20,-0.017373402666666666
2014-08-21,-0.011633003000000001
2014-08-22,0.0010415968333333334
2014-08-23,0.0032513969166666668
2014-08-24,0.0030227970000000002
2014-08-25,0.005715196749999999
2014-08-26,0.009448996666666666
2014-08-27,0.00843299675
2014-08-28,0.027051196083333336
2014-08-29,0.016687996416666667
2014-08-30,0.005461196916666667
2014-08-31,0.005003996916666667
2014-09-01,0.005232596999999999
2014-09-02,0.004013396916666667
2014-09-03,0.007264596833333334
2014-09-04,-0.0002538030833333332
2014-09-05,-0.004165403
2014-09-06,-0.003936803
2014-09-07,0.006731196916666667
2014-09-08,0.0034799970000000003
2014-09-09,0.002032197
2014-09-10,-0.002641403
2014-09-11,-0.003200203
2014-09-12,-0.008127802916666668
2014-09-13,-0.012420403000000002
2014-09-14,-0.012877602916666666
2014-09-15,-0.014401602916666667
2014-09-16,-0.01435080275
2014-09-17,-0.016840002583333333
2014-09-18,-0.01765280275
2014-09-19,-0.020091202416666665
2014-09-20,-0.026822202166666666
2014-09-21,-0.029006602000000003
2014-09-22,-0.02628880208333333
2014-09-23,-0.036194802
2014-09-24,-0.037668002
2014-09-25,-0.041147802000000004
2014-09-26,-0.040944602
2014-09-27,-0.044322802
2014-09-28,-0.043891002000000005
2014-09-29,-0.04483080191666666
2014-09-30,-0.04579600191666667
2014-10-01,-0.042392401999999996
2014-10-02,-0.033477002
2014-10-03,-0.036448801999999995
2014-10-04,-0.027533402250000002
2014-10-05,-0.007873803
2014-10-06,-0.008102403
2014-10-07,-0.011658403
2014-10-08,-0.002946203
2014-10-09,-0.0027176030000000003
2014-10-10,-0.005638603
2014-10-11,-0.001981003
2014-10-12,5.0996999999999966e-05
2014-10-13,-0.003936803
2014-10-14,-0.003200203
2014-10-15,0.0017781969166666665
2014-10-16,0.045643995416666666
2014-10-17,0.05481339541666667
2014-10-18,0.019583596499999998
2014-10-19,-0.06674865013305224
2014-10-20,-0.12626319908333333
2014-10-21,-0.10858479975
2014-10-22,-0.09898359999999999
2014-10-23,-0.013868202750000001
2014-10-24,0.05062239525
2014-10-25,0.018313596249999998
2014-10-26,-0.05529560125
2014-10-27,-0.12722839891666668
2014-10-28,-0.17906979741666665
2014-10-29,-0.2298951956666667
2014-10-30,-0.27980619433333337
2014-10-31,-0.3385563921666666
2014-11-01,-0.39441099041666666
2014-11-02,-0.46926478800000004
2014-11-03,-0.533552186
2014-11-04,-0.6104633836666666
2014-11-05,-0.6819135810833333
2014-11-06,-0.7545829789166666
2014-11-07,-0.82125797675
2014-11-08,-0.8924541745
2014-11-09,-0.972311772
2014-11-10,-1.0465051696666667
2014-11-11,-1.1188951673333334
2014-11-12,-1.1859257650833335
2014-11-13,-1.26055096275
2014-11-14,-1.3295373605833334
2014-11-15,-1.4007081582499998
2014-11-16,-1.4764001558333335
2014-11-17,-1.5400779539166667
2014-11-18,-1.647492268622408
2014-11-19,-1.7679197204414128
2014-11-20,-1.8419823441666665
2014-11-21,-1.8417283440833332
2014-11-22,-1.8362927441666665
2014-11-23,-1.820671745
2014-11-24,-1.7945859456666666
2014-11-25,-1.7655537468333333
2014-11-26,-1.7501867471666666
2014-11-27,-1.721022468
2014-11-28,-1.722907148
2014-11-29,-1.726361548
2014-11-30,-1.7407887475
2014-12-01,-1.7911569456666667
2014-12-02,-1.8268439446666667
2014-12-03,-1.8600671436666667
2014-12-04,-1.8724623431666665
2014-12-05,-1.8935443425
2014-12-06,-1.8901153428333333
2014-12-07,-1.9114513419166668
2014-12-08,-1.96578194025
2014-12-09,-1.9727161399166666
2014-12-10,-1.8732751431666665
2014-12-11,-1.8630389435
2014-12-12,-1.875484943
2014-12-13,-1.9085049422500002
2014-12-14,-1.9949789794332045
2014-12-15,-2.1046437358333336
2014-12-16,-2.1929849329166666
2014-12-17,-2.2433785314166665
2014-12-18,-2.299639529333333
2014-12-19,-2.3416003281666664
2014-12-20,-2.3155145290833334
2014-12-21,-2.283739130166667
2014-12-22,-2.2567389309999997
2014-12-23,-2.226182732
2014-12-24,-2.1921975329166665
2014-12-25,-2.1396449345833335
2014-12-26,-2.10565973575
2014-12-27,-2.093975736
2014-12-28,-2.0852889363333333
2014-12-29,-2.0783547368333335
2014-12-30,-2.084095136333333
2014-12-31,-2.093696336083333
2015-01-01,-2.097506336
2015-01-02,-2.1085807356666666
2015-01-03,-2.117623135
2015-01-04,-2.110866735583333
2015-01-05,-2.0912833361666667
2015-01-06,-2.1044151358333334
2015-01-07,-2.106370935833333
2015-01-08,-2.1187915351666664
2015-01-09,-2.1252685350833334
2015-01-10,-2.127960935
2015-01-11,-2.1371303348333335
2015-01-12,-2.1388575346666667
2015-01-13,-2.136876334833333
2015-01-14,-2.14805233425
2015-01-15,-2.157450334
2015-01-16,-2.1619969339166665
2015-01-17,-2.164155934
2015-01-18,-2.1582885340833333
2015-01-19,-2.098877936
2015-01-20,-2.0934931359999998
2015-01-21,-2.100147936
2015-01-22,-2.10390713575
2015-01-23,-2.1138639354166666
2015-01-24,-2.115565735416667
2015-01-25,-2.1205949350833335
2015-01-26,-2.129205535
2015-01-27,-2.1269703349999998
2015-01-28,-2.126259135
2015-01-29,-2.139898934666667
2015-01-30,-2.1445725343333333
2015-01-31,-2.15252273425
2015-02-01,-2.15452933425
2015-02-02,-2.1475697342499998
2015-02-03,-2.1448519344166668
2015-02-04,-2.1612349339166665
2015-02-05,-2.1632161340000002
2015-02-06,-2.163266933916667
2015-02-07,-2.1733761333333335
2015-02-08,-2.1743667335
2015-02-09,-2.166441933916667
2015-02-10,-2.16766113375
2015-02-11,-2.1719283336666666
2015-02-12,-2.1726141335
2015-02-13,-2.1768305333333333
2015-02-14,-2.1850601330833332
2015-02-15,-2.1792689331666666
2015-02-16,-2.1924769329166667
2015-02-17,-2.191968933
2015-02-18,-2.1964647329166667
2015-02-19,-2.1966679329166667
2015-02-20,-2.2026369329166666
2015-02-21,-2.2059135325833332
2015-02-22,-2.2004525329166666
2015-02-23,-2.2009351328333335
2015-02-24,-2.2065993325
2015-02-25,-2.2063707325
2015-02-26,-2.2071581325
2015-02-27,-2.2083773323333333
2015-02-28,-2.210587132166667
2015-03-01,-2.214346332
2015-03-02,-2.20789473225
2015-03-03,-2.2110443324166664
2015-03-04,-2.2041355325833334
2015-03-05,-2.2046435325833333
2015-03-06,-2.2108919321666667
2015-03-07,-2.214066932166667
2015-03-08,-2.211850205
2015-03-09,-2.2150575321666666
2015-03-10,-2.2160227320833337
2015-03-11,-2.2066501325
2015-03-12,-2.199157133
2015-03-13,-2.1996651327500003
2015-03-14,-2.195169333
2015-03-15,-2.178354533166667
2015-03-16,-2.1743921335
2015-03-17,-2.169134333666667
2015-03-18,-2.1622255340833334
2015-03-19,-2.1719283335833333
2015-03-20,-2.1711663338333334
2015-03-21,-2.17040433375
2015-03-22,-2.1711409336666665
2015-03-23,-2.1728681335833335
2015-03-24,-2.1733761335
2015-03-25,-2.1770591333333336
2015-03-26,-2.1783545331666665
2015-03-27,-2.15178613425
2015-03-28,-2.13964493475
2015-03-29,-2.144343934583333
2015-03-30,-2.1423627345833336
2015-03-31,-2.1418293345833335
2015-04-01,-2.1405593350000003
2015-04-02,-2.1435565345833334
2015-04-03,-2.1247351350833332
2015-04-04,-2.0493479375833332
2015-04-05,-2.014626138666667
2015-04-06,-2.0076919390000003
2015-04-07,-1.9954999391666668
2015-04-08,-1.97810093975
2015-04-09,-1.9072349421666666
2015-04-10,-1.82189094475
2015-04-11,-1.719913577983517
2015-04-12,-1.62219615125
2015-04-13,-1.5465549536666667
2015-04-14,-1.4656813561666666
2015-04-15,-1.3900655585
2015-04-16,-1.3463775599166665
2015-04-17,-1.3036801615
2015-04-18,-1.2558265628333334
2015-04-19,-1.2079983643333334
2015-04-20,-1.1293599668333334
2015-04-21,-1.0750801686666667
2015-04-22,-1.0207241705
2015-04-23,-0.9633709721666667
2015-04-24,-0.9254233735833334
2015-04-25,-0.8951719744999999
2015-04-26,-0.8661143754166667
2015-04-27,-0.8388347764166667
2015-04-28,-0.8287001764999999
2015-04-29,-0.7929877777500001
2015-04-30,-0.7736329784166668
2015-05-01,-0.7496045790833333
2015-05-02,-0.7389111794166667
2015-05-03,-0.7310117796666668
2015-05-04,-0.7176005800833334
2015-05-05,-0.71211418025
2015-05-06,-0.683666181
2015-05-07,-0.6764525813333333
2015-05-08,-0.6676895819166666
2015-05-09,-0.663752582
2015-05-10,-0.661593582
2015-05-11,-0.659790182
2015-05-12,-0.659815582
2015-05-13,-0.6689341818333333
2015-05-14,-0.6692389816666666
2015-05-15,-0.666673582
2015-05-16,-0.6639557819166667
2015-05-17,-0.6619999820833333
2015-05-18,-0.6513065820833334
2015-05-19,-0.6499095820833333
2015-05-20,-0.6454391824166666
2015-05-21,-0.6496301823333334
2015-05-22,-0.664438382
2015-05-23,-0.6748777814999999
2015-05-24,-0.6793735814166667
2015-05-25,-0.6771637814166667
2015-05-26,-0.67619858125
2015-05-27,-0.6684261818333334
2015-05-28,-0.6561510547272728
2015-05-29,-0.6498587821666667
2015-05-30,-0.6439405825
2015-05-31,-0.6416291825833333
2015-06-01,-0.6302245829166667
2015-06-02,-0.57668138475
2015-06-03,-0.5481317855833333
2015-06-04,-0.5370065860000001
2015-06-05,-0.5216141863333333
2015-06-06,-0.5082283869166667
2015-06-07,-0.5003289871666666
2015-06-08,-0.48887358733333336
2015-06-09,-0.4576315884166667
2015-06-10,-0.444220389
2015-06-11,-0.4359907890833334
2015-06-12,-0.41920138991666667
2015-06-13,-0.4008879900833333
2015-06-14,-0.381710991
2015-06-15,-0.30581579333333336
2015-06-16,-0.24678619516666667
2015-06-17,-0.22400239591666668
2015-06-18,-0.20662879641666668
2015-06-19,-0.18455619716666669
2015-06-20,-0.17711399708333334
2015-06-21,-0.13985219883333333
2015-06-22,-0.10645119966666666
2015-06-23,-0.094127582
2015-06-24,-0.043383001750000004
2015-06-25,-0.04810740141666667
2015-06-26,-0.033248402249999996
2015-06-27,-0.001269803
2015-06-28,0.052603595333333336
2015-06-29,0.10093979366666667
2015-06-30,0.12872739283333332
2015-07-01,0.16400799166666666
2015-07-02,0.19001759083333333
2015-07-03,0.16327139166666668
2015-07-04,0.10144779366666666
2015-07-05,0.12237739308333333
2015-07-06,0.118313393
2015-07-07,0.12235199291666667
2015-07-08,0.14391659216666666
2015-07-09,0.16200139158333335
2015-07-10,0.1800861911666667
2015-07-11,0.19621519066666668
2015-07-12,0.17142479133333333
2015-07-13,0.18630919099999999
2015-07-14,0.18260079108333335
2015-07-15,0.16568439158333334
2015-07-16,0.17193279141666665
2015-07-17,0.16992619141666665
2015-07-18,0.1850645909166667
2015-07-19,0.18133079116666664
2015-07-20,0.18356599091666667
2015-07-21,0.17886699116666668
2015-07-22,0.18404859091666667
2015-07-23,0.18630919091666667
2015-07-24,0.18778239100000002
2015-07-25,0.15775959191666666
2015-07-26,0.16723379158333332
2015-07-27,0.18354059091666666
2015-07-28,0.18775699091666667
2015-07-29,0.15953759191666667
2015-07-30,0.17117079141666666
2015-07-31,0.15880099191666666
2015-08-01,0.16205219158333334
2015-08-02,0.13622039233333333
2015-08-03,0.11061719316666667
2015-08-04,0.11788159308333333
2015-08-05,0.11851659308333333
2015-08-06,0.12031999308333334
2015-08-07,0.1401319925
2015-08-08,0.10520699358333334
2015-08-09,0.17340599116666666
2015-08-10,0.13294379258333333
2015-08-11,0.118338793
2015-08-12,0.12255519291666667
2015-08-13,0.13390899266666667
2015-08-14,0.12054859291666666
2015-08-15,0.1381660326
2015-08-16,0.18432756834520178
2015-08-17,0.21792677002423017
2015-08-18,0.19354819083333333
2015-08-19,0.121539193
2015-08-20,0.14259579241666667
2015-08-21,0.15206999225
2015-08-22,0.1788669913333333
2015-08-23,0.17117079141666666
2015-08-24,0.2021587905
2015-08-25,0.183591391
2015-08-26,0.11610359324999998
2015-08-27,0.125044393
2015-08-28,0.08435359391666668
2015-08-29,0.06431299433333333
2015-08-30,0.07820679391666667
2015-08-31,0.07574299391666667
2015-09-01,0.11912619258333333
2015-09-02,0.0898907935
2015-09-03,0.078968794
2015-09-04,0.08618239350000001
2015-09-05,0.08839219358333333
2015-09-06,0.08763019358333334
2015-09-07,0.08120399383333333
2015-09-08,0.06555759433333333
2015-09-09,0.073812594
2015-09-10,0.10175259325000001
2015-09-11,0.13726179208333333
2015-09-12,0.10106679316666667
2015-09-13,0.10304799308333333
2015-09-14,0.10924559291666668
2015-09-15,0.07053599416666667
2015-09-16,0.07503179391666666
2015-09-17,0.10553719299999999
2015-09-18,0.07305059408333334
2015-09-19,0.09560579333333334
2015-09-20,0.09931419333333334
2015-09-21,0.06758959425
2015-09-22,0.07073919416666667
2015-09-23,0.08315979375
2015-09-24,0.05669299458333333
2015-09-25,0.11498599258333335
2015-09-26,0.108686793
2015-09-27,0.04549159491666666
2015-09-28,0.08196599391666666
2015-09-29,0.04772679491666667
2015-09-30,0.10751839291666666
2015-10-01,0.051320796791666665
2015-10-02,0.01316999775
2015-10-03,0.02727969741666667
2015-10-04,0.007723805239128166
2015-10-05,0.021152504305825093
2015-10-06,0.02727525032377614
2015-10-07,0.03770639741666667
2015-10-08,0.04180849733333333
2015-10-09,0.056083296916666664
2015-10-10,0.04852679720833333
2015-10-11,0.055222179880732386
2015-10-12,0.029385480132946108
2015-10-13,0.042837438027020114
2015-10-14,0.03728729758333334
2015-10-15,0.034378997791666664
2015-10-16,0.0429133975
2015-10-17,-0.001943001708333332
2015-10-18,-0.05982960083333333
2015-10-19,-0.09308371832763808
2015-10-20,-0.0824950050463564
2015-10-21,-0.07190198913772988
2015-10-22,-0.08345160020833334
2015-10-23,-0.06063267713685508
2015-10-24,-0.07751288505710341
2015-10-25,-0.09239240025
2015-10-26,-0.1151121701036099
2015-10-27,-0.11988093314290488
2015-10-28,-0.14480529933333333
2015-10-29,-0.12701259970833334
2015-10-30,-0.15239456687850642
2015-10-31,-0.18955588153493086
2015-11-01,-0.2323009547155565
2015-11-02,-0.2734816975833333
2015-11-03,-0.33860729616666674
2015-11-04,-0.355422096125
2015-11-05,-0.4245481950833333
2015-11-06,-0.5049264936666666
2015-11-07,-0.5994279296522144
2015-11-08,-0.6843774906666666
2015-11-09,-0.7592998240565935
2015-11-10,-0.8353670446502102
2015-11-11,-0.8799701877916667
2015-11-12,-0.95697028625
2015-11-13,-1.003790989909104
2015-11-14,-1.0727040414442808
2015-11-15,-1.1604242830833333
2015-11-16,-1.2453088647783042
2015-11-17,-1.3237209730051953
2015-11-18,-1.3729992355628229
2015-11-19,-1.4195931787916667
2015-11-20,-1.4231491790416666
2015-11-21,-1.4961487777083333
2015-11-22,-1.5649192763333333
2015-11-23,-1.6198197706901252
2015-11-24,-1.679918189320607
2015-11-25,-1.747085990030286
2015-11-26,-1.8195114592329267
2015-11-27,-1.8940559909924088
2015-11-28,-1.9625643076475354
2015-11-29,-2.027393599291295
2015-11-30,-2.1086937554333423
2015-12-01,-2.178227666708333
2015-12-02,-2.224582666083333
2015-12-03,-2.226894342990968
2015-12-04,-2.21964088136494
2015-12-05,-2.219758354274873
2015-12-06,-2.1944115363320575
2015-12-07,-2.1815930998561135
2015-12-08,-2.1590469192083317
2015-12-09,-2.1394418674583333
2015-12-10,-2.1484842672083335
2015-12-11,-2.149127133940575
2015-12-12,-2.1603001963352124
2015-12-13,-2.157772375988729
2015-12-14,-2.1707541924559415
2015-12-15,-2.1630257674583335
2015-12-16,-2.1659423065933234
2015-12-17,-2.1774134607120708
2015-12-18,-2.1590633675833333
2015-12-19,-2.160023782939903
2015-12-20,-2.1618936475373554
2015-12-21,-2.1574144222619633
2015-12-22,-2.1691725670416666
2015-12-23,-2.1588855672916667
2015-12-24,-2.1265541775111987
2015-12-25,-2.135364376185067
2015-12-26,-2.1237089213080687
2015-12-27,-2.117775668416667
2015-12-28,-2.1217507682916663
2015-12-29,-2.1150705683333335
2015-12-30,-2.1107597477989497
2015-12-31,-2.116009386265072
2016-01-01,-2.113851335477553
2016-01-02,-2.127385945515578
2016-01-03,-2.135619168
2016-01-04,-2.1360509680833335
2016-01-05,-2.1480905677083335
2016-01-06,-2.154402467583333
2016-01-07,-2.1722078672083334
2016-01-08,-2.181009433840085
2016-01-09,-2.179754534171503
2016-01-10,-2.1647529674583335
2016-01-11,-2.11420696825
2016-01-12,-2.107518257615265
2016-01-13,-2.117468789753408
2016-01-14,-2.1249765681249997
2016-01-15,-2.1304248678333333
2016-01-16,-2.128811967875
2016-01-17,-2.1327616679583334
2016-01-18,-2.1361017677499996
2016-01-19,-2.1429216676666663
2016-01-20,-2.1506432675
2016-01-21,-2.1582632672916664
2016-01-22,-2.16176846725
2016-01-23,-2.1693630670416666
2016-01-24,-2.169972667041667
2016-01-25,-2.1775418670416666
2016-01-26,-2.1802596669166667
2016-01-27,-2.186215966791667
2016-01-28,-2.186292166875
2016-01-29,-2.1484080670416668
2016-01-30,-2.1424517671250003
2016-01-31,-2.142628713633614
2016-02-01,-2.140867898433617
2016-02-02,-2.1324631677668116
2016-02-03,-2.1025737677083334
2016-02-04,-2.0443696685
2016-02-05,-2.0175345689583333
2016-02-06,-1.999170369375
2016-02-07,-1.9856905851693587
2016-02-08,-1.9659374012832331
2016-02-09,-1.938662363297012
2016-02-10,-1.9147455156660844
2016-02-11,-1.8979041033041733
2016-02-12,-1.8844512712083334
2016-02-13,-1.8694017715416666
2016-02-14,-1.8660680634689735
2016-02-15,-1.8537849393794978
2016-02-16,-1.8153378724166667
2016-02-17,-1.7247614739166668
2016-02-18,-1.6850612744583333
2016-02-19,-1.6683861747083335
2016-02-20,-1.63643297525
2016-02-21,-1.6166336757083335
2016-02-22,-1.6070324757916667
2016-02-23,-1.5996283758333334
2016-02-24,-1.5779240762083333
2016-02-25,-1.4756614529543501
2016-02-26,-1.4061946792083333
2016-02-27,-1.4620492780416665
2016-02-28,-1.4981172775416667
2016-02-29,-1.5107029773333334
2016-03-01,-1.5425291767916667
2016-03-02,-1.5507968764583335
2016-03-03,-1.5758920761666666
2016-03-04,-1.5648176762916668
2016-03-05,-1.5482822766250002
2016-03-06,-1.5346805768333334
2016-03-07,-1.525511177
2016-03-08,-1.509966377375
2016-03-09,-1.5053435773750001
2016-03-10,-1.484413977625
2016-03-11,-1.4570273224827741
2016-03-12,-1.4367029838573977
2016-03-13,-1.4107655245324893
2016-03-14,-1.3670024799166667
2016-03-15,-1.3413103799583332
2016-03-16,-1.2814298814166667
2016-03-17,-1.2520928816666665
2016-03-18,-1.2209506602621318
2016-03-19,-1.1905933104896063
2016-03-20,-1.1872011460347776
2016-03-21,-1.1706096826666665
2016-03-22,-1.1504039830416666
2016-03-23,-1.1346178832083333
2016-03-24,-1.1156059835833334
2016-03-25,-1.0884717852866437
2016-03-26,-1.0786652317717722
2016-03-27,-1.0560045049126812
2016-03-28,-1.0348974852500001
2016-03-29,-1.0093704856249999
2016-03-30,-0.9985627857499999
2016-03-31,-0.97748078625
2016-04-01,-0.9605365146298345
2016-04-02,-0.9258102415011356
2016-04-03,-0.9359692398510355
2016-04-04,-0.9221214870000001
2016-04-05,-0.9071862871666666
2016-04-06,-0.892365387375
2016-04-07,-0.8879237754323155
2016-04-08,-0.8304357733720643
2016-04-09,-0.7907959264289887
2016-04-10,-0.7811358820461644
2016-04-11,-0.755827689375
2016-04-12,-0.7050826368022545
2016-04-13,-0.6745595735727521
2016-04-14,-0.6553452909999999
2016-04-15,-0.6065542800048498
2016-04-16,-0.5937268215625295
2016-04-17,-0.5844416986306111
2016-04-18,-0.5606667932083333
2016-04-19,-0.57012829275
2016-04-20,-0.56329569275
2016-04-21,-0.5493129930833334
2016-04-22,-0.5353504308622357
2016-04-23,-0.5308014927831732
2016-04-24,-0.5148009555000241
2016-04-25,-0.4846699949166667
2016-04-26,-0.44574449608333333
2016-04-27,-0.46586129512499996
2016-04-28,-0.48275229458333335
2016-04-29,-0.4741174755910489
2016-04-30,-0.4753119419089278
2016-05-01,-0.4556711352723428
2016-05-02,-0.4193665962916666
2016-05-03,-0.40338999616666665
2016-05-04,-0.362851597125
2016-05-05,-0.37188129645833334
2016-05-06,-0.3409456222574631
2016-05-07,-0.3121260185612833
2016-05-08,-0.29964774423903706
2016-05-09,-0.3052138592849678
2016-05-10,-0.3050258237766522
2016-05-11,-0.30074859720833336
2016-05-12,-0.26441389829166667
2016-05-13,-0.2504321617587136
2016-05-14,-0.24585233137031356
2016-05-15,-0.23309823841306448
2016-05-16,-0.22921391292356386
2016-05-17,-0.22148728568840936
2016-05-18,-0.23011198678586547
2016-05-19,-0.2197699480025298
2016-05-20,-0.20900379904166666
2016-05-21,-0.171869000125
2016-05-22,-0.1746141096945868
2016-05-23,-0.17604696754692312
2016-05-24,-0.163321900125
2016-05-25,-0.17876509954166667
2016-05-26,-0.15463510020833332
2016-05-27,-0.1469389005
2016-05-28,-0.11996410120833334
2016-05-29,-0.10351576325336723
2016-05-30,-0.09526829582813409
2016-05-31,-0.1092493306555006
2016-06-01,-0.09288770175
2016-06-02,-0.10905480116666666
2016-06-03,-0.11546830108333334
2016-06-04,-0.09382750183333334
2016-06-05,-0.08785803388512103
2016-06-06,-0.12354803820209659
2016-06-07,-0.12067712384483335
2016-06-08,-0.09928850075000001
2016-06-09,-0.09469110095833334
2016-06-10,-0.08351510129166667
2016-06-11,-0.07566650133333333
2016-06-12,-0.06719737835987001
2016-06-13,-0.07691806371588478
2016-06-14,-0.055850468713957144
2016-06-15,-0.06770360133333334
2016-06-16,-0.04051290220833333
2016-06-17,-0.050431601916666666
2016-06-18,-0.031229202374999997
2016-06-19,-0.02789295712527175
2016-06-20,-0.06793633358720286
2016-06-21,-0.0285241025
2016-06-22,-0.060617001625
2016-06-23,-0.05924540158333333
2016-06-24,-0.029569234473540183
2016-06-25,-0.0043052035
2016-06-26,-0.0002779119069930558
2016-06-27,-0.01592310987060356
2016-06-28,0.00517149435108772
2016-06-29,0.005092795999999997
2016-06-30,0.024904795458333323
2016-07-01,0.017284795666666672
2016-07-02,-0.008737503666666674
2016-07-03,-0.052478580744343306
2016-07-04,-0.011529982645526245
2016-07-05,-0.015997343703112753
2016-07-06,-0.04039860287500001
2016-07-07,-0.027533503458333337
2016-07-08,0.0022225957500000004
2016-07-09,-0.036080603083333336
2016-07-10,-0.039425840785605036
2016-07-11,-0.010502410987514699
2016-07-12,-0.015135791791152327
2016-07-13,-0.056299162923607975
2016-07-14,-0.06692520661197165
2016-07-15,-0.023774303583333337
2016-07-16,-0.065011202375
2016-07-17,-0.04602472428356763
2016-07-18,0.006324863992531737
2016-07-19,0.012170783778903238
2016-07-20,-0.029937992482814917
2016-07-21,-0.06374392465341742
2016-07-22,-0.07963486640486328
2016-07-23,-0.08370036713083938
2016-07-24,-0.083212046062877
2016-07-25,-0.08305247112663339
2016-07-26,-0.0889388586654553
2016-07-27,-0.1066536566832348
2016-07-28,-0.1290490401638117
2016-07-29,-0.14752310041666666
2016-07-30,-0.14992340041666666
2016-07-31,-0.14726796014656457
2016-08-01,-0.14133137497056908
2016-08-02,-0.1296693690109751
2016-08-03,-0.12245330104166666
2016-08-04,-0.1440052005
2016-08-05,-0.12877790104166667
2016-08-06,-0.12412060576901243
2016-08-07,-0.13295246612098335
2016-08-08,-0.13705678098385735
2016-08-09,-0.12018185637818565
2016-08-10,-0.08103636463291713
2016-08-11,-0.04435321390350781
2016-08-12,-0.014706504791666686
2016-08-13,0.01675139475000001
2016-08-14,0.06780162291782114
2016-08-15,0.09550443052728386
2016-08-16,0.06634489312499998
2016-08-17,0.03776989391666667
2016-08-18,0.04305309374999998
2016-08-19,0.08235440903765212
2016-08-20,0.06688461206801118
2016-08-21,0.068497596139418
2016-08-22,0.030078758425213417
2016-08-23,0.01180834733228614
2016-08-24,0.02154718396535879
2016-08-25,0.040271793416666674
2016-08-26,0.039509793375000005
2016-08-27,-0.00887186546330615
2016-08-28,-0.047010941584409216
2016-08-29,-0.019915295058244936
2016-08-30,0.024560870365209
2016-08-31,0.026247468522747452
2016-09-01,-0.02133185860136827
2016-09-02,-0.0979707259075016
2016-09-03,-0.13197830166666666
2016-09-04,-0.09467821785840141
2016-09-05,-0.12093212137649036
2016-09-06,-0.16188601623504437
2016-09-07,-0.157835501125
2016-09-08,-0.18474680020833334
2016-09-09,-0.1755647004166667
2016-09-10,-0.17623780041666667
2016-09-11,-0.1837521741660529
2016-09-12,-0.1930908770286987
2016-09-13,-0.20654429121032852
2016-09-14,-0.21896059916666666
2016-09-15,-0.20524459966666667
2016-09-16,-0.22706319908333333
2016-09-17,-0.204634999875
2016-09-18,-0.2158528081166362
2016-09-19,-0.20516207189016616
2016-09-20,-0.19860834944777972
2016-09-21,-0.22054809895833333
2016-09-22,-0.19839929979166668
2016-09-23,-0.18486110025
2016-09-24,-0.20614029875335177
2016-09-25,-0.17739218771227996
2016-09-26,-0.20410797535703235
2016-09-27,-0.18636907633452313
2016-09-28,-0.20563829979166665
2016-09-29,-0.17128480083333333
2016-09-30,-0.18860760029166665
2016-10-01,-0.16744940091666666
2016-10-02,-0.2039111904244505
2016-10-03,-0.18853427122559832
2016-10-04,-0.17040001658061363
2016-10-05,-0.21663649945833333
2016-10-06,-0.23484829899999998
2016-10-07,-0.1932812004166667
2016-10-08,-0.212610599875
2016-10-09,-0.24396639691045505
2016-10-10,-0.23259077161769864
2016-10-11,-0.23857604392536833
2016-10-12,-0.2542342421396397
2016-10-13,-0.264562785354548
2016-10-14,-0.29330639754166665
2016-10-15,-0.29206179754166667
2016-10-16,-0.32660579695833336
2016-10-17,-0.36583609637500003
2016-10-18,-0.3538345967916666
2016-10-19,-0.3686985087893282
2016-10-20,-0.3594643373614286
2016-10-21,-0.36569694521114793
2016-10-22,-0.36968419620833337
2016-10-23,-0.3742307960833333
2016-10-24,-0.4202909783809469
2016-10-25,-0.4714646754545829
2016-10-26,-0.5364482815300942
2016-10-27,-0.5629781930833333
2016-10-28,-0.5809994925833333
2016-10-29,-0.6267702917083333
2016-10-30,-0.6683123536765452
2016-10-31,-0.7220587059710823
2016-11-01,-0.7736903505509115
2016-11-02,-0.8101201891250001
2016-11-03,-0.8789795878333333
2016-11-04,-0.9407142868333334
2016-11-05,-0.9827893861666668
2016-11-06,-1.0494262849583333
2016-11-07,-1.0879580845416665
2016-11-08,-1.1471679687779863
2016-11-09,-1.1872207941558277
2016-11-10,-1.2409248765405094
2016-11-11,-1.296968733005683
2016-11-12,-1.36281148
2016-11-13,-1.4212314791666667
2016-11-14,-1.4873222778333333
2016-11-15,-1.5343630770833334
2016-11-16,-1.5635349769583333
2016-11-17,-1.6179644059848188
2016-11-18,-1.669351042316778
2016-11-19,-1.7158610453028484
2016-11-20,-1.7408142740833332
2016-11-21,-1.7895822733333333
2016-11-22,-1.8240152019188653
2016-11-23,-1.8441223639060156
2016-11-24,-1.890599726204271
2016-11-25,-1.8901607598481203
2016-11-26,-1.9039103313303838
2016-11-27,-1.9256814092272156
2016-11-28,-1.930383963073104
2016-11-29,-1.9238778608608693
2016-11-30,-1.9033361713333334
2016-12-01,-1.8725186930035465
2016-12-02,-1.8557536435904796
2016-12-03,-1.8598640717916666
2016-12-04,-1.8560032719166666
2016-12-05,-1.8621500719166666
2016-12-06,-1.8759168714999999
2016-12-07,-1.875535871625
2016-12-08,-1.8773011715
2016-12-09,-1.9083068372572738
2016-12-10,-1.9410358245539983
2016-12-11,-1.965591570125
2016-12-12,-1.96334367025
2016-12-13,-1.967699770125
2016-12-14,-2.0356952193507265
2016-12-15,-2.0981414687499997
2016-12-16,-2.137243082409984
2016-12-17,-2.136931797323159
2016-12-18,-2.1331934676249995
2016-12-19,-2.152459367583333
2016-12-20,-2.158745867375
2016-12-21,-2.172334867125
2016-12-22,-2.1760559670416666
2016-12-23,-2.1858857670000003
2016-12-24,-2.1792817669583333
2016-12-25,-2.1695016995713594
2016-12-26,-2.1694253973201514
2016-12-27,-2.159749167333333
2016-12-28,-2.1612020113029686
2016-12-29,-2.1216495181748805
2016-12-30,-2.0903944695416667
2016-12-31,-2.124109098177441
2017-01-01,-2.1686759168994496
2017-01-02,-2.174438264790026
2017-01-03,-2.163292467083333
2017-01-04,-2.1436613651139753
2017-01-05,-2.134630742075219
2017-01-06,-2.1345142678333335
2017-01-07,-2.141410367875
2017-01-08,-2.1475825676249998
2017-01-09,-2.1512147675
2017-01-10,-2.1572218675
2017-01-11,-2.151570367583333
2017-01-12,-2.14561406775
2017-01-13,-2.107425168458333
2017-01-14,-2.1070568684583333
2017-01-15,-2.1081617684583334
2017-01-16,-2.103335768625
2017-01-17,-2.1030171090485577
2017-01-18,-2.103791805390546
2017-01-19,-2.1103207685416665
2017-01-20,-2.1161627682083335
2017-01-21,-2.1230715680416665
2017-01-22,-2.1281769680416662
2017-01-23,-2.137168568
2017-01-24,-2.1285509048609237
2017-01-25,-2.118069444653981
2017-01-26,-2.122258768208333
2017-01-27,-2.1220047681666667
2017-01-28,-2.1301835680416668
2017-01-29,-2.1397593679583333
2017-01-30,-2.1467189676666667
2017-01-31,-2.1487509676666665
2017-02-01,-2.0920708680833333
2017-02-02,-2.079637568125
2017-02-03,-2.066454968375
2017-02-04,-2.055990168708333
2017-02-05,-2.055939368541667
2017-02-06,-2.0391727678280125
2017-02-07,-2.0262290084513417
2017-02-08,-2.00689196925
2017-02-09,-1.9839574688959005
2017-02-10,-1.9628914837702078
2017-02-11,-1.9444681306709828
2017-02-12,-1.9304394263546212
2017-02-13,-1.902318667602518
2017-02-14,-1.8826173176088035
2017-02-15,-1.85928
2017-02-16,-1.832520684584896
2017-02-17,-1.8107740633436749
2017-02-18,-1.804416
2017-02-19,-1.81356
2017-02-20,-1.8074590367792323
2017-02-21,-1.7858593298939578
2017-02-22,-1.758696
2017-02-23,-1.740408
2017-02-24,-1.734312
2017-02-25,-1.667256
2017-02-26,-1.574615840575544
2017-02-27,-1.50876
2017-02-28,-1.49352
2017-03-01,-1.47828
2017-03-02,-1.469136
2017-03-03,-1.469136
2017-03-04,-1.4478
2017-03-05,-1.40208
2017-03-06,-1.377696
2017-03-07,-1.365504
2017-03-08,-1.34112
2017-03-09,-1.316736
2017-03-10,-1.316736
2017-03-11,-1.316736
2017-03-12,-1.31064
2017-03-13,-1.307592
2017-03-14,-1.2921469756369435
2017-03-15,-1.2639134263115046
2017-03-16,-1.2284294530543876
2017-03-17,-1.191233156896296
2017-03-18,-1.157862638867932
2017-03-19,-1.133856
2017-03-20,-1.133856
2017-03-21,-1.17348
2017-03-22,-1.17348
2017-03-23,-1.15824
2017-03-24,-1.141386988523495
2017-03-25,-1.1245217549599984
2017-03-26,-1.1092756439165024
2017-03-27,-1.09728
2017-03-28,-1.08204
2017-03-29,-1.042416
2017-03-30,-1.00584
2017-03-31,-0.96012
2017-04-01,-0.9144
2017-04-02,-0.94488
2017-04-03,-0.950976
2017-04-04,-0.8597041788919464
2017-04-05,-0.73152
2017-04-06,-0.633984
2017-04-07,-0.54864
2017-04-08,-0.4572
2017-04-09,-0.3516996796008385
2017-04-10,-0.24693810747854983
2017-04-11,-0.1634874816169862
2017-04-12,-0.12192
2017-04-13,-0.118872
2017-04-14,-0.088392
2017-04-15,-0.06096
2017-04-16,-0.04572
2017-04-17,-0.02413234557390436
2017-04-18,0.001991372999924167
2017-04-19,0.024384
2017-04-20,0.039624
2017-04-21,0.06096
2017-04-22,0.085344
2017-04-23,0.09144
2017-04-24,0.115824
2017-04-25,0.115824
2017-04-26,0.124968
2017-04-27,0.140208
2017-04-28,0.146304
2017-04-29,0.146304
2017-04-30,0.146304
2017-05-01,0.1524
2017-05-02,0.1524
2017-05-03,0.1524
2017-05-04,0.146304
2017-05-05,0.146304
2017-05-06,0.18288
2017-05-07,0.188976
2017-05-08,0.188976
2017-05-09,0.18288
2017-05-10,0.155448
2017-05-11,0.13716
2017-05-12,0.115824
2017-05-13,0.103632
2017-05-14,0.18288
2017-05-15,0.21336
2017-05-16,0.216408
2017-05-17,0.188976
2017-05-18,0.1524
2017-05-19,0.146304
2017-05-20,0.12192
2017-05-21,0.09144
2017-05-22,0.0762
2017-05-23,0.064008
2017-05-24,0.06096
2017-05-25,0.054864
2017-05-26,0.06096
2017-05-27,0.06096
2017-05-28,0.06096
2017-05-29,0.06096
2017-05-30,0.06096
2017-05-31,0.06096
2017-06-01,0.054864
2017-06-02,0.054864
2017-06-03,0.04572
2017-06-04,0.036576
2017-06-05,0.03048
2017-06-06,0.036576
2017-06-07,0.06096
2017-06-08,0.0762
2017-06-09,0.09144
2017-06-10,0.097536
2017-06-11,0.097536
2017-06-12,0.10668
2017-06-13,0.10668
2017-06-14,0.09144
2017-06-15,0.0762
2017-06-16,0.064008
2017-06-17,0.039624
2017-06-18,0.04572
2017-06-19,0.03048
2017-06-20,0.0762
2017-06-21,0.0762
2017-06-22,0.0762
2017-06-23,0.0762
2017-06-24,0.0762
2017-06-25,0.0762
2017-06-26,0.0762
2017-06-27,0.085344
2017-06-28,0.085344
2017-06-29,0.0762
2017-06-30,0.0762
2017-07-01,0.085344
2017-07-02,0.085344
2017-07-03,0.067056
2017-07-04,0.06096
2017-07-05,0.06096
2017-07-06,0.06096
2017-07-07,0.06096
2017-07-08,0.06096
2017-07-09,0.06096
2017-07-10,0.06096
2017-07-11,0.06096
2017-07-12,0.057912
2017-07-13,0.109728
2017-07-14,0.09144
2017-07-15,0.09144
2017-07-16,0.088392
2017-07-17,0.067056
2017-07-18,0.0762
2017-07-19,0.10668
2017-07-20,0.10668
2017-07-21,0.085344
2017-07-22,0.06096
2017-07-23,0.06096
2017-07-24,0.057912
2017-07-25,0.067056
2017-07-26,0.06096
2017-07-27,0.06096
2017-07-28,0.06096
2017-07-29,0.06096
2017-07-30,0.054864
2017-07-31,0.054864
2017-08-01,0.054864
2017-08-02,0.054864
2017-08-03,0.054864
2017-08-04,0.054864
2017-08-05,0.06096
2017-08-06,0.054864
2017-08-07,0.054864
2017-08-08,0.054864
2017-08-09,0.04572
2017-08-10,0.04572
2017-08-11,0.039624
2017-08-12,0.04572
2017-08-13,0.04572
2017-08-14,0.04572
2017-08-15,0.04572
2017-08-16,0.04572
2017-08-17,0.039624
2017-08-18,0.04572
2017-08-19,0.04572
2017-08-20,0.039624
2017-08-21,0.036576
2017-08-22,0.033528
2017-08-23,0.039624
2017-08-24,0.036576
2017-08-25,0.036576
2017-08-26,0.033528
2017-08-27,0.033528
2017-08-28,0.033528
2017-08-29,0.024384
2017-08-30,0.01524
2017-08-31,0.006096
2017-09-01,0.0
2017-09-02,-0.006096
2017-09-03,0.0
2017-09-04,0.024384
2017-09-05,0.027432
2017-09-06,0.036576
2017-09-07,0.04572
2017-09-08,0.04572
2017-09-09,0.04572
2017-09-10,0.039624
2017-09-11,0.036576
2017-09-12,0.03048
2017-09-13,0.03048
2017-09-14,0.03048
2017-09-15,0.03048
2017-09-16,0.03048
2017-09-17,0.03048
2017-09-18,0.03048
2017-09-19,0.03048
2017-09-20,0.024384
2017-09-21,0.024384
2017-09-22,0.021336
2017-09-23,0.01524
2017-09-24,0.01524
2017-09-25,0.012192
2017-09-26,0.012192
2017-09-27,0.009144
2017-09-28,0.006096
2017-09-29,0.0
2017-09-30,0.0
2017-10-01,0.0
2017-10-02,-0.006096
2017-10-03,-0.009144
2017-10-04,-0.01524
2017-10-05,-0.01524
2017-10-06,-0.024384
2017-10-07,-0.024384
2017-10-08,-0.033528
2017-10-09,0.03048
2017-10-10,0.03048
2017-10-11,0.03048
2017-10-12,0.033528
2017-10-13,0.036576
2017-10-14,-0.036576
2017-10-15,-0.1423215366584637
2017-10-16,-0.204216
2017-10-17,-0.188976
2017-10-18,-0.188976
2017-10-19,-0.188976
2017-10-20,-0.188976
2017-10-21,-0.188976
2017-10-22,-0.237744
2017-10-23,-0.280416
2017-10-24,-0.298704
2017-10-25,-0.280416
2017-10-26,-0.280416
2017-10-27,-0.310896
2017-10-28,-0.3067597688990781
2017-10-29,-0.2701960812841464
2017-10-30,-0.22578835302714148
2017-10-31,-0.19812
2017-11-01,-0.19812
2017-11-02,-0.19812
2017-11-03,-0.210312
2017-11-04,-0.2286
2017-11-05,-0.25908
2017-11-06,-0.2859645430977247
2017-11-07,-0.3102617543924016
2017-11-08,-0.3394480884908777
2017-11-09,-0.381
2017-11-10,-0.438912
2017-11-11,-0.50292
2017-11-12,-0.56388
2017-11-13,-0.6318375172341469
2017-11-14,-0.7060394315905101
2017-11-15,-0.7815516301516183
2017-11-16,-0.85344
2017-11-17,-0.9181889093998858
2017-11-18,-0.977956651342308
2017-11-19,-1.03632
2017-11-20,-1.0966960470274723
2017-11-21,-1.1618631540063413
2017-11-22,-1.23444
2017-11-23,-1.3143797913791144
2017-11-24,-1.3909738437434385
2017-11-25,-1.450848
2017-11-26,-1.49352
2017-11-27,-1.5558488290355759
2017-11-28,-1.63068
2017-11-29,-1.697736
2017-11-30,-1.749552
2017-12-01,-1.804416
2017-12-02,-1.85928
2017-12-03,-1.92024
2017-12-04,-1.976224879439693
2017-12-05,-2.015316701329374
2017-12-06,-2.02692
2017-12-07,-2.02692
2017-12-08,-2.0944068447628283
2017-12-09,-2.16408
2017-12-10,-2.167128
2017-12-11,-2.167128
2017-12-12,-2.170176
2017-12-13,-2.170176
2017-12-14,-2.17932
2017-12-15,-2.17932
2017-12-16,-2.19456
2017-12-17,-2.19456
2017-12-18,-2.19456
2017-12-19,-2.19456
2017-12-20,-2.19456
2017-12-21,-2.1952098288228186
2017-12-22,-2.1964764816538875
2017-12-23,-2.198264495338619
2017-12-24,-2.200478406722423
2017-12-25,-2.203022752650712
2017-12-26,-2.2058020699688967
2017-12-27,-2.2087208955223896
2017-12-28,-2.2116837661566002
2017-12-29,-2.2145952187169415
2017-12-30,-2.2173597900488247
2017-12-31,-2.2198820169976603
2018-01-01,-2.2220664364088605
2018-01-02,-2.223817585127837
2018-01-03,-2.22504
2018-01-04,-2.2256551150207775
2018-01-05,-2.2256519527856606
2018-01-06,-2.225036433040154
2018-01-07,-2.2238144755297657
2018-01-08,-2.221992
2018-01-09,-2.221992
2018-01-10,-2.22504
2018-01-11,-2.212848
2018-01-12,-2.19456
2018-01-13,-2.097024
2018-01-14,-2.07264
2018-01-15,-2.078736
2018-01-16,-2.08788
2018-01-17,-2.08788
2018-01-18,-2.08788
2018-01-19,-2.097024
2018-01-20,-2.10312
2018-01-21,-2.11836
2018-01-22,-2.1336
2018-01-23,-2.11836
2018-01-24,-2.097024
2018-01-25,-2.10312
2018-01-26,-2.109216
2018-01-27,-2.109216
2018-01-28,-2.11836
2018-01-29,-2.127504
2018-01-30,-2.1336
2018-01-31,-2.139696
2018-02-01,-2.04216
2018-02-02,-2.005584
2018-02-03,-1.9812
2018-02-04,-1.972056
2018-02-05,-1.9635311999976899
2018-02-06,-1.9415260290017793
2018-02-07,-1.895856
2018-02-08,-1.834896
2018-02-09,-1.81356
2018-02-10,-1.79832
2018-02-11,-1.7552125336345337
2018-02-12,-1.702441367359128
2018-02-13,-1.670304
2018-02-14,-1.670304
2018-02-15,-1.66116
2018-02-16,-1.66116
2018-02-17,-1.66116
2018-02-18,-1.64592
2018-02-19,-1.66116
2018-02-20,-1.66116
2018-02-21,-1.652016
2018-02-22,-1.64592
2018-02-23,-1.64592
2018-02-24,-1.64592
2018-02-25,-1.621536
2018-02-26,-1.61544
2018-02-27,-1.61544
2018-02-28,-1.621536
2018-03-01,-1.639824
2018-03-02,-1.612392
2018-03-03,-1.6002
2018-03-04,-1.61544
2018-03-05,-1.63068
2018-03-06,-1.64592
2018-03-07,-1.64592
2018-03-08,-1.63068
2018-03-09,-1.64592
2018-03-10,-1.66116
2018-03-11,-1.6764
2018-03-12,-1.682496
2018-03-13,-1.6764
2018-03-14,-1.682496
2018-03-15,-1.682496
2018-03-16,-1.700784
2018-03-17,-1.712976
2018-03-18,-1.725168
2018-03-19,-1.73736
2018-03-20,-1.73736
2018-03-21,-1.73736
2018-03-22,-1.73736
2018-03-23,-1.734312
2018-03-24,-1.734312
2018-03-25,-1.7298576650087232
2018-03-26,-1.7191181556960962
2018-03-27,-1.7029236722246128
2018-03-28,-1.6821044147567676
2018-03-29,-1.6574905834550544
2018-03-30,-1.6299123784819671
2018-03-31,-1.6002
2018-04-01,-1.5687006916855077
2018-04-02,-1.5338298712702885
2018-04-03,-1.49352
2018-04-04,-1.4478
2018-04-05,-1.40208
2018-04-06,-1.35636
2018-04-07,-1.316736
2018-04-08,-1.274064
2018-04-09,-1.255776
2018-04-10,-1.23444
2018-04-11,-1.194816
2018-04-12,-1.17348
2018-04-13,-1.15824
2018-04-14,-1.1377295914081471
2018-04-15,-1.101077081174288
2018-04-16,-1.03632
2018-04-17,-0.94488
2018-04-18,-0.86868
2018-04-19,-0.80772
2018-04-20,-0.74676
2018-04-21,-0.70104
2018-04-22,-0.665548432292018
2018-04-23,-0.6353280938321395
2018-04-24,-0.6074837084561913
2018-04-25,-0.57912
2018-04-26,-0.54864
2018-04-27,-0.51816
2018-04-28,-0.48768
2018-04-29,-0.46314386533295837
2018-04-30,-0.4426115468067657
2018-05-01,-0.4215456956140938
2018-05-02,-0.3954089629476145
2018-05-03,-0.359664
2018-05-04,-0.32004
2018-05-05,-0.3048
2018-05-06,-0.28956
2018-05-07,-0.27388401670296525
2018-05-08,-0.25902165799278054
2018-05-09,-0.24384
2018-05-10,-0.2286
2018-05-11,-0.219456
2018-05-12,-0.219456
2018-05-13,-0.21370540097153523
2018-05-14,-0.20084272359587205
2018-05-15,-0.18433268442227282
2018-05-16,-0.16764
2018-05-17,-0.155448
2018-05-18,-0.1524
2018-05-19,-0.146304
2018-05-20,-0.12932139242921692
2018-05-21,-0.10662594144741959
2018-05-22,-0.08624351974191245
2018-05-23,-0.0762
2018-05-24,-0.0762
2018-05-25,-0.067056
2018-05-26,-0.067056
2018-05-27,-0.06650808875476669
2018-05-28,-0.06285048875476668
2018-05-29,-0.058247644377383334
2018-05-30,-0.054864
2018-05-31,-0.054864
