﻿WB,Reference WL,Bathymetry WL,REF - BATHY,,"If difference is positive and >0.01, add that value to bathymetry depths; if do not adjust we are overestimating the further calculations (depth exposure area)"
ASH,1.033,1.006,0.027,,"If difference is negative and <-0.01, then subtract (or add the negative number) the difference from bathymetry depths; if do not adjust we are understimating the further calculations (exposed area)"
BRK,1.154,1.157,-0.003,,Differences that are >0.01 or <-0.01 which is the accuracy of the instrument
BOO,0.6985,0.748,-0.0495,,
BUL,1.2485,1.4705,-0.222,,
COG,0.314,0.33,-0.016,,
CRN,0.547,0.579,-0.032,,
GAR,2.315,2.445,-0.13,,
GOS,1.972,1.974,-0.002,,
GRN,0.521,0.514,0.007,,
HAM,1.853,1.919,-0.066,,
LEV,0.761,0.888,-0.127,,
ONT,2.622,2.63,-0.008,,
OTS,6.34685,6.423412144,-0.076562144,,
QUA,0.7755,0.996,-0.2205,,
RCH,0.817,0.805,0.012,,
SIL,1.615,1.656,-0.041,,
STI,NA,No bathymetry conducted,,,
STK,2.28,2.2305,0.0495,,
WAT,1.058,1.066,-0.008,,
WIC,0.587,0.5258,0.06125,,
WYM,0.911,0.9305,-0.0195,,
WYO,1.645,1.6977,-0.052666667,,
,,,,,
"THE ONLY NUMBERS THAT MATTER ARE THE DIFFERENCES IN REFERENCE AND BATHYMETRY WATER LEVELS, ASSUMING THESE ARE COMING FROM CORRESPONDING VERSIONS OF THE WATER LEVEL DATA",,,,,
"NO NEED TO CHANGE THE REFERENCE WATER LEVELS, ONLY THE REF-BATHY DIFFERENCES MATTER.",,,,,
